%!PS-Adobe-3.0 EPSF-3.0
%%BoundingBox: 150 245 494 528
%%HiResBoundingBox: 150.756 245.274 493.134 527.894
%%Title: /media/sf_OneDrive/Research/projects/squark/squark/latex/vldb19/eps/cakdist.eps
%%Creator: matplotlib version 2.0.0, http://matplotlib.org/
%%CreationDate: Mon Apr 23 16:22:29 2018
%%Orientation: portrait
%%EndComments
%%BeginProlog
/mpldict 8 dict def
mpldict begin
/m { moveto } bind def
/l { lineto } bind def
/r { rlineto } bind def
/c { curveto } bind def
/cl { closepath } bind def
/box {
m
1 index 0 r
0 exch r
neg 0 r
cl
} bind def
/clipbox {
box
clip
newpath
} bind def
%!PS-Adobe-3.0 Resource-Font
%%Title: DejaVu Sans
%%Copyright: Copyright (c) 2003 by Bitstream, Inc. All Rights Reserved. Copyright (c) 2006 by Tavmjong Bah. All Rights Reserved. DejaVu changes are in public domain 
%%Creator: Converted from TrueType to type 3 by PPR
25 dict begin
/_d{bind def}bind def
/_m{moveto}_d
/_l{lineto}_d
/_cl{closepath eofill}_d
/_c{curveto}_d
/_sc{7 -1 roll{setcachedevice}{pop pop pop pop pop pop}ifelse}_d
/_e{exec}_d
/FontName /DejaVuSans def
/PaintType 0 def
/FontMatrix[.001 0 0 .001 0 0]def
/FontBBox[-1021 -463 1793 1232]def
/FontType 3 def
/Encoding [ /space /percent /parenleft /parenright /zero /one /two /C /D /P /a /b /c /d /e /f /g /i /k /l /n /o /r /s /t /u /w /y /minus ] def
/FontInfo 10 dict dup begin
/FamilyName (DejaVu Sans) def
/FullName (DejaVu Sans) def
/Notice (Copyright (c) 2003 by Bitstream, Inc. All Rights Reserved. Copyright (c) 2006 by Tavmjong Bah. All Rights Reserved. DejaVu changes are in public domain ) def
/Weight (Book) def
/Version (Version 2.35) def
/ItalicAngle 0.0 def
/isFixedPitch false def
/UnderlinePosition -130 def
/UnderlineThickness 90 def
end readonly def
/CharStrings 29 dict dup begin
/space{318 0 0 0 0 0 _sc
}_d
/percent{{950 0 55 -13 895 742 _sc
727 321 _m
699 321 676 309 660 285 _c
644 261 636 227 636 184 _c
636 142 644 108 660 84 _c
676 60 699 48 727 48 _c
755 48 777 60 793 84 _c
809 108 817 142 817 184 _c
817 226 809 260 793 284 _c
777 308 755 321 727 321 _c
727 383 _m
778 383 819 365 849 329 _c
879 293 895 244 895 184 _c
895 123 879 75 849 40 _c
819 4 778 -13 727 -13 _c
}_e{675 -13 633 4 603 40 _c
573 75 558 123 558 184 _c
558 245 573 293 603 329 _c
633 365 675 383 727 383 _c
223 680 _m
195 680 173 667 157 643 _c
141 619 133 586 133 544 _c
133 500 141 467 157 443 _c
173 419 195 407 223 407 _c
251 407 274 419 290 443 _c
306 467 314 500 314 544 _c
314 586 305 619 289 643 _c
273 667 251 680 223 680 _c
664 742 _m
742 742 _l
286 -13 _l
}_e{208 -13 _l
664 742 _l
223 742 _m
274 742 315 724 346 688 _c
376 652 392 604 392 544 _c
392 482 376 434 346 398 _c
316 362 275 345 223 345 _c
171 345 130 362 100 398 _c
70 434 55 482 55 544 _c
55 604 70 652 100 688 _c
130 724 171 742 223 742 _c
_cl}_e}_d
/parenleft{390 0 86 -131 310 759 _sc
310 759 _m
266 683 234 609 213 536 _c
191 463 181 389 181 314 _c
181 238 191 164 213 91 _c
234 17 266 -56 310 -131 _c
232 -131 _l
183 -54 146 20 122 94 _c
98 168 86 241 86 314 _c
86 386 98 459 122 533 _c
146 607 182 682 232 759 _c
310 759 _l
_cl}_d
/parenright{390 0 80 -131 304 759 _sc
80 759 _m
158 759 _l
206 682 243 607 267 533 _c
291 459 304 386 304 314 _c
304 241 291 168 267 94 _c
243 20 206 -54 158 -131 _c
80 -131 _l
123 -56 155 17 177 91 _c
198 164 209 238 209 314 _c
209 389 198 463 177 536 _c
155 609 123 683 80 759 _c
_cl}_d
/zero{636 0 66 -13 570 742 _sc
318 664 _m
267 664 229 639 203 589 _c
177 539 165 464 165 364 _c
165 264 177 189 203 139 _c
229 89 267 64 318 64 _c
369 64 407 89 433 139 _c
458 189 471 264 471 364 _c
471 464 458 539 433 589 _c
407 639 369 664 318 664 _c
318 742 _m
399 742 461 709 505 645 _c
548 580 570 486 570 364 _c
570 241 548 147 505 83 _c
461 19 399 -13 318 -13 _c
236 -13 173 19 130 83 _c
87 147 66 241 66 364 _c
66 486 87 580 130 645 _c
173 709 236 742 318 742 _c
_cl}_d
/one{636 0 110 0 544 729 _sc
124 83 _m
285 83 _l
285 639 _l
110 604 _l
110 694 _l
284 729 _l
383 729 _l
383 83 _l
544 83 _l
544 0 _l
124 0 _l
124 83 _l
_cl}_d
/two{{636 0 73 0 536 742 _sc
192 83 _m
536 83 _l
536 0 _l
73 0 _l
73 83 _l
110 121 161 173 226 239 _c
290 304 331 346 348 365 _c
380 400 402 430 414 455 _c
426 479 433 504 433 528 _c
433 566 419 598 392 622 _c
365 646 330 659 286 659 _c
255 659 222 653 188 643 _c
154 632 117 616 78 594 _c
78 694 _l
118 710 155 722 189 730 _c
223 738 255 742 284 742 _c
}_e{359 742 419 723 464 685 _c
509 647 532 597 532 534 _c
532 504 526 475 515 449 _c
504 422 484 390 454 354 _c
446 344 420 317 376 272 _c
332 227 271 164 192 83 _c
_cl}_e}_d
/C{{698 0 56 -13 644 742 _sc
644 673 _m
644 569 _l
610 599 575 622 537 638 _c
499 653 460 661 418 661 _c
334 661 270 635 226 584 _c
182 533 160 460 160 364 _c
160 268 182 194 226 143 _c
270 92 334 67 418 67 _c
460 67 499 74 537 90 _c
575 105 610 128 644 159 _c
644 56 _l
609 32 572 15 534 4 _c
496 -7 455 -13 412 -13 _c
302 -13 215 20 151 87 _c
}_e{87 154 56 246 56 364 _c
56 481 87 573 151 641 _c
215 708 302 742 412 742 _c
456 742 497 736 535 725 _c
573 713 610 696 644 673 _c
_cl}_e}_d
/D{770 0 98 0 711 729 _sc
197 648 _m
197 81 _l
316 81 _l
416 81 490 103 537 149 _c
583 195 607 267 607 365 _c
607 463 583 534 537 580 _c
490 625 416 648 316 648 _c
197 648 _l
98 729 _m
301 729 _l
442 729 546 699 612 641 _c
678 582 711 490 711 365 _c
711 239 677 147 611 88 _c
545 29 441 0 301 0 _c
98 0 _l
98 729 _l
_cl}_d
/P{603 0 98 0 569 729 _sc
197 648 _m
197 374 _l
321 374 _l
367 374 402 385 427 409 _c
452 433 465 467 465 511 _c
465 555 452 588 427 612 _c
402 636 367 648 321 648 _c
197 648 _l
98 729 _m
321 729 _l
402 729 464 710 506 673 _c
548 636 569 582 569 511 _c
569 439 548 384 506 348 _c
464 311 402 293 321 293 _c
197 293 _l
197 0 _l
98 0 _l
98 729 _l
_cl}_d
/a{{613 0 60 -13 522 560 _sc
343 275 _m
270 275 220 266 192 250 _c
164 233 150 205 150 165 _c
150 133 160 107 181 89 _c
202 70 231 61 267 61 _c
317 61 357 78 387 114 _c
417 149 432 196 432 255 _c
432 275 _l
343 275 _l
522 312 _m
522 0 _l
432 0 _l
432 83 _l
411 49 385 25 355 10 _c
325 -5 287 -13 243 -13 _c
187 -13 142 2 109 33 _c
76 64 60 106 60 159 _c
}_e{60 220 80 266 122 298 _c
163 329 224 345 306 345 _c
432 345 _l
432 354 _l
432 395 418 427 391 450 _c
364 472 326 484 277 484 _c
245 484 215 480 185 472 _c
155 464 127 453 100 439 _c
100 522 _l
132 534 164 544 195 550 _c
226 556 256 560 286 560 _c
365 560 424 539 463 498 _c
502 457 522 395 522 312 _c
_cl}_e}_d
/b{{635 0 91 -13 580 760 _sc
487 273 _m
487 339 473 390 446 428 _c
418 466 381 485 334 485 _c
286 485 249 466 222 428 _c
194 390 181 339 181 273 _c
181 207 194 155 222 117 _c
249 79 286 61 334 61 _c
381 61 418 79 446 117 _c
473 155 487 207 487 273 _c
181 464 _m
199 496 223 520 252 536 _c
281 552 316 560 356 560 _c
422 560 476 533 518 481 _c
559 428 580 359 580 273 _c
}_e{580 187 559 117 518 65 _c
476 13 422 -13 356 -13 _c
316 -13 281 -5 252 10 _c
223 25 199 49 181 82 _c
181 0 _l
91 0 _l
91 760 _l
181 760 _l
181 464 _l
_cl}_e}_d
/c{{550 0 55 -13 488 560 _sc
488 526 _m
488 442 _l
462 456 437 466 411 473 _c
385 480 360 484 334 484 _c
276 484 230 465 198 428 _c
166 391 150 339 150 273 _c
150 206 166 154 198 117 _c
230 80 276 62 334 62 _c
360 62 385 65 411 72 _c
437 79 462 90 488 104 _c
488 21 _l
462 9 436 0 410 -5 _c
383 -10 354 -13 324 -13 _c
242 -13 176 12 128 64 _c
}_e{79 115 55 185 55 273 _c
55 362 79 432 128 483 _c
177 534 244 560 330 560 _c
358 560 385 557 411 551 _c
437 545 463 537 488 526 _c
_cl}_e}_d
/d{{635 0 55 -13 544 760 _sc
454 464 _m
454 760 _l
544 760 _l
544 0 _l
454 0 _l
454 82 _l
435 49 411 25 382 10 _c
353 -5 319 -13 279 -13 _c
213 -13 159 13 117 65 _c
75 117 55 187 55 273 _c
55 359 75 428 117 481 _c
159 533 213 560 279 560 _c
319 560 353 552 382 536 _c
411 520 435 496 454 464 _c
148 273 _m
148 207 161 155 188 117 _c
215 79 253 61 301 61 _c
}_e{348 61 385 79 413 117 _c
440 155 454 207 454 273 _c
454 339 440 390 413 428 _c
385 466 348 485 301 485 _c
253 485 215 466 188 428 _c
161 390 148 339 148 273 _c
_cl}_e}_d
/e{{615 0 55 -13 562 560 _sc
562 296 _m
562 252 _l
149 252 _l
153 190 171 142 205 110 _c
238 78 284 62 344 62 _c
378 62 412 66 444 74 _c
476 82 509 95 541 113 _c
541 28 _l
509 14 476 3 442 -3 _c
408 -9 373 -13 339 -13 _c
251 -13 182 12 131 62 _c
80 112 55 181 55 268 _c
55 357 79 428 127 481 _c
175 533 241 560 323 560 _c
397 560 455 536 498 489 _c
}_e{540 441 562 377 562 296 _c
472 322 _m
471 371 457 410 431 440 _c
404 469 368 484 324 484 _c
274 484 234 469 204 441 _c
174 413 156 373 152 322 _c
472 322 _l
_cl}_e}_d
/f{352 0 23 0 371 760 _sc
371 760 _m
371 685 _l
285 685 _l
253 685 230 678 218 665 _c
205 652 199 629 199 595 _c
199 547 _l
347 547 _l
347 477 _l
199 477 _l
199 0 _l
109 0 _l
109 477 _l
23 477 _l
23 547 _l
109 547 _l
109 585 _l
109 645 123 690 151 718 _c
179 746 224 760 286 760 _c
371 760 _l
_cl}_d
/g{{635 0 55 -207 544 560 _sc
454 280 _m
454 344 440 395 414 431 _c
387 467 349 485 301 485 _c
253 485 215 467 188 431 _c
161 395 148 344 148 280 _c
148 215 161 165 188 129 _c
215 93 253 75 301 75 _c
349 75 387 93 414 129 _c
440 165 454 215 454 280 _c
544 68 _m
544 -24 523 -93 482 -139 _c
440 -184 377 -207 292 -207 _c
260 -207 231 -204 203 -200 _c
175 -195 147 -188 121 -178 _c
}_e{121 -91 _l
147 -105 173 -115 199 -122 _c
225 -129 251 -133 278 -133 _c
336 -133 380 -117 410 -87 _c
439 -56 454 -10 454 52 _c
454 96 _l
435 64 411 40 382 24 _c
353 8 319 0 279 0 _c
211 0 157 25 116 76 _c
75 127 55 195 55 280 _c
55 364 75 432 116 483 _c
157 534 211 560 279 560 _c
319 560 353 552 382 536 _c
411 520 435 496 454 464 _c
454 547 _l
544 547 _l
}_e{544 68 _l
_cl}_e}_d
/i{278 0 94 0 184 760 _sc
94 547 _m
184 547 _l
184 0 _l
94 0 _l
94 547 _l
94 760 _m
184 760 _l
184 646 _l
94 646 _l
94 760 _l
_cl}_d
/k{579 0 91 0 576 760 _sc
91 760 _m
181 760 _l
181 311 _l
449 547 _l
564 547 _l
274 291 _l
576 0 _l
459 0 _l
181 267 _l
181 0 _l
91 0 _l
91 760 _l
_cl}_d
/l{278 0 94 0 184 760 _sc
94 760 _m
184 760 _l
184 0 _l
94 0 _l
94 760 _l
_cl}_d
/n{634 0 91 0 549 560 _sc
549 330 _m
549 0 _l
459 0 _l
459 327 _l
459 379 448 417 428 443 _c
408 469 378 482 338 482 _c
289 482 251 466 223 435 _c
195 404 181 362 181 309 _c
181 0 _l
91 0 _l
91 547 _l
181 547 _l
181 462 _l
202 494 227 519 257 535 _c
286 551 320 560 358 560 _c
420 560 468 540 500 501 _c
532 462 549 405 549 330 _c
_cl}_d
/o{612 0 55 -13 557 560 _sc
306 484 _m
258 484 220 465 192 427 _c
164 389 150 338 150 273 _c
150 207 163 156 191 118 _c
219 80 257 62 306 62 _c
354 62 392 80 420 118 _c
448 156 462 207 462 273 _c
462 337 448 389 420 427 _c
392 465 354 484 306 484 _c
306 560 _m
384 560 445 534 490 484 _c
534 433 557 363 557 273 _c
557 183 534 113 490 63 _c
445 12 384 -13 306 -13 _c
227 -13 165 12 121 63 _c
77 113 55 183 55 273 _c
55 363 77 433 121 484 _c
165 534 227 560 306 560 _c
_cl}_d
/r{411 0 91 0 411 560 _sc
411 463 _m
401 469 390 473 378 476 _c
366 478 353 480 339 480 _c
288 480 249 463 222 430 _c
194 397 181 350 181 288 _c
181 0 _l
91 0 _l
91 547 _l
181 547 _l
181 462 _l
199 495 224 520 254 536 _c
284 552 321 560 365 560 _c
371 560 378 559 386 559 _c
393 558 401 557 411 555 _c
411 463 _l
_cl}_d
/s{{521 0 54 -13 472 560 _sc
443 531 _m
443 446 _l
417 458 391 468 364 475 _c
336 481 308 485 279 485 _c
234 485 200 478 178 464 _c
156 450 145 430 145 403 _c
145 382 153 366 169 354 _c
185 342 217 330 265 320 _c
296 313 _l
360 299 405 279 432 255 _c
458 230 472 195 472 151 _c
472 100 452 60 412 31 _c
372 1 316 -13 246 -13 _c
216 -13 186 -10 154 -5 _c
}_e{122 0 89 8 54 20 _c
54 113 _l
87 95 120 82 152 74 _c
184 65 216 61 248 61 _c
290 61 323 68 346 82 _c
368 96 380 117 380 144 _c
380 168 371 187 355 200 _c
339 213 303 226 247 238 _c
216 245 _l
160 257 119 275 95 299 _c
70 323 58 356 58 399 _c
58 450 76 490 112 518 _c
148 546 200 560 268 560 _c
301 560 332 557 362 552 _c
391 547 418 540 443 531 _c
}_e{_cl}_e}_d
/t{392 0 27 0 368 702 _sc
183 702 _m
183 547 _l
368 547 _l
368 477 _l
183 477 _l
183 180 _l
183 135 189 106 201 94 _c
213 81 238 75 276 75 _c
368 75 _l
368 0 _l
276 0 _l
206 0 158 13 132 39 _c
106 65 93 112 93 180 _c
93 477 _l
27 477 _l
27 547 _l
93 547 _l
93 702 _l
183 702 _l
_cl}_d
/u{634 0 85 -13 543 560 _sc
85 216 _m
85 547 _l
175 547 _l
175 219 _l
175 167 185 129 205 103 _c
225 77 255 64 296 64 _c
344 64 383 79 411 110 _c
439 141 453 183 453 237 _c
453 547 _l
543 547 _l
543 0 _l
453 0 _l
453 84 _l
431 50 405 26 377 10 _c
348 -5 315 -13 277 -13 _c
214 -13 166 6 134 45 _c
101 83 85 140 85 216 _c
311 560 _m
311 560 _l
_cl}_d
/w{818 0 42 0 776 547 _sc
42 547 _m
132 547 _l
244 120 _l
356 547 _l
462 547 _l
574 120 _l
686 547 _l
776 547 _l
633 0 _l
527 0 _l
409 448 _l
291 0 _l
185 0 _l
42 547 _l
_cl}_d
/y{592 0 30 -207 562 547 _sc
322 -50 _m
296 -114 271 -157 247 -177 _c
223 -197 191 -207 151 -207 _c
79 -207 _l
79 -132 _l
132 -132 _l
156 -132 175 -126 189 -114 _c
203 -102 218 -75 235 -31 _c
251 9 _l
30 547 _l
125 547 _l
296 119 _l
467 547 _l
562 547 _l
322 -50 _l
_cl}_d
/minus{838 0 106 272 732 355 _sc
106 355 _m
732 355 _l
732 272 _l
106 272 _l
106 355 _l
_cl}_d
end readonly def

/BuildGlyph
 {exch begin
 CharStrings exch
 2 copy known not{pop /.notdef}if
 true 3 1 roll get exec
 end}_d

/BuildChar {
 1 index /Encoding get exch get
 1 index /BuildGlyph get exec
}_d

FontName currentdict end definefont pop
end
%%EndProlog
mpldict begin
75.6 223.2 translate
460.8 345.6 0 0 clipbox
gsave
0 0 m
460.8 0 l
460.8 345.6 l
0 345.6 l
cl
1.000 setgray
fill
grestore
gsave
141.531429 72.411429 m
414.72 72.411429 l
414.72 304.128 l
141.531429 304.128 l
cl
1.000 setgray
fill
grestore
0.800 setlinewidth
1 setlinejoin
0 setlinecap
[] 0 setdash
0.000 setgray
gsave
/o {
gsave
newpath
translate
0.8 setlinewidth
1 setlinejoin
0 setlinecap
0 0 m
0 -3.5 l

gsave
0.000 setgray
fill
grestore
stroke
grestore
} bind def
214.059 72.4114 o
grestore
gsave
190.559023 49.567679 translate
0.000000 rotate
/DejaVuSans findfont
20.0 scalefont
setfont
0.000000 0.953125 moveto
/one glyphshow

12.724609 0.953125 moveto
/zero glyphshow

/DejaVuSans findfont
14.0 scalefont
setfont
25.640625 8.609375 moveto
/minus glyphshow

37.371094 8.609375 moveto
/two glyphshow


grestore
gsave
/o {
gsave
newpath
translate
0.8 setlinewidth
1 setlinejoin
0 setlinecap
0 0 m
0 -3.5 l

gsave
0.000 setgray
fill
grestore
stroke
grestore
} bind def
334.279 72.4114 o
grestore
gsave
316.278888 49.567679 translate
0.000000 rotate
/DejaVuSans findfont
20.0 scalefont
setfont
0.000000 0.953125 moveto
/one glyphshow

12.724609 0.953125 moveto
/zero glyphshow

/DejaVuSans findfont
14.0 scalefont
setfont
25.640625 8.609375 moveto
/zero glyphshow


grestore
0.600 setlinewidth
gsave
/o {
gsave
newpath
translate
0.6 setlinewidth
1 setlinejoin
0 setlinecap
0 0 m
0 -2 l

gsave
0.000 setgray
fill
grestore
stroke
grestore
} bind def
144.638 72.4114 o
grestore
gsave
/o {
gsave
newpath
translate
0.6 setlinewidth
1 setlinejoin
0 setlinecap
0 0 m
0 -2 l

gsave
0.000 setgray
fill
grestore
stroke
grestore
} bind def
148.124 72.4114 o
grestore
gsave
/o {
gsave
newpath
translate
0.6 setlinewidth
1 setlinejoin
0 setlinecap
0 0 m
0 -2 l

gsave
0.000 setgray
fill
grestore
stroke
grestore
} bind def
151.199 72.4114 o
grestore
gsave
/o {
gsave
newpath
translate
0.6 setlinewidth
1 setlinejoin
0 setlinecap
0 0 m
0 -2 l

gsave
0.000 setgray
fill
grestore
stroke
grestore
} bind def
232.154 72.4114 o
grestore
gsave
/o {
gsave
newpath
translate
0.6 setlinewidth
1 setlinejoin
0 setlinecap
0 0 m
0 -2 l

gsave
0.000 setgray
fill
grestore
stroke
grestore
} bind def
242.739 72.4114 o
grestore
gsave
/o {
gsave
newpath
translate
0.6 setlinewidth
1 setlinejoin
0 setlinecap
0 0 m
0 -2 l

gsave
0.000 setgray
fill
grestore
stroke
grestore
} bind def
250.249 72.4114 o
grestore
gsave
/o {
gsave
newpath
translate
0.6 setlinewidth
1 setlinejoin
0 setlinecap
0 0 m
0 -2 l

gsave
0.000 setgray
fill
grestore
stroke
grestore
} bind def
256.074 72.4114 o
grestore
gsave
/o {
gsave
newpath
translate
0.6 setlinewidth
1 setlinejoin
0 setlinecap
0 0 m
0 -2 l

gsave
0.000 setgray
fill
grestore
stroke
grestore
} bind def
260.834 72.4114 o
grestore
gsave
/o {
gsave
newpath
translate
0.6 setlinewidth
1 setlinejoin
0 setlinecap
0 0 m
0 -2 l

gsave
0.000 setgray
fill
grestore
stroke
grestore
} bind def
264.858 72.4114 o
grestore
gsave
/o {
gsave
newpath
translate
0.6 setlinewidth
1 setlinejoin
0 setlinecap
0 0 m
0 -2 l

gsave
0.000 setgray
fill
grestore
stroke
grestore
} bind def
268.344 72.4114 o
grestore
gsave
/o {
gsave
newpath
translate
0.6 setlinewidth
1 setlinejoin
0 setlinecap
0 0 m
0 -2 l

gsave
0.000 setgray
fill
grestore
stroke
grestore
} bind def
271.418 72.4114 o
grestore
gsave
/o {
gsave
newpath
translate
0.6 setlinewidth
1 setlinejoin
0 setlinecap
0 0 m
0 -2 l

gsave
0.000 setgray
fill
grestore
stroke
grestore
} bind def
352.374 72.4114 o
grestore
gsave
/o {
gsave
newpath
translate
0.6 setlinewidth
1 setlinejoin
0 setlinecap
0 0 m
0 -2 l

gsave
0.000 setgray
fill
grestore
stroke
grestore
} bind def
362.959 72.4114 o
grestore
gsave
/o {
gsave
newpath
translate
0.6 setlinewidth
1 setlinejoin
0 setlinecap
0 0 m
0 -2 l

gsave
0.000 setgray
fill
grestore
stroke
grestore
} bind def
370.469 72.4114 o
grestore
gsave
/o {
gsave
newpath
translate
0.6 setlinewidth
1 setlinejoin
0 setlinecap
0 0 m
0 -2 l

gsave
0.000 setgray
fill
grestore
stroke
grestore
} bind def
376.294 72.4114 o
grestore
gsave
/o {
gsave
newpath
translate
0.6 setlinewidth
1 setlinejoin
0 setlinecap
0 0 m
0 -2 l

gsave
0.000 setgray
fill
grestore
stroke
grestore
} bind def
381.054 72.4114 o
grestore
gsave
/o {
gsave
newpath
translate
0.6 setlinewidth
1 setlinejoin
0 setlinecap
0 0 m
0 -2 l

gsave
0.000 setgray
fill
grestore
stroke
grestore
} bind def
385.078 72.4114 o
grestore
gsave
/o {
gsave
newpath
translate
0.6 setlinewidth
1 setlinejoin
0 setlinecap
0 0 m
0 -2 l

gsave
0.000 setgray
fill
grestore
stroke
grestore
} bind def
388.564 72.4114 o
grestore
gsave
/o {
gsave
newpath
translate
0.6 setlinewidth
1 setlinejoin
0 setlinecap
0 0 m
0 -2 l

gsave
0.000 setgray
fill
grestore
stroke
grestore
} bind def
391.638 72.4114 o
grestore
/DejaVuSans findfont
20.000 scalefont
setfont
gsave
136.969464 26.208304 translate
0.000000 rotate
0.000000 0.000000 m /P glyphshow
12.060547 0.000000 m /e glyphshow
24.365234 0.000000 m /r glyphshow
32.587891 0.000000 m /c glyphshow
43.583984 0.000000 m /e glyphshow
55.888672 0.000000 m /n glyphshow
68.564453 0.000000 m /t glyphshow
76.406250 0.000000 m /a glyphshow
88.662109 0.000000 m /g glyphshow
101.357422 0.000000 m /e glyphshow
113.662109 0.000000 m /space glyphshow
120.019531 0.000000 m /o glyphshow
132.255859 0.000000 m /f glyphshow
139.296875 0.000000 m /space glyphshow
145.654297 0.000000 m /k glyphshow
157.236328 0.000000 m /e glyphshow
169.541016 0.000000 m /y glyphshow
181.376953 0.000000 m /w glyphshow
197.734375 0.000000 m /o glyphshow
209.970703 0.000000 m /r glyphshow
218.193359 0.000000 m /d glyphshow
230.888672 0.000000 m /s glyphshow
241.308594 0.000000 m /space glyphshow
247.666016 0.000000 m /parenleft glyphshow
255.468750 0.000000 m /percent glyphshow
274.472656 0.000000 m /parenright glyphshow
grestore
0.800 setlinewidth
gsave
/o {
gsave
newpath
translate
0.8 setlinewidth
1 setlinejoin
0 setlinecap
0 0 m
-3.5 0 l

gsave
0.000 setgray
fill
grestore
stroke
grestore
} bind def
141.531 175.343 o
grestore
gsave
98.531429 167.421045 translate
0.000000 rotate
/DejaVuSans findfont
20.0 scalefont
setfont
0.000000 0.953125 moveto
/one glyphshow

12.724609 0.953125 moveto
/zero glyphshow

/DejaVuSans findfont
14.0 scalefont
setfont
25.640625 8.609375 moveto
/zero glyphshow


grestore
0.600 setlinewidth
gsave
/o {
gsave
newpath
translate
0.6 setlinewidth
1 setlinejoin
0 setlinecap
0 0 m
-2 0 l

gsave
0.000 setgray
fill
grestore
stroke
grestore
} bind def
141.531 81.6893 o
grestore
gsave
/o {
gsave
newpath
translate
0.6 setlinewidth
1 setlinejoin
0 setlinecap
0 0 m
-2 0 l

gsave
0.000 setgray
fill
grestore
stroke
grestore
} bind def
141.531 104.067 o
grestore
gsave
/o {
gsave
newpath
translate
0.6 setlinewidth
1 setlinejoin
0 setlinecap
0 0 m
-2 0 l

gsave
0.000 setgray
fill
grestore
stroke
grestore
} bind def
141.531 121.425 o
grestore
gsave
/o {
gsave
newpath
translate
0.6 setlinewidth
1 setlinejoin
0 setlinecap
0 0 m
-2 0 l

gsave
0.000 setgray
fill
grestore
stroke
grestore
} bind def
141.531 135.607 o
grestore
gsave
/o {
gsave
newpath
translate
0.6 setlinewidth
1 setlinejoin
0 setlinecap
0 0 m
-2 0 l

gsave
0.000 setgray
fill
grestore
stroke
grestore
} bind def
141.531 147.598 o
grestore
gsave
/o {
gsave
newpath
translate
0.6 setlinewidth
1 setlinejoin
0 setlinecap
0 0 m
-2 0 l

gsave
0.000 setgray
fill
grestore
stroke
grestore
} bind def
141.531 157.985 o
grestore
gsave
/o {
gsave
newpath
translate
0.6 setlinewidth
1 setlinejoin
0 setlinecap
0 0 m
-2 0 l

gsave
0.000 setgray
fill
grestore
stroke
grestore
} bind def
141.531 167.147 o
grestore
gsave
/o {
gsave
newpath
translate
0.6 setlinewidth
1 setlinejoin
0 setlinecap
0 0 m
-2 0 l

gsave
0.000 setgray
fill
grestore
stroke
grestore
} bind def
141.531 229.261 o
grestore
gsave
/o {
gsave
newpath
translate
0.6 setlinewidth
1 setlinejoin
0 setlinecap
0 0 m
-2 0 l

gsave
0.000 setgray
fill
grestore
stroke
grestore
} bind def
141.531 260.801 o
grestore
gsave
/o {
gsave
newpath
translate
0.6 setlinewidth
1 setlinejoin
0 setlinecap
0 0 m
-2 0 l

gsave
0.000 setgray
fill
grestore
stroke
grestore
} bind def
141.531 283.179 o
grestore
gsave
/o {
gsave
newpath
translate
0.6 setlinewidth
1 setlinejoin
0 setlinecap
0 0 m
-2 0 l

gsave
0.000 setgray
fill
grestore
stroke
grestore
} bind def
141.531 300.536 o
grestore
gsave
90.375179 109.441589 translate
90.000000 rotate
0.000000 0.000000 m /D glyphshow
15.400391 0.000000 m /i glyphshow
20.957031 0.000000 m /s glyphshow
31.376953 0.000000 m /t glyphshow
39.218750 0.000000 m /r glyphshow
47.441406 0.000000 m /i glyphshow
52.998047 0.000000 m /b glyphshow
65.693359 0.000000 m /u glyphshow
78.369141 0.000000 m /t glyphshow
86.210938 0.000000 m /i glyphshow
91.767578 0.000000 m /o glyphshow
104.003906 0.000000 m /n glyphshow
116.679688 0.000000 m /space glyphshow
123.037109 0.000000 m /parenleft glyphshow
130.839844 0.000000 m /percent glyphshow
149.843750 0.000000 m /parenright glyphshow
grestore
gsave
273.2 231.7 141.5 72.41 clipbox
-1 282.409986 m
153.949091 282.464026 l
172.043984 293.595429 l
182.628817 276.237734 l
190.138876 222.319811 l
195.964131 222.319811 l
200.72371 208.137542 l
204.747877 222.319811 l
208.233769 168.401887 l
211.308544 190.779847 l
214.059023 208.137542 l
216.547135 82.944 l
218.818603 82.944 l
220.908151 208.137542 l
222.84277 136.861924 l
224.643857 190.779847 l
226.328662 168.401887 l
227.911292 168.401887 l
229.403436 136.861924 l
230.814883 136.861924 l
232.153916 190.779847 l
234.642028 208.137542 l
235.802459 82.944 l
236.913495 82.944 l
237.97917 136.861924 l
239.003043 82.944 l
241.853736 82.944 l
242.73875 168.401887 l
243.594742 136.861924 l
244.423554 136.861924 l
246.006185 190.779847 l
246.762917 82.944 l
248.213591 136.861924 l
248.909776 82.944 l
249.587877 82.944 l
250.248809 136.861924 l
251.522496 168.401887 l
252.73692 136.861924 l
253.323583 136.861924 l
254.45878 82.944 l
255.546663 136.861924 l
256.074063 82.944 l
256.591019 82.944 l
258.083163 168.401887 l
258.562175 136.861924 l
259.49461 136.861924 l
260.394886 82.944 l
262.518447 82.944 l
262.92319 136.861924 l
263.321754 136.861924 l
264.101078 208.137542 l
264.857809 82.944 l
265.953302 82.944 l
266.308483 136.861924 l
267.345921 82.944 l
267.68277 136.861924 l
268.343701 190.779847 l
268.988312 168.401887 l
269.304745 82.944 l
269.617389 168.401887 l
270.231662 82.944 l
270.831813 136.861924 l
271.126793 82.944 l
271.706937 82.944 l
272.274468 136.861924 l
273.103281 82.944 l
273.373806 82.944 l
273.906588 136.861924 l
274.685912 82.944 l
275.442643 168.401887 l
276.178055 82.944 l
277.359497 82.944 l
278.928535 190.779847 l
279.360039 82.944 l
279.573146 136.861924 l
280.202222 136.861924 l
281.61367 82.944 l
282.38722 82.944 l
282.577078 136.861924 l
282.765566 82.944 l
286.923538 82.944 l
287.556428 136.861924 l
287.712282 82.944 l
291.468698 82.944 l
291.602917 136.861924 l
292.39405 82.944 l
297.240072 82.944 l
297.561703 136.861924 l
298.810008 82.944 l
301.140662 82.944 l
301.963668 136.861924 l
303.022141 82.944 l
304.614939 82.944 l
305.018431 136.861924 l
305.494531 82.944 l
320.725118 82.944 l
322.912357 136.861924 l
325.190549 82.944 l
402.302338 82.944 l
402.302338 82.944 l
grestore
1.000 setlinewidth
0 setlinejoin
0.122 0.467 0.706 setrgbcolor
gsave
273.2 231.7 141.5 72.41 clipbox
/o {
gsave
newpath
translate
1.0 setlinewidth
0 setlinejoin
0 setlinecap
-0 -6 m
6 6 l
-6 6 l
cl

gsave
0.122 0.467 0.706 setrgbcolor
fill
grestore
stroke
grestore
} bind def
-1 282.41 o
153.949 282.464 o
172.044 293.595 o
182.629 276.238 o
190.139 222.32 o
195.964 222.32 o
200.724 208.138 o
204.748 222.32 o
208.234 168.402 o
211.309 190.78 o
214.059 208.138 o
216.547 82.944 o
218.819 82.944 o
220.908 208.138 o
222.843 136.862 o
224.644 190.78 o
226.329 168.402 o
227.911 168.402 o
229.403 136.862 o
230.815 136.862 o
232.154 190.78 o
234.642 208.138 o
235.802 82.944 o
236.913 82.944 o
237.979 136.862 o
239.003 82.944 o
239.988 82.944 o
241.854 82.944 o
242.739 168.402 o
243.595 136.862 o
244.424 136.862 o
246.006 190.78 o
246.763 82.944 o
248.214 136.862 o
248.91 82.944 o
249.588 82.944 o
250.249 136.862 o
251.522 168.402 o
252.737 136.862 o
253.324 136.862 o
254.459 82.944 o
255.547 136.862 o
256.074 82.944 o
256.591 82.944 o
258.083 168.402 o
258.562 136.862 o
259.495 136.862 o
260.395 82.944 o
261.265 82.944 o
262.518 82.944 o
262.923 136.862 o
263.322 136.862 o
264.101 208.138 o
264.858 82.944 o
265.228 82.944 o
265.593 82.944 o
265.953 82.944 o
266.308 136.862 o
267.346 82.944 o
267.683 136.862 o
268.344 190.78 o
268.988 168.402 o
269.305 82.944 o
269.617 168.402 o
270.232 82.944 o
270.832 136.862 o
271.127 82.944 o
271.707 82.944 o
272.274 136.862 o
273.103 82.944 o
273.374 82.944 o
273.907 136.862 o
274.686 82.944 o
275.443 168.402 o
276.178 82.944 o
276.419 82.944 o
276.893 82.944 o
277.127 82.944 o
277.359 82.944 o
278.929 190.78 o
279.145 136.862 o
279.36 82.944 o
279.573 136.862 o
280.202 136.862 o
281.614 82.944 o
282.387 82.944 o
282.577 136.862 o
282.766 82.944 o
282.953 82.944 o
283.139 82.944 o
283.506 82.944 o
283.688 82.944 o
284.048 82.944 o
284.226 82.944 o
285.778 82.944 o
286.439 82.944 o
286.763 82.944 o
286.924 82.944 o
287.556 136.862 o
287.712 82.944 o
287.867 82.944 o
289.802 82.944 o
289.945 82.944 o
290.649 82.944 o
291.469 82.944 o
291.603 136.862 o
292.394 82.944 o
293.908 82.944 o
294.152 82.944 o
294.514 82.944 o
294.752 82.944 o
295.222 82.944 o
295.339 82.944 o
296.026 82.944 o
297.24 82.944 o
297.562 136.862 o
298.708 82.944 o
298.81 82.944 o
299.512 82.944 o
299.709 82.944 o
300.195 82.944 o
300.577 82.944 o
300.672 82.944 o
301.141 82.944 o
301.964 136.862 o
303.022 82.944 o
303.873 82.944 o
303.956 82.944 o
304.37 82.944 o
304.615 82.944 o
305.018 136.862 o
305.495 82.944 o
307.317 82.944 o
308.253 82.944 o
308.394 82.944 o
309.02 82.944 o
310.096 82.944 o
312.064 82.944 o
312.307 82.944 o
312.488 82.944 o
313.434 82.944 o
314.064 82.944 o
315.603 82.944 o
316.65 82.944 o
317.803 82.944 o
319.605 82.944 o
319.878 82.944 o
320.725 82.944 o
322.912 136.862 o
325.191 82.944 o
325.594 82.944 o
327.826 82.944 o
327.86 82.944 o
328.224 82.944 o
329.478 82.944 o
331.178 82.944 o
332.187 82.944 o
334.616 82.944 o
337.859 82.944 o
340.498 82.944 o
340.926 82.944 o
344.566 82.944 o
345.364 82.944 o
346.137 82.944 o
346.565 82.944 o
347.399 82.944 o
352.269 82.944 o
354.103 82.944 o
356.439 82.944 o
356.45 82.944 o
358.777 82.944 o
359.213 82.944 o
360.697 82.944 o
362.092 82.944 o
364.282 82.944 o
369.314 82.944 o
371.953 82.944 o
388.501 82.944 o
402.302 82.944 o
grestore
0.800 setlinewidth
2 setlinecap
[] 0 setdash
0.000 setgray
gsave
141.531429 72.411429 m
141.531429 304.128 l
stroke
grestore
gsave
414.72 72.411429 m
414.72 304.128 l
stroke
grestore
gsave
141.531429 72.411429 m
414.72 72.411429 l
stroke
grestore
gsave
141.531429 304.128 m
414.72 304.128 l
stroke
grestore
1.000 setlinewidth
0 setlinecap
0.800 setgray
gsave
241.391875 258.768625 m
400.72 258.768625 l
403.386667 258.768625 404.72 260.101958 404.72 262.768625 c
404.72 290.128 l
404.72 292.794667 403.386667 294.128 400.72 294.128 c
241.391875 294.128 l
238.725208 294.128 237.391875 292.794667 237.391875 290.128 c
237.391875 262.768625 l
237.391875 260.101958 238.725208 258.768625 241.391875 258.768625 c
cl
gsave
1.000 setgray
fill
grestore
stroke
grestore
gsave
245.391875 277.924875 m
285.391875 277.924875 l
grestore
[] 0 setdash
0.122 0.467 0.706 setrgbcolor
gsave
/o {
gsave
newpath
translate
1.0 setlinewidth
0 setlinejoin
0 setlinecap
-0 -6 m
6 6 l
-6 6 l
cl

gsave
0.122 0.467 0.706 setrgbcolor
fill
grestore
stroke
grestore
} bind def
265.392 277.925 o
grestore
0.000 setgray
gsave
301.391875 270.924875 translate
0.000000 rotate
0.000000 0.000000 m /C glyphshow
13.964844 0.000000 m /a glyphshow
26.220703 0.000000 m /l glyphshow
31.777344 0.000000 m /i glyphshow
37.333984 0.000000 m /f glyphshow
44.375000 0.000000 m /o glyphshow
56.611328 0.000000 m /r glyphshow
64.833984 0.000000 m /n glyphshow
77.509766 0.000000 m /i glyphshow
83.066406 0.000000 m /a glyphshow
grestore

end
showpage
