%!PS-Adobe-3.0 EPSF-3.0
%%BoundingBox: 115 237 494 539
%%HiResBoundingBox: 115.350 237.048 493.134 538.602
%%Title: /media/sf_OneDrive/Research/projects/squark/squark/latex/vldb19/eps/dublinkdist.eps
%%Creator: matplotlib version 2.0.0, http://matplotlib.org/
%%CreationDate: Tue Apr 24 11:20:43 2018
%%Orientation: portrait
%%EndComments
%%BeginProlog
/mpldict 8 dict def
mpldict begin
/m { moveto } bind def
/l { lineto } bind def
/r { rlineto } bind def
/c { curveto } bind def
/cl { closepath } bind def
/box {
m
1 index 0 r
0 exch r
neg 0 r
cl
} bind def
/clipbox {
box
clip
newpath
} bind def
%!PS-Adobe-3.0 Resource-Font
%%Title: DejaVu Sans
%%Copyright: Copyright (c) 2003 by Bitstream, Inc. All Rights Reserved. Copyright (c) 2006 by Tavmjong Bah. All Rights Reserved. DejaVu changes are in public domain 
%%Creator: Converted from TrueType to type 3 by PPR
25 dict begin
/_d{bind def}bind def
/_m{moveto}_d
/_l{lineto}_d
/_cl{closepath eofill}_d
/_c{curveto}_d
/_sc{7 -1 roll{setcachedevice}{pop pop pop pop pop pop}ifelse}_d
/_e{exec}_d
/FontName /DejaVuSans def
/PaintType 0 def
/FontMatrix[.001 0 0 .001 0 0]def
/FontBBox[-1021 -463 1793 1232]def
/FontType 3 def
/Encoding [ /space /percent /parenleft /parenright /zero /one /two /three /four /six /D /P /S /a /b /c /d /e /f /g /i /k /l /n /o /r /s /t /u /w /y /multiply /minus ] def
/FontInfo 10 dict dup begin
/FamilyName (DejaVu Sans) def
/FullName (DejaVu Sans) def
/Notice (Copyright (c) 2003 by Bitstream, Inc. All Rights Reserved. Copyright (c) 2006 by Tavmjong Bah. All Rights Reserved. DejaVu changes are in public domain ) def
/Weight (Book) def
/Version (Version 2.35) def
/ItalicAngle 0.0 def
/isFixedPitch false def
/UnderlinePosition -130 def
/UnderlineThickness 90 def
end readonly def
/CharStrings 33 dict dup begin
/space{318 0 0 0 0 0 _sc
}_d
/percent{{950 0 55 -13 895 742 _sc
727 321 _m
699 321 676 309 660 285 _c
644 261 636 227 636 184 _c
636 142 644 108 660 84 _c
676 60 699 48 727 48 _c
755 48 777 60 793 84 _c
809 108 817 142 817 184 _c
817 226 809 260 793 284 _c
777 308 755 321 727 321 _c
727 383 _m
778 383 819 365 849 329 _c
879 293 895 244 895 184 _c
895 123 879 75 849 40 _c
819 4 778 -13 727 -13 _c
}_e{675 -13 633 4 603 40 _c
573 75 558 123 558 184 _c
558 245 573 293 603 329 _c
633 365 675 383 727 383 _c
223 680 _m
195 680 173 667 157 643 _c
141 619 133 586 133 544 _c
133 500 141 467 157 443 _c
173 419 195 407 223 407 _c
251 407 274 419 290 443 _c
306 467 314 500 314 544 _c
314 586 305 619 289 643 _c
273 667 251 680 223 680 _c
664 742 _m
742 742 _l
286 -13 _l
}_e{208 -13 _l
664 742 _l
223 742 _m
274 742 315 724 346 688 _c
376 652 392 604 392 544 _c
392 482 376 434 346 398 _c
316 362 275 345 223 345 _c
171 345 130 362 100 398 _c
70 434 55 482 55 544 _c
55 604 70 652 100 688 _c
130 724 171 742 223 742 _c
_cl}_e}_d
/parenleft{390 0 86 -131 310 759 _sc
310 759 _m
266 683 234 609 213 536 _c
191 463 181 389 181 314 _c
181 238 191 164 213 91 _c
234 17 266 -56 310 -131 _c
232 -131 _l
183 -54 146 20 122 94 _c
98 168 86 241 86 314 _c
86 386 98 459 122 533 _c
146 607 182 682 232 759 _c
310 759 _l
_cl}_d
/parenright{390 0 80 -131 304 759 _sc
80 759 _m
158 759 _l
206 682 243 607 267 533 _c
291 459 304 386 304 314 _c
304 241 291 168 267 94 _c
243 20 206 -54 158 -131 _c
80 -131 _l
123 -56 155 17 177 91 _c
198 164 209 238 209 314 _c
209 389 198 463 177 536 _c
155 609 123 683 80 759 _c
_cl}_d
/zero{636 0 66 -13 570 742 _sc
318 664 _m
267 664 229 639 203 589 _c
177 539 165 464 165 364 _c
165 264 177 189 203 139 _c
229 89 267 64 318 64 _c
369 64 407 89 433 139 _c
458 189 471 264 471 364 _c
471 464 458 539 433 589 _c
407 639 369 664 318 664 _c
318 742 _m
399 742 461 709 505 645 _c
548 580 570 486 570 364 _c
570 241 548 147 505 83 _c
461 19 399 -13 318 -13 _c
236 -13 173 19 130 83 _c
87 147 66 241 66 364 _c
66 486 87 580 130 645 _c
173 709 236 742 318 742 _c
_cl}_d
/one{636 0 110 0 544 729 _sc
124 83 _m
285 83 _l
285 639 _l
110 604 _l
110 694 _l
284 729 _l
383 729 _l
383 83 _l
544 83 _l
544 0 _l
124 0 _l
124 83 _l
_cl}_d
/two{{636 0 73 0 536 742 _sc
192 83 _m
536 83 _l
536 0 _l
73 0 _l
73 83 _l
110 121 161 173 226 239 _c
290 304 331 346 348 365 _c
380 400 402 430 414 455 _c
426 479 433 504 433 528 _c
433 566 419 598 392 622 _c
365 646 330 659 286 659 _c
255 659 222 653 188 643 _c
154 632 117 616 78 594 _c
78 694 _l
118 710 155 722 189 730 _c
223 738 255 742 284 742 _c
}_e{359 742 419 723 464 685 _c
509 647 532 597 532 534 _c
532 504 526 475 515 449 _c
504 422 484 390 454 354 _c
446 344 420 317 376 272 _c
332 227 271 164 192 83 _c
_cl}_e}_d
/three{{636 0 76 -13 556 742 _sc
406 393 _m
453 383 490 362 516 330 _c
542 298 556 258 556 212 _c
556 140 531 84 482 45 _c
432 6 362 -13 271 -13 _c
240 -13 208 -10 176 -4 _c
144 1 110 10 76 22 _c
76 117 _l
103 101 133 89 166 81 _c
198 73 232 69 268 69 _c
330 69 377 81 409 105 _c
441 129 458 165 458 212 _c
458 254 443 288 413 312 _c
383 336 341 349 287 349 _c
}_e{202 349 _l
202 430 _l
291 430 _l
339 430 376 439 402 459 _c
428 478 441 506 441 543 _c
441 580 427 609 401 629 _c
374 649 336 659 287 659 _c
260 659 231 656 200 650 _c
169 644 135 635 98 623 _c
98 711 _l
135 721 170 729 203 734 _c
235 739 266 742 296 742 _c
370 742 429 725 473 691 _c
517 657 539 611 539 553 _c
539 513 527 479 504 451 _c
481 423 448 403 406 393 _c
_cl}_e}_d
/four{636 0 49 0 580 729 _sc
378 643 _m
129 254 _l
378 254 _l
378 643 _l
352 729 _m
476 729 _l
476 254 _l
580 254 _l
580 172 _l
476 172 _l
476 0 _l
378 0 _l
378 172 _l
49 172 _l
49 267 _l
352 729 _l
_cl}_d
/six{{636 0 70 -13 573 742 _sc
330 404 _m
286 404 251 388 225 358 _c
199 328 186 286 186 234 _c
186 181 199 139 225 109 _c
251 79 286 64 330 64 _c
374 64 409 79 435 109 _c
461 139 474 181 474 234 _c
474 286 461 328 435 358 _c
409 388 374 404 330 404 _c
526 713 _m
526 623 _l
501 635 476 644 451 650 _c
425 656 400 659 376 659 _c
310 659 260 637 226 593 _c
}_e{192 549 172 482 168 394 _c
187 422 211 444 240 459 _c
269 474 301 482 336 482 _c
409 482 467 459 509 415 _c
551 371 573 310 573 234 _c
573 159 550 99 506 54 _c
462 9 403 -13 330 -13 _c
246 -13 181 19 137 83 _c
92 147 70 241 70 364 _c
70 479 97 571 152 639 _c
206 707 280 742 372 742 _c
396 742 421 739 447 735 _c
472 730 498 723 526 713 _c
_cl}_e}_d
/D{770 0 98 0 711 729 _sc
197 648 _m
197 81 _l
316 81 _l
416 81 490 103 537 149 _c
583 195 607 267 607 365 _c
607 463 583 534 537 580 _c
490 625 416 648 316 648 _c
197 648 _l
98 729 _m
301 729 _l
442 729 546 699 612 641 _c
678 582 711 490 711 365 _c
711 239 677 147 611 88 _c
545 29 441 0 301 0 _c
98 0 _l
98 729 _l
_cl}_d
/P{603 0 98 0 569 729 _sc
197 648 _m
197 374 _l
321 374 _l
367 374 402 385 427 409 _c
452 433 465 467 465 511 _c
465 555 452 588 427 612 _c
402 636 367 648 321 648 _c
197 648 _l
98 729 _m
321 729 _l
402 729 464 710 506 673 _c
548 636 569 582 569 511 _c
569 439 548 384 506 348 _c
464 311 402 293 321 293 _c
197 293 _l
197 0 _l
98 0 _l
98 729 _l
_cl}_d
/S{{635 0 66 -13 579 742 _sc
535 705 _m
535 609 _l
497 627 462 640 429 649 _c
395 657 363 662 333 662 _c
279 662 237 651 208 631 _c
179 610 165 580 165 542 _c
165 510 174 485 194 469 _c
213 452 250 439 304 429 _c
364 417 _l
437 403 491 378 526 343 _c
561 307 579 260 579 201 _c
579 130 555 77 508 41 _c
460 5 391 -13 300 -13 _c
265 -13 228 -9 189 -2 _c
}_e{150 5 110 16 69 32 _c
69 134 _l
109 111 148 94 186 83 _c
224 71 262 66 300 66 _c
356 66 399 77 430 99 _c
460 121 476 152 476 194 _c
476 230 465 258 443 278 _c
421 298 385 313 335 323 _c
275 335 _l
201 349 148 372 115 404 _c
82 435 66 478 66 534 _c
66 598 88 649 134 686 _c
179 723 242 742 322 742 _c
356 742 390 739 426 733 _c
461 727 497 717 535 705 _c
}_e{_cl}_e}_d
/a{{613 0 60 -13 522 560 _sc
343 275 _m
270 275 220 266 192 250 _c
164 233 150 205 150 165 _c
150 133 160 107 181 89 _c
202 70 231 61 267 61 _c
317 61 357 78 387 114 _c
417 149 432 196 432 255 _c
432 275 _l
343 275 _l
522 312 _m
522 0 _l
432 0 _l
432 83 _l
411 49 385 25 355 10 _c
325 -5 287 -13 243 -13 _c
187 -13 142 2 109 33 _c
76 64 60 106 60 159 _c
}_e{60 220 80 266 122 298 _c
163 329 224 345 306 345 _c
432 345 _l
432 354 _l
432 395 418 427 391 450 _c
364 472 326 484 277 484 _c
245 484 215 480 185 472 _c
155 464 127 453 100 439 _c
100 522 _l
132 534 164 544 195 550 _c
226 556 256 560 286 560 _c
365 560 424 539 463 498 _c
502 457 522 395 522 312 _c
_cl}_e}_d
/b{{635 0 91 -13 580 760 _sc
487 273 _m
487 339 473 390 446 428 _c
418 466 381 485 334 485 _c
286 485 249 466 222 428 _c
194 390 181 339 181 273 _c
181 207 194 155 222 117 _c
249 79 286 61 334 61 _c
381 61 418 79 446 117 _c
473 155 487 207 487 273 _c
181 464 _m
199 496 223 520 252 536 _c
281 552 316 560 356 560 _c
422 560 476 533 518 481 _c
559 428 580 359 580 273 _c
}_e{580 187 559 117 518 65 _c
476 13 422 -13 356 -13 _c
316 -13 281 -5 252 10 _c
223 25 199 49 181 82 _c
181 0 _l
91 0 _l
91 760 _l
181 760 _l
181 464 _l
_cl}_e}_d
/c{{550 0 55 -13 488 560 _sc
488 526 _m
488 442 _l
462 456 437 466 411 473 _c
385 480 360 484 334 484 _c
276 484 230 465 198 428 _c
166 391 150 339 150 273 _c
150 206 166 154 198 117 _c
230 80 276 62 334 62 _c
360 62 385 65 411 72 _c
437 79 462 90 488 104 _c
488 21 _l
462 9 436 0 410 -5 _c
383 -10 354 -13 324 -13 _c
242 -13 176 12 128 64 _c
}_e{79 115 55 185 55 273 _c
55 362 79 432 128 483 _c
177 534 244 560 330 560 _c
358 560 385 557 411 551 _c
437 545 463 537 488 526 _c
_cl}_e}_d
/d{{635 0 55 -13 544 760 _sc
454 464 _m
454 760 _l
544 760 _l
544 0 _l
454 0 _l
454 82 _l
435 49 411 25 382 10 _c
353 -5 319 -13 279 -13 _c
213 -13 159 13 117 65 _c
75 117 55 187 55 273 _c
55 359 75 428 117 481 _c
159 533 213 560 279 560 _c
319 560 353 552 382 536 _c
411 520 435 496 454 464 _c
148 273 _m
148 207 161 155 188 117 _c
215 79 253 61 301 61 _c
}_e{348 61 385 79 413 117 _c
440 155 454 207 454 273 _c
454 339 440 390 413 428 _c
385 466 348 485 301 485 _c
253 485 215 466 188 428 _c
161 390 148 339 148 273 _c
_cl}_e}_d
/e{{615 0 55 -13 562 560 _sc
562 296 _m
562 252 _l
149 252 _l
153 190 171 142 205 110 _c
238 78 284 62 344 62 _c
378 62 412 66 444 74 _c
476 82 509 95 541 113 _c
541 28 _l
509 14 476 3 442 -3 _c
408 -9 373 -13 339 -13 _c
251 -13 182 12 131 62 _c
80 112 55 181 55 268 _c
55 357 79 428 127 481 _c
175 533 241 560 323 560 _c
397 560 455 536 498 489 _c
}_e{540 441 562 377 562 296 _c
472 322 _m
471 371 457 410 431 440 _c
404 469 368 484 324 484 _c
274 484 234 469 204 441 _c
174 413 156 373 152 322 _c
472 322 _l
_cl}_e}_d
/f{352 0 23 0 371 760 _sc
371 760 _m
371 685 _l
285 685 _l
253 685 230 678 218 665 _c
205 652 199 629 199 595 _c
199 547 _l
347 547 _l
347 477 _l
199 477 _l
199 0 _l
109 0 _l
109 477 _l
23 477 _l
23 547 _l
109 547 _l
109 585 _l
109 645 123 690 151 718 _c
179 746 224 760 286 760 _c
371 760 _l
_cl}_d
/g{{635 0 55 -207 544 560 _sc
454 280 _m
454 344 440 395 414 431 _c
387 467 349 485 301 485 _c
253 485 215 467 188 431 _c
161 395 148 344 148 280 _c
148 215 161 165 188 129 _c
215 93 253 75 301 75 _c
349 75 387 93 414 129 _c
440 165 454 215 454 280 _c
544 68 _m
544 -24 523 -93 482 -139 _c
440 -184 377 -207 292 -207 _c
260 -207 231 -204 203 -200 _c
175 -195 147 -188 121 -178 _c
}_e{121 -91 _l
147 -105 173 -115 199 -122 _c
225 -129 251 -133 278 -133 _c
336 -133 380 -117 410 -87 _c
439 -56 454 -10 454 52 _c
454 96 _l
435 64 411 40 382 24 _c
353 8 319 0 279 0 _c
211 0 157 25 116 76 _c
75 127 55 195 55 280 _c
55 364 75 432 116 483 _c
157 534 211 560 279 560 _c
319 560 353 552 382 536 _c
411 520 435 496 454 464 _c
454 547 _l
544 547 _l
}_e{544 68 _l
_cl}_e}_d
/i{278 0 94 0 184 760 _sc
94 547 _m
184 547 _l
184 0 _l
94 0 _l
94 547 _l
94 760 _m
184 760 _l
184 646 _l
94 646 _l
94 760 _l
_cl}_d
/k{579 0 91 0 576 760 _sc
91 760 _m
181 760 _l
181 311 _l
449 547 _l
564 547 _l
274 291 _l
576 0 _l
459 0 _l
181 267 _l
181 0 _l
91 0 _l
91 760 _l
_cl}_d
/l{278 0 94 0 184 760 _sc
94 760 _m
184 760 _l
184 0 _l
94 0 _l
94 760 _l
_cl}_d
/n{634 0 91 0 549 560 _sc
549 330 _m
549 0 _l
459 0 _l
459 327 _l
459 379 448 417 428 443 _c
408 469 378 482 338 482 _c
289 482 251 466 223 435 _c
195 404 181 362 181 309 _c
181 0 _l
91 0 _l
91 547 _l
181 547 _l
181 462 _l
202 494 227 519 257 535 _c
286 551 320 560 358 560 _c
420 560 468 540 500 501 _c
532 462 549 405 549 330 _c
_cl}_d
/o{612 0 55 -13 557 560 _sc
306 484 _m
258 484 220 465 192 427 _c
164 389 150 338 150 273 _c
150 207 163 156 191 118 _c
219 80 257 62 306 62 _c
354 62 392 80 420 118 _c
448 156 462 207 462 273 _c
462 337 448 389 420 427 _c
392 465 354 484 306 484 _c
306 560 _m
384 560 445 534 490 484 _c
534 433 557 363 557 273 _c
557 183 534 113 490 63 _c
445 12 384 -13 306 -13 _c
227 -13 165 12 121 63 _c
77 113 55 183 55 273 _c
55 363 77 433 121 484 _c
165 534 227 560 306 560 _c
_cl}_d
/r{411 0 91 0 411 560 _sc
411 463 _m
401 469 390 473 378 476 _c
366 478 353 480 339 480 _c
288 480 249 463 222 430 _c
194 397 181 350 181 288 _c
181 0 _l
91 0 _l
91 547 _l
181 547 _l
181 462 _l
199 495 224 520 254 536 _c
284 552 321 560 365 560 _c
371 560 378 559 386 559 _c
393 558 401 557 411 555 _c
411 463 _l
_cl}_d
/s{{521 0 54 -13 472 560 _sc
443 531 _m
443 446 _l
417 458 391 468 364 475 _c
336 481 308 485 279 485 _c
234 485 200 478 178 464 _c
156 450 145 430 145 403 _c
145 382 153 366 169 354 _c
185 342 217 330 265 320 _c
296 313 _l
360 299 405 279 432 255 _c
458 230 472 195 472 151 _c
472 100 452 60 412 31 _c
372 1 316 -13 246 -13 _c
216 -13 186 -10 154 -5 _c
}_e{122 0 89 8 54 20 _c
54 113 _l
87 95 120 82 152 74 _c
184 65 216 61 248 61 _c
290 61 323 68 346 82 _c
368 96 380 117 380 144 _c
380 168 371 187 355 200 _c
339 213 303 226 247 238 _c
216 245 _l
160 257 119 275 95 299 _c
70 323 58 356 58 399 _c
58 450 76 490 112 518 _c
148 546 200 560 268 560 _c
301 560 332 557 362 552 _c
391 547 418 540 443 531 _c
}_e{_cl}_e}_d
/t{392 0 27 0 368 702 _sc
183 702 _m
183 547 _l
368 547 _l
368 477 _l
183 477 _l
183 180 _l
183 135 189 106 201 94 _c
213 81 238 75 276 75 _c
368 75 _l
368 0 _l
276 0 _l
206 0 158 13 132 39 _c
106 65 93 112 93 180 _c
93 477 _l
27 477 _l
27 547 _l
93 547 _l
93 702 _l
183 702 _l
_cl}_d
/u{634 0 85 -13 543 560 _sc
85 216 _m
85 547 _l
175 547 _l
175 219 _l
175 167 185 129 205 103 _c
225 77 255 64 296 64 _c
344 64 383 79 411 110 _c
439 141 453 183 453 237 _c
453 547 _l
543 547 _l
543 0 _l
453 0 _l
453 84 _l
431 50 405 26 377 10 _c
348 -5 315 -13 277 -13 _c
214 -13 166 6 134 45 _c
101 83 85 140 85 216 _c
311 560 _m
311 560 _l
_cl}_d
/w{818 0 42 0 776 547 _sc
42 547 _m
132 547 _l
244 120 _l
356 547 _l
462 547 _l
574 120 _l
686 547 _l
776 547 _l
633 0 _l
527 0 _l
409 448 _l
291 0 _l
185 0 _l
42 547 _l
_cl}_d
/y{592 0 30 -207 562 547 _sc
322 -50 _m
296 -114 271 -157 247 -177 _c
223 -197 191 -207 151 -207 _c
79 -207 _l
79 -132 _l
132 -132 _l
156 -132 175 -126 189 -114 _c
203 -102 218 -75 235 -31 _c
251 9 _l
30 547 _l
125 547 _l
296 119 _l
467 547 _l
562 547 _l
322 -50 _l
_cl}_d
/multiply{838 0 137 31 701 596 _sc
701 537 _m
478 313 _l
701 90 _l
643 31 _l
419 255 _l
195 31 _l
137 90 _l
360 313 _l
137 537 _l
195 596 _l
419 372 _l
643 596 _l
701 537 _l
_cl}_d
/minus{838 0 106 272 732 355 _sc
106 355 _m
732 355 _l
732 272 _l
106 272 _l
106 355 _l
_cl}_d
end readonly def

/BuildGlyph
 {exch begin
 CharStrings exch
 2 copy known not{pop /.notdef}if
 true 3 1 roll get exec
 end}_d

/BuildChar {
 1 index /Encoding get exch get
 1 index /BuildGlyph get exec
}_d

FontName currentdict end definefont pop
end
%%EndProlog
mpldict begin
75.6 223.2 translate
460.8 345.6 0 0 clipbox
gsave
0 0 m
460.8 0 l
460.8 345.6 l
0 345.6 l
cl
1.000 setgray
fill
grestore
gsave
141.531429 64.182857 m
414.72 64.182857 l
414.72 304.128 l
141.531429 304.128 l
cl
1.000 setgray
fill
grestore
0.800 setlinewidth
1 setlinejoin
0 setlinecap
[] 0 setdash
0.000 setgray
gsave
/o {
gsave
newpath
translate
0.8 setlinewidth
1 setlinejoin
0 setlinecap
0 0 m
0 -3.5 l

gsave
0.000 setgray
fill
grestore
stroke
grestore
} bind def
192.887 64.1829 o
grestore
gsave
169.387334 41.339107 translate
0.000000 rotate
/DejaVuSans findfont
20.0 scalefont
setfont
0.000000 0.953125 moveto
/one glyphshow

12.724609 0.953125 moveto
/zero glyphshow

/DejaVuSans findfont
14.0 scalefont
setfont
25.640625 8.609375 moveto
/minus glyphshow

37.371094 8.609375 moveto
/two glyphshow


grestore
gsave
/o {
gsave
newpath
translate
0.8 setlinewidth
1 setlinejoin
0 setlinecap
0 0 m
0 -3.5 l

gsave
0.000 setgray
fill
grestore
stroke
grestore
} bind def
267.356 64.1829 o
grestore
gsave
243.856306 41.979732 translate
0.000000 rotate
/DejaVuSans findfont
20.0 scalefont
setfont
0.000000 0.139063 moveto
/one glyphshow

12.724609 0.139063 moveto
/zero glyphshow

/DejaVuSans findfont
14.0 scalefont
setfont
25.640625 7.795313 moveto
/minus glyphshow

37.371094 7.795313 moveto
/one glyphshow


grestore
gsave
/o {
gsave
newpath
translate
0.8 setlinewidth
1 setlinejoin
0 setlinecap
0 0 m
0 -3.5 l

gsave
0.000 setgray
fill
grestore
stroke
grestore
} bind def
341.825 64.1829 o
grestore
gsave
323.825278 41.339107 translate
0.000000 rotate
/DejaVuSans findfont
20.0 scalefont
setfont
0.000000 0.953125 moveto
/one glyphshow

12.724609 0.953125 moveto
/zero glyphshow

/DejaVuSans findfont
14.0 scalefont
setfont
25.640625 8.609375 moveto
/zero glyphshow


grestore
0.600 setlinewidth
gsave
/o {
gsave
newpath
translate
0.6 setlinewidth
1 setlinejoin
0 setlinecap
0 0 m
0 -2 l

gsave
0.000 setgray
fill
grestore
stroke
grestore
} bind def
153.949 64.1829 o
grestore
gsave
/o {
gsave
newpath
translate
0.6 setlinewidth
1 setlinejoin
0 setlinecap
0 0 m
0 -2 l

gsave
0.000 setgray
fill
grestore
stroke
grestore
} bind def
163.253 64.1829 o
grestore
gsave
/o {
gsave
newpath
translate
0.6 setlinewidth
1 setlinejoin
0 setlinecap
0 0 m
0 -2 l

gsave
0.000 setgray
fill
grestore
stroke
grestore
} bind def
170.47 64.1829 o
grestore
gsave
/o {
gsave
newpath
translate
0.6 setlinewidth
1 setlinejoin
0 setlinecap
0 0 m
0 -2 l

gsave
0.000 setgray
fill
grestore
stroke
grestore
} bind def
176.366 64.1829 o
grestore
gsave
/o {
gsave
newpath
translate
0.6 setlinewidth
1 setlinejoin
0 setlinecap
0 0 m
0 -2 l

gsave
0.000 setgray
fill
grestore
stroke
grestore
} bind def
181.352 64.1829 o
grestore
gsave
/o {
gsave
newpath
translate
0.6 setlinewidth
1 setlinejoin
0 setlinecap
0 0 m
0 -2 l

gsave
0.000 setgray
fill
grestore
stroke
grestore
} bind def
185.671 64.1829 o
grestore
gsave
/o {
gsave
newpath
translate
0.6 setlinewidth
1 setlinejoin
0 setlinecap
0 0 m
0 -2 l

gsave
0.000 setgray
fill
grestore
stroke
grestore
} bind def
189.48 64.1829 o
grestore
gsave
/o {
gsave
newpath
translate
0.6 setlinewidth
1 setlinejoin
0 setlinecap
0 0 m
0 -2 l

gsave
0.000 setgray
fill
grestore
stroke
grestore
} bind def
215.305 64.1829 o
grestore
gsave
/o {
gsave
newpath
translate
0.6 setlinewidth
1 setlinejoin
0 setlinecap
0 0 m
0 -2 l

gsave
0.000 setgray
fill
grestore
stroke
grestore
} bind def
228.418 64.1829 o
grestore
gsave
/o {
gsave
newpath
translate
0.6 setlinewidth
1 setlinejoin
0 setlinecap
0 0 m
0 -2 l

gsave
0.000 setgray
fill
grestore
stroke
grestore
} bind def
237.722 64.1829 o
grestore
gsave
/o {
gsave
newpath
translate
0.6 setlinewidth
1 setlinejoin
0 setlinecap
0 0 m
0 -2 l

gsave
0.000 setgray
fill
grestore
stroke
grestore
} bind def
244.939 64.1829 o
grestore
gsave
/o {
gsave
newpath
translate
0.6 setlinewidth
1 setlinejoin
0 setlinecap
0 0 m
0 -2 l

gsave
0.000 setgray
fill
grestore
stroke
grestore
} bind def
250.835 64.1829 o
grestore
gsave
/o {
gsave
newpath
translate
0.6 setlinewidth
1 setlinejoin
0 setlinecap
0 0 m
0 -2 l

gsave
0.000 setgray
fill
grestore
stroke
grestore
} bind def
255.821 64.1829 o
grestore
gsave
/o {
gsave
newpath
translate
0.6 setlinewidth
1 setlinejoin
0 setlinecap
0 0 m
0 -2 l

gsave
0.000 setgray
fill
grestore
stroke
grestore
} bind def
260.14 64.1829 o
grestore
gsave
/o {
gsave
newpath
translate
0.6 setlinewidth
1 setlinejoin
0 setlinecap
0 0 m
0 -2 l

gsave
0.000 setgray
fill
grestore
stroke
grestore
} bind def
263.949 64.1829 o
grestore
gsave
/o {
gsave
newpath
translate
0.6 setlinewidth
1 setlinejoin
0 setlinecap
0 0 m
0 -2 l

gsave
0.000 setgray
fill
grestore
stroke
grestore
} bind def
289.774 64.1829 o
grestore
gsave
/o {
gsave
newpath
translate
0.6 setlinewidth
1 setlinejoin
0 setlinecap
0 0 m
0 -2 l

gsave
0.000 setgray
fill
grestore
stroke
grestore
} bind def
302.887 64.1829 o
grestore
gsave
/o {
gsave
newpath
translate
0.6 setlinewidth
1 setlinejoin
0 setlinecap
0 0 m
0 -2 l

gsave
0.000 setgray
fill
grestore
stroke
grestore
} bind def
312.191 64.1829 o
grestore
gsave
/o {
gsave
newpath
translate
0.6 setlinewidth
1 setlinejoin
0 setlinecap
0 0 m
0 -2 l

gsave
0.000 setgray
fill
grestore
stroke
grestore
} bind def
319.408 64.1829 o
grestore
gsave
/o {
gsave
newpath
translate
0.6 setlinewidth
1 setlinejoin
0 setlinecap
0 0 m
0 -2 l

gsave
0.000 setgray
fill
grestore
stroke
grestore
} bind def
325.304 64.1829 o
grestore
gsave
/o {
gsave
newpath
translate
0.6 setlinewidth
1 setlinejoin
0 setlinecap
0 0 m
0 -2 l

gsave
0.000 setgray
fill
grestore
stroke
grestore
} bind def
330.29 64.1829 o
grestore
gsave
/o {
gsave
newpath
translate
0.6 setlinewidth
1 setlinejoin
0 setlinecap
0 0 m
0 -2 l

gsave
0.000 setgray
fill
grestore
stroke
grestore
} bind def
334.608 64.1829 o
grestore
gsave
/o {
gsave
newpath
translate
0.6 setlinewidth
1 setlinejoin
0 setlinecap
0 0 m
0 -2 l

gsave
0.000 setgray
fill
grestore
stroke
grestore
} bind def
338.418 64.1829 o
grestore
gsave
/o {
gsave
newpath
translate
0.6 setlinewidth
1 setlinejoin
0 setlinecap
0 0 m
0 -2 l

gsave
0.000 setgray
fill
grestore
stroke
grestore
} bind def
364.243 64.1829 o
grestore
gsave
/o {
gsave
newpath
translate
0.6 setlinewidth
1 setlinejoin
0 setlinecap
0 0 m
0 -2 l

gsave
0.000 setgray
fill
grestore
stroke
grestore
} bind def
377.356 64.1829 o
grestore
gsave
/o {
gsave
newpath
translate
0.6 setlinewidth
1 setlinejoin
0 setlinecap
0 0 m
0 -2 l

gsave
0.000 setgray
fill
grestore
stroke
grestore
} bind def
386.66 64.1829 o
grestore
gsave
/o {
gsave
newpath
translate
0.6 setlinewidth
1 setlinejoin
0 setlinecap
0 0 m
0 -2 l

gsave
0.000 setgray
fill
grestore
stroke
grestore
} bind def
393.877 64.1829 o
grestore
gsave
/o {
gsave
newpath
translate
0.6 setlinewidth
1 setlinejoin
0 setlinecap
0 0 m
0 -2 l

gsave
0.000 setgray
fill
grestore
stroke
grestore
} bind def
399.773 64.1829 o
grestore
gsave
/o {
gsave
newpath
translate
0.6 setlinewidth
1 setlinejoin
0 setlinecap
0 0 m
0 -2 l

gsave
0.000 setgray
fill
grestore
stroke
grestore
} bind def
404.759 64.1829 o
grestore
gsave
/o {
gsave
newpath
translate
0.6 setlinewidth
1 setlinejoin
0 setlinecap
0 0 m
0 -2 l

gsave
0.000 setgray
fill
grestore
stroke
grestore
} bind def
409.077 64.1829 o
grestore
gsave
/o {
gsave
newpath
translate
0.6 setlinewidth
1 setlinejoin
0 setlinecap
0 0 m
0 -2 l

gsave
0.000 setgray
fill
grestore
stroke
grestore
} bind def
412.887 64.1829 o
grestore
/DejaVuSans findfont
20.000 scalefont
setfont
gsave
136.969464 17.979732 translate
0.000000 rotate
0.000000 0.000000 m /P glyphshow
12.060547 0.000000 m /e glyphshow
24.365234 0.000000 m /r glyphshow
32.587891 0.000000 m /c glyphshow
43.583984 0.000000 m /e glyphshow
55.888672 0.000000 m /n glyphshow
68.564453 0.000000 m /t glyphshow
76.406250 0.000000 m /a glyphshow
88.662109 0.000000 m /g glyphshow
101.357422 0.000000 m /e glyphshow
113.662109 0.000000 m /space glyphshow
120.019531 0.000000 m /o glyphshow
132.255859 0.000000 m /f glyphshow
139.296875 0.000000 m /space glyphshow
145.654297 0.000000 m /k glyphshow
157.236328 0.000000 m /e glyphshow
169.541016 0.000000 m /y glyphshow
181.376953 0.000000 m /w glyphshow
197.734375 0.000000 m /o glyphshow
209.970703 0.000000 m /r glyphshow
218.193359 0.000000 m /d glyphshow
230.888672 0.000000 m /s glyphshow
241.308594 0.000000 m /space glyphshow
247.666016 0.000000 m /parenleft glyphshow
255.468750 0.000000 m /percent glyphshow
274.472656 0.000000 m /parenright glyphshow
grestore
0.800 setlinewidth
gsave
/o {
gsave
newpath
translate
0.8 setlinewidth
1 setlinejoin
0 setlinecap
0 0 m
-3.5 0 l

gsave
0.000 setgray
fill
grestore
stroke
grestore
} bind def
141.531 113.851 o
grestore
gsave
98.531429 105.929111 translate
0.000000 rotate
/DejaVuSans findfont
20.0 scalefont
setfont
0.000000 0.953125 moveto
/one glyphshow

12.724609 0.953125 moveto
/zero glyphshow

/DejaVuSans findfont
14.0 scalefont
setfont
25.640625 8.609375 moveto
/zero glyphshow


grestore
0.600 setlinewidth
gsave
/o {
gsave
newpath
translate
0.6 setlinewidth
1 setlinejoin
0 setlinecap
0 0 m
-2 0 l

gsave
0.000 setgray
fill
grestore
stroke
grestore
} bind def
141.531 75.9365 o
grestore
gsave
/o {
gsave
newpath
translate
0.6 setlinewidth
1 setlinejoin
0 setlinecap
0 0 m
-2 0 l

gsave
0.000 setgray
fill
grestore
stroke
grestore
} bind def
141.531 90.1308 o
grestore
gsave
/o {
gsave
newpath
translate
0.6 setlinewidth
1 setlinejoin
0 setlinecap
0 0 m
-2 0 l

gsave
0.000 setgray
fill
grestore
stroke
grestore
} bind def
141.531 102.651 o
grestore
gsave
/o {
gsave
newpath
translate
0.6 setlinewidth
1 setlinejoin
0 setlinecap
0 0 m
-2 0 l

gsave
0.000 setgray
fill
grestore
stroke
grestore
} bind def
141.531 187.532 o
grestore
gsave
63.131429 179.610597 translate
0.000000 rotate
/DejaVuSans findfont
20.0 scalefont
setfont
0.000000 0.953125 moveto
/two glyphshow

16.621094 0.953125 moveto
/multiply glyphshow

37.275391 0.953125 moveto
/one glyphshow

50.000000 0.953125 moveto
/zero glyphshow

/DejaVuSans findfont
14.0 scalefont
setfont
62.916016 8.609375 moveto
/zero glyphshow


grestore
gsave
/o {
gsave
newpath
translate
0.6 setlinewidth
1 setlinejoin
0 setlinecap
0 0 m
-2 0 l

gsave
0.000 setgray
fill
grestore
stroke
grestore
} bind def
141.531 230.633 o
grestore
gsave
63.131429 222.711503 translate
0.000000 rotate
/DejaVuSans findfont
20.0 scalefont
setfont
0.000000 0.953125 moveto
/three glyphshow

16.621094 0.953125 moveto
/multiply glyphshow

37.275391 0.953125 moveto
/one glyphshow

50.000000 0.953125 moveto
/zero glyphshow

/DejaVuSans findfont
14.0 scalefont
setfont
62.916016 8.609375 moveto
/zero glyphshow


grestore
gsave
/o {
gsave
newpath
translate
0.6 setlinewidth
1 setlinejoin
0 setlinecap
0 0 m
-2 0 l

gsave
0.000 setgray
fill
grestore
stroke
grestore
} bind def
141.531 261.214 o
grestore
gsave
63.131429 253.292082 translate
0.000000 rotate
/DejaVuSans findfont
20.0 scalefont
setfont
0.000000 0.953125 moveto
/four glyphshow

16.621094 0.953125 moveto
/multiply glyphshow

37.275391 0.953125 moveto
/one glyphshow

50.000000 0.953125 moveto
/zero glyphshow

/DejaVuSans findfont
14.0 scalefont
setfont
62.916016 8.609375 moveto
/zero glyphshow


grestore
gsave
/o {
gsave
newpath
translate
0.6 setlinewidth
1 setlinejoin
0 setlinecap
0 0 m
-2 0 l

gsave
0.000 setgray
fill
grestore
stroke
grestore
} bind def
141.531 284.934 o
grestore
gsave
/o {
gsave
newpath
translate
0.6 setlinewidth
1 setlinejoin
0 setlinecap
0 0 m
-2 0 l

gsave
0.000 setgray
fill
grestore
stroke
grestore
} bind def
141.531 304.315 o
grestore
gsave
63.131429 296.392988 translate
0.000000 rotate
/DejaVuSans findfont
20.0 scalefont
setfont
0.000000 0.953125 moveto
/six glyphshow

16.621094 0.953125 moveto
/multiply glyphshow

37.275391 0.953125 moveto
/one glyphshow

50.000000 0.953125 moveto
/zero glyphshow

/DejaVuSans findfont
14.0 scalefont
setfont
62.916016 8.609375 moveto
/zero glyphshow


grestore
gsave
54.975179 105.327304 translate
90.000000 rotate
0.000000 0.000000 m /D glyphshow
15.400391 0.000000 m /i glyphshow
20.957031 0.000000 m /s glyphshow
31.376953 0.000000 m /t glyphshow
39.218750 0.000000 m /r glyphshow
47.441406 0.000000 m /i glyphshow
52.998047 0.000000 m /b glyphshow
65.693359 0.000000 m /u glyphshow
78.369141 0.000000 m /t glyphshow
86.210938 0.000000 m /i glyphshow
91.767578 0.000000 m /o glyphshow
104.003906 0.000000 m /n glyphshow
116.679688 0.000000 m /space glyphshow
123.037109 0.000000 m /parenleft glyphshow
130.839844 0.000000 m /percent glyphshow
149.843750 0.000000 m /parenright glyphshow
grestore
gsave
273.2 239.9 141.5 64.18 clipbox
153.949091 222.452426 m
189.47982 148.77094 l
198.78388 75.089455 l
206.000669 75.089455 l
211.897215 75.089455 l
221.201274 75.089455 l
227.321637 75.089455 l
230.505333 75.089455 l
236.063222 75.089455 l
238.520718 191.871846 l
242.93777 191.871846 l
244.938911 75.089455 l
250.291891 75.089455 l
251.895928 75.089455 l
253.424156 75.089455 l
254.883417 148.77094 l
256.279668 75.089455 l
259.732701 75.089455 l
260.938112 75.089455 l
263.221987 75.089455 l
265.355165 75.089455 l
266.37121 75.089455 l
267.356306 75.089455 l
272.709285 148.77094 l
273.521247 75.089455 l
274.313323 75.089455 l
277.062128 148.77094 l
278.4685 148.77094 l
280.469641 75.089455 l
282.354143 75.089455 l
283.552112 75.089455 l
284.134856 75.089455 l
285.269761 75.089455 l
286.366187 75.089455 l
286.900769 246.172566 l
287.25231 75.089455 l
289.284903 191.871846 l
289.7737 148.77094 l
290.25522 75.089455 l
291.197271 75.089455 l
293.002844 191.871846 l
294.293806 75.089455 l
295.804722 75.089455 l
296.204828 75.089455 l
297.757516 75.089455 l
298.134314 75.089455 l
298.506773 75.089455 l
299.239064 75.089455 l
299.95514 75.089455 l
301.90194 148.77094 l
303.208844 148.77094 l
304.771537 75.089455 l
305.674148 75.089455 l
305.969506 75.089455 l
306.839732 75.089455 l
307.029977 75.089455 l
308.693619 148.77094 l
309.229678 75.089455 l
310.532194 75.089455 l
310.786519 75.089455 l
311.289246 75.089455 l
311.4551 75.089455 l
313.14707 75.089455 l
313.381712 75.089455 l
314.075596 148.77094 l
314.754905 148.77094 l
314.978207 75.089455 l
319.21325 75.089455 l
320.924167 75.089455 l
321.1088 75.089455 l
322.84126 75.089455 l
323.702219 75.089455 l
324.706 75.089455 l
325.196445 75.089455 l
325.944876 75.089455 l
326.572885 75.089455 l
327.188931 75.089455 l
327.793462 75.089455 l
330.975599 191.871846 l
332.043364 75.089455 l
332.693248 148.77094 l
336.263346 75.089455 l
337.246905 148.77094 l
341.171893 75.089455 l
341.663165 75.089455 l
341.954386 75.089455 l
342.05088 75.089455 l
343.155869 75.089455 l
343.341562 75.089455 l
345.374782 75.089455 l
346.875355 75.089455 l
350.484202 75.089455 l
352.937472 75.089455 l
353.279713 75.089455 l
353.997943 75.089455 l
355.40951 75.089455 l
357.347692 75.089455 l
359.997911 75.089455 l
361.121369 75.089455 l
361.651279 75.089455 l
363.457011 75.089455 l
364.452212 75.089455 l
369.841388 75.089455 l
373.295109 75.089455 l
376.348677 75.089455 l
376.713621 75.089455 l
377.193895 75.089455 l
380.497227 75.089455 l
380.575394 75.089455 l
380.866848 75.089455 l
385.280814 75.089455 l
388.757442 75.089455 l
391.474124 75.089455 l
402.302338 75.089455 l
grestore
1.000 setlinewidth
0.122 0.467 0.706 setrgbcolor
gsave
273.2 239.9 141.5 64.18 clipbox
/o {
gsave
newpath
translate
1.0 setlinewidth
1 setlinejoin
0 setlinecap
0 -6 m
1.591219 -6 3.117479 -5.367802 4.242641 -4.242641 c
5.367802 -3.117479 6 -1.591219 6 0 c
6 1.591219 5.367802 3.117479 4.242641 4.242641 c
3.117479 5.367802 1.591219 6 0 6 c
-1.591219 6 -3.117479 5.367802 -4.242641 4.242641 c
-5.367802 3.117479 -6 1.591219 -6 0 c
-6 -1.591219 -5.367802 -3.117479 -4.242641 -4.242641 c
-3.117479 -5.367802 -1.591219 -6 0 -6 c
cl

gsave
0.122 0.467 0.706 setrgbcolor
fill
grestore
stroke
grestore
} bind def
153.949 222.452 o
189.48 148.771 o
198.784 75.0895 o
206.001 75.0895 o
211.897 75.0895 o
221.201 75.0895 o
227.322 75.0895 o
230.505 75.0895 o
236.063 75.0895 o
238.521 191.872 o
242.938 191.872 o
244.939 75.0895 o
250.292 75.0895 o
251.896 75.0895 o
253.424 75.0895 o
254.883 148.771 o
256.28 75.0895 o
259.733 75.0895 o
260.938 75.0895 o
263.222 75.0895 o
265.355 75.0895 o
266.371 75.0895 o
267.356 75.0895 o
272.709 148.771 o
273.521 75.0895 o
274.313 75.0895 o
277.062 148.771 o
278.468 148.771 o
280.47 75.0895 o
282.354 75.0895 o
283.552 75.0895 o
284.135 75.0895 o
285.27 75.0895 o
286.366 75.0895 o
286.901 246.173 o
287.252 75.0895 o
289.285 191.872 o
289.774 148.771 o
290.255 75.0895 o
291.197 75.0895 o
293.003 191.872 o
294.294 75.0895 o
295.805 75.0895 o
296.205 75.0895 o
297.758 75.0895 o
298.134 75.0895 o
298.507 75.0895 o
299.239 75.0895 o
299.955 75.0895 o
301.902 148.771 o
303.209 148.771 o
304.772 75.0895 o
305.674 75.0895 o
305.97 75.0895 o
306.84 75.0895 o
307.03 75.0895 o
308.694 148.771 o
309.23 75.0895 o
310.532 75.0895 o
310.787 75.0895 o
311.289 75.0895 o
311.455 75.0895 o
313.147 75.0895 o
313.382 75.0895 o
314.076 148.771 o
314.755 148.771 o
314.978 75.0895 o
319.213 75.0895 o
320.924 75.0895 o
321.109 75.0895 o
322.841 75.0895 o
323.702 75.0895 o
324.706 75.0895 o
325.196 75.0895 o
325.945 75.0895 o
326.573 75.0895 o
327.189 75.0895 o
327.793 75.0895 o
330.976 191.872 o
332.043 75.0895 o
332.693 148.771 o
336.263 75.0895 o
337.247 148.771 o
341.172 75.0895 o
341.663 75.0895 o
341.954 75.0895 o
342.051 75.0895 o
343.156 75.0895 o
343.342 75.0895 o
345.375 75.0895 o
346.875 75.0895 o
350.484 75.0895 o
352.937 75.0895 o
353.28 75.0895 o
353.998 75.0895 o
355.41 75.0895 o
357.348 75.0895 o
359.998 75.0895 o
361.121 75.0895 o
361.651 75.0895 o
363.457 75.0895 o
364.452 75.0895 o
369.841 75.0895 o
373.295 75.0895 o
376.349 75.0895 o
376.714 75.0895 o
377.194 75.0895 o
380.497 75.0895 o
380.575 75.0895 o
380.867 75.0895 o
385.281 75.0895 o
388.757 75.0895 o
391.474 75.0895 o
402.302 75.0895 o
grestore
gsave
273.2 239.9 141.5 64.18 clipbox
299.83689 293.221403 m
303.208844 219.539917 l
306.359167 219.539917 l
309.140949 145.858431 l
314.151784 262.640823 l
318.422788 293.221403 l
320.426597 293.221403 l
322.254284 262.640823 l
323.984187 145.858431 l
325.679563 145.858431 l
327.239743 219.539917 l
330.197352 262.640823 l
331.558344 262.640823 l
335.367619 219.539917 l
336.531107 219.539917 l
337.69096 262.640823 l
338.775133 145.858431 l
339.824137 262.640823 l
340.873507 145.858431 l
341.857603 145.858431 l
343.770744 145.858431 l
345.548195 145.858431 l
347.260377 145.858431 l
348.886454 145.858431 l
351.888468 219.539917 l
353.302401 145.858431 l
355.936427 219.539917 l
357.785014 145.858431 l
358.371989 145.858431 l
360.654983 145.858431 l
361.192527 145.858431 l
366.626725 145.858431 l
368.409316 145.858431 l
370.898349 145.858431 l
375.366333 145.858431 l
375.708453 145.858431 l
378.028145 145.858431 l
379.594524 145.858431 l
380.202408 145.858431 l
380.789384 145.858431 l
381.088531 145.858431 l
384.924477 145.858431 l
386.692392 145.858431 l
396.723256 145.858431 l
397.076719 145.858431 l
397.432155 145.858431 l
grestore
0 setlinejoin
1.000 0.498 0.055 setrgbcolor
gsave
273.2 239.9 141.5 64.18 clipbox
/o {
gsave
newpath
translate
1.0 setlinewidth
0 setlinejoin
0 setlinecap
-3 -6 m
0 -3 l
3 -6 l
6 -3 l
3 0 l
6 3 l
3 6 l
0 3 l
-3 6 l
-6 3 l
-3 0 l
-6 -3 l
cl

gsave
1.000 0.498 0.055 setrgbcolor
fill
grestore
stroke
grestore
} bind def
299.837 293.221 o
303.209 219.54 o
306.359 219.54 o
309.141 145.858 o
314.152 262.641 o
318.423 293.221 o
320.427 293.221 o
322.254 262.641 o
323.984 145.858 o
325.68 145.858 o
327.24 219.54 o
330.197 262.641 o
331.558 262.641 o
335.368 219.54 o
336.531 219.54 o
337.691 262.641 o
338.775 145.858 o
339.824 262.641 o
340.874 145.858 o
341.858 145.858 o
343.771 145.858 o
345.548 145.858 o
347.26 145.858 o
348.886 145.858 o
351.888 219.54 o
353.302 145.858 o
355.936 219.54 o
357.785 145.858 o
358.372 145.858 o
360.655 145.858 o
361.193 145.858 o
366.627 145.858 o
368.409 145.858 o
370.898 145.858 o
375.366 145.858 o
375.708 145.858 o
378.028 145.858 o
379.595 145.858 o
380.202 145.858 o
380.789 145.858 o
381.089 145.858 o
384.924 145.858 o
386.692 145.858 o
396.723 145.858 o
397.077 145.858 o
397.432 145.858 o
grestore
0.800 setlinewidth
2 setlinecap
[] 0 setdash
0.000 setgray
gsave
141.531429 64.182857 m
141.531429 304.128 l
stroke
grestore
gsave
414.72 64.182857 m
414.72 304.128 l
stroke
grestore
gsave
141.531429 64.182857 m
414.72 64.182857 l
stroke
grestore
gsave
141.531429 304.128 m
414.72 304.128 l
stroke
grestore
1.000 setlinewidth
0 setlinecap
0.800 setgray
gsave
155.531429 229.40925 m
293.609554 229.40925 l
296.27622 229.40925 297.609554 230.742583 297.609554 233.40925 c
297.609554 290.128 l
297.609554 292.794667 296.27622 294.128 293.609554 294.128 c
155.531429 294.128 l
152.864762 294.128 151.531429 292.794667 151.531429 290.128 c
151.531429 233.40925 l
151.531429 230.742583 152.864762 229.40925 155.531429 229.40925 c
cl
gsave
1.000 setgray
fill
grestore
stroke
grestore
gsave
159.531429 277.924875 m
199.531429 277.924875 l
grestore
1 setlinejoin
[] 0 setdash
0.122 0.467 0.706 setrgbcolor
gsave
/o {
gsave
newpath
translate
1.0 setlinewidth
1 setlinejoin
0 setlinecap
0 -6 m
1.591219 -6 3.117479 -5.367802 4.242641 -4.242641 c
5.367802 -3.117479 6 -1.591219 6 0 c
6 1.591219 5.367802 3.117479 4.242641 4.242641 c
3.117479 5.367802 1.591219 6 0 6 c
-1.591219 6 -3.117479 5.367802 -4.242641 4.242641 c
-5.367802 3.117479 -6 1.591219 -6 0 c
-6 -1.591219 -5.367802 -3.117479 -4.242641 -4.242641 c
-3.117479 -5.367802 -1.591219 -6 0 -6 c
cl

gsave
0.122 0.467 0.706 setrgbcolor
fill
grestore
stroke
grestore
} bind def
179.531 277.925 o
grestore
0.000 setgray
gsave
215.531429 270.924875 translate
0.000000 rotate
0.000000 0.000000 m /S glyphshow
12.695312 0.000000 m /y glyphshow
24.531250 0.000000 m /d glyphshow
37.226562 0.000000 m /n glyphshow
49.902344 0.000000 m /e glyphshow
62.207031 0.000000 m /y glyphshow
grestore
gsave
159.531429 248.5655 m
199.531429 248.5655 l
grestore
0 setlinejoin
1.000 0.498 0.055 setrgbcolor
gsave
/o {
gsave
newpath
translate
1.0 setlinewidth
0 setlinejoin
0 setlinecap
-3 -6 m
0 -3 l
3 -6 l
6 -3 l
3 0 l
6 3 l
3 6 l
0 3 l
-3 6 l
-6 3 l
-3 0 l
-6 -3 l
cl

gsave
1.000 0.498 0.055 setrgbcolor
fill
grestore
stroke
grestore
} bind def
179.531 248.565 o
grestore
0.000 setgray
gsave
215.531429 241.565500 translate
0.000000 rotate
0.000000 0.000000 m /D glyphshow
15.400391 0.000000 m /u glyphshow
28.076172 0.000000 m /b glyphshow
40.771484 0.000000 m /l glyphshow
46.328125 0.000000 m /i glyphshow
51.884766 0.000000 m /n glyphshow
grestore

end
showpage
