%!PS-Adobe-3.0 EPSF-3.0
%%Title: /media/sf_OneDrive/Research/projects/squark/squark/latex/vldb19/eps/dublin_sydney_keynode.eps
%%Creator: matplotlib version 2.0.0, http://matplotlib.org/
%%CreationDate: Mon Apr 23 22:24:07 2018
%%Orientation: portrait
%%BoundingBox: 75 223 536 568
%%EndComments
%%BeginProlog
/mpldict 8 dict def
mpldict begin
/m { moveto } bind def
/l { lineto } bind def
/r { rlineto } bind def
/c { curveto } bind def
/cl { closepath } bind def
/box {
m
1 index 0 r
0 exch r
neg 0 r
cl
} bind def
/clipbox {
box
clip
newpath
} bind def
%!PS-Adobe-3.0 Resource-Font
%%Title: DejaVu Sans
%%Copyright: Copyright (c) 2003 by Bitstream, Inc. All Rights Reserved. Copyright (c) 2006 by Tavmjong Bah. All Rights Reserved. DejaVu changes are in public domain 
%%Creator: Converted from TrueType to type 3 by PPR
25 dict begin
/_d{bind def}bind def
/_m{moveto}_d
/_l{lineto}_d
/_cl{closepath eofill}_d
/_c{curveto}_d
/_sc{7 -1 roll{setcachedevice}{pop pop pop pop pop pop}ifelse}_d
/_e{exec}_d
/FontName /DejaVuSans def
/PaintType 0 def
/FontMatrix[.001 0 0 .001 0 0]def
/FontBBox[-1021 -463 1793 1232]def
/FontType 3 def
/Encoding [ /space /percent /parenleft /parenright /period /zero /one /two /three /four /five /six /D /N /P /S /a /b /c /d /e /f /g /i /k /l /n /o /r /s /t /u /w /y ] def
/FontInfo 10 dict dup begin
/FamilyName (DejaVu Sans) def
/FullName (DejaVu Sans) def
/Notice (Copyright (c) 2003 by Bitstream, Inc. All Rights Reserved. Copyright (c) 2006 by Tavmjong Bah. All Rights Reserved. DejaVu changes are in public domain ) def
/Weight (Book) def
/Version (Version 2.35) def
/ItalicAngle 0.0 def
/isFixedPitch false def
/UnderlinePosition -130 def
/UnderlineThickness 90 def
end readonly def
/CharStrings 34 dict dup begin
/space{318 0 0 0 0 0 _sc
}_d
/percent{{950 0 55 -13 895 742 _sc
727 321 _m
699 321 676 309 660 285 _c
644 261 636 227 636 184 _c
636 142 644 108 660 84 _c
676 60 699 48 727 48 _c
755 48 777 60 793 84 _c
809 108 817 142 817 184 _c
817 226 809 260 793 284 _c
777 308 755 321 727 321 _c
727 383 _m
778 383 819 365 849 329 _c
879 293 895 244 895 184 _c
895 123 879 75 849 40 _c
819 4 778 -13 727 -13 _c
}_e{675 -13 633 4 603 40 _c
573 75 558 123 558 184 _c
558 245 573 293 603 329 _c
633 365 675 383 727 383 _c
223 680 _m
195 680 173 667 157 643 _c
141 619 133 586 133 544 _c
133 500 141 467 157 443 _c
173 419 195 407 223 407 _c
251 407 274 419 290 443 _c
306 467 314 500 314 544 _c
314 586 305 619 289 643 _c
273 667 251 680 223 680 _c
664 742 _m
742 742 _l
286 -13 _l
}_e{208 -13 _l
664 742 _l
223 742 _m
274 742 315 724 346 688 _c
376 652 392 604 392 544 _c
392 482 376 434 346 398 _c
316 362 275 345 223 345 _c
171 345 130 362 100 398 _c
70 434 55 482 55 544 _c
55 604 70 652 100 688 _c
130 724 171 742 223 742 _c
_cl}_e}_d
/parenleft{390 0 86 -131 310 759 _sc
310 759 _m
266 683 234 609 213 536 _c
191 463 181 389 181 314 _c
181 238 191 164 213 91 _c
234 17 266 -56 310 -131 _c
232 -131 _l
183 -54 146 20 122 94 _c
98 168 86 241 86 314 _c
86 386 98 459 122 533 _c
146 607 182 682 232 759 _c
310 759 _l
_cl}_d
/parenright{390 0 80 -131 304 759 _sc
80 759 _m
158 759 _l
206 682 243 607 267 533 _c
291 459 304 386 304 314 _c
304 241 291 168 267 94 _c
243 20 206 -54 158 -131 _c
80 -131 _l
123 -56 155 17 177 91 _c
198 164 209 238 209 314 _c
209 389 198 463 177 536 _c
155 609 123 683 80 759 _c
_cl}_d
/period{318 0 107 0 210 124 _sc
107 124 _m
210 124 _l
210 0 _l
107 0 _l
107 124 _l
_cl}_d
/zero{636 0 66 -13 570 742 _sc
318 664 _m
267 664 229 639 203 589 _c
177 539 165 464 165 364 _c
165 264 177 189 203 139 _c
229 89 267 64 318 64 _c
369 64 407 89 433 139 _c
458 189 471 264 471 364 _c
471 464 458 539 433 589 _c
407 639 369 664 318 664 _c
318 742 _m
399 742 461 709 505 645 _c
548 580 570 486 570 364 _c
570 241 548 147 505 83 _c
461 19 399 -13 318 -13 _c
236 -13 173 19 130 83 _c
87 147 66 241 66 364 _c
66 486 87 580 130 645 _c
173 709 236 742 318 742 _c
_cl}_d
/one{636 0 110 0 544 729 _sc
124 83 _m
285 83 _l
285 639 _l
110 604 _l
110 694 _l
284 729 _l
383 729 _l
383 83 _l
544 83 _l
544 0 _l
124 0 _l
124 83 _l
_cl}_d
/two{{636 0 73 0 536 742 _sc
192 83 _m
536 83 _l
536 0 _l
73 0 _l
73 83 _l
110 121 161 173 226 239 _c
290 304 331 346 348 365 _c
380 400 402 430 414 455 _c
426 479 433 504 433 528 _c
433 566 419 598 392 622 _c
365 646 330 659 286 659 _c
255 659 222 653 188 643 _c
154 632 117 616 78 594 _c
78 694 _l
118 710 155 722 189 730 _c
223 738 255 742 284 742 _c
}_e{359 742 419 723 464 685 _c
509 647 532 597 532 534 _c
532 504 526 475 515 449 _c
504 422 484 390 454 354 _c
446 344 420 317 376 272 _c
332 227 271 164 192 83 _c
_cl}_e}_d
/three{{636 0 76 -13 556 742 _sc
406 393 _m
453 383 490 362 516 330 _c
542 298 556 258 556 212 _c
556 140 531 84 482 45 _c
432 6 362 -13 271 -13 _c
240 -13 208 -10 176 -4 _c
144 1 110 10 76 22 _c
76 117 _l
103 101 133 89 166 81 _c
198 73 232 69 268 69 _c
330 69 377 81 409 105 _c
441 129 458 165 458 212 _c
458 254 443 288 413 312 _c
383 336 341 349 287 349 _c
}_e{202 349 _l
202 430 _l
291 430 _l
339 430 376 439 402 459 _c
428 478 441 506 441 543 _c
441 580 427 609 401 629 _c
374 649 336 659 287 659 _c
260 659 231 656 200 650 _c
169 644 135 635 98 623 _c
98 711 _l
135 721 170 729 203 734 _c
235 739 266 742 296 742 _c
370 742 429 725 473 691 _c
517 657 539 611 539 553 _c
539 513 527 479 504 451 _c
481 423 448 403 406 393 _c
_cl}_e}_d
/four{636 0 49 0 580 729 _sc
378 643 _m
129 254 _l
378 254 _l
378 643 _l
352 729 _m
476 729 _l
476 254 _l
580 254 _l
580 172 _l
476 172 _l
476 0 _l
378 0 _l
378 172 _l
49 172 _l
49 267 _l
352 729 _l
_cl}_d
/five{{636 0 77 -13 549 729 _sc
108 729 _m
495 729 _l
495 646 _l
198 646 _l
198 467 _l
212 472 227 476 241 478 _c
255 480 270 482 284 482 _c
365 482 429 459 477 415 _c
525 370 549 310 549 234 _c
549 155 524 94 475 51 _c
426 8 357 -13 269 -13 _c
238 -13 207 -10 175 -6 _c
143 -1 111 6 77 17 _c
77 116 _l
106 100 136 88 168 80 _c
199 72 232 69 267 69 _c
}_e{323 69 368 83 401 113 _c
433 143 450 183 450 234 _c
450 284 433 324 401 354 _c
368 384 323 399 267 399 _c
241 399 214 396 188 390 _c
162 384 135 375 108 363 _c
108 729 _l
_cl}_e}_d
/six{{636 0 70 -13 573 742 _sc
330 404 _m
286 404 251 388 225 358 _c
199 328 186 286 186 234 _c
186 181 199 139 225 109 _c
251 79 286 64 330 64 _c
374 64 409 79 435 109 _c
461 139 474 181 474 234 _c
474 286 461 328 435 358 _c
409 388 374 404 330 404 _c
526 713 _m
526 623 _l
501 635 476 644 451 650 _c
425 656 400 659 376 659 _c
310 659 260 637 226 593 _c
}_e{192 549 172 482 168 394 _c
187 422 211 444 240 459 _c
269 474 301 482 336 482 _c
409 482 467 459 509 415 _c
551 371 573 310 573 234 _c
573 159 550 99 506 54 _c
462 9 403 -13 330 -13 _c
246 -13 181 19 137 83 _c
92 147 70 241 70 364 _c
70 479 97 571 152 639 _c
206 707 280 742 372 742 _c
396 742 421 739 447 735 _c
472 730 498 723 526 713 _c
_cl}_e}_d
/D{770 0 98 0 711 729 _sc
197 648 _m
197 81 _l
316 81 _l
416 81 490 103 537 149 _c
583 195 607 267 607 365 _c
607 463 583 534 537 580 _c
490 625 416 648 316 648 _c
197 648 _l
98 729 _m
301 729 _l
442 729 546 699 612 641 _c
678 582 711 490 711 365 _c
711 239 677 147 611 88 _c
545 29 441 0 301 0 _c
98 0 _l
98 729 _l
_cl}_d
/N{748 0 98 0 650 729 _sc
98 729 _m
231 729 _l
554 119 _l
554 729 _l
650 729 _l
650 0 _l
517 0 _l
194 610 _l
194 0 _l
98 0 _l
98 729 _l
_cl}_d
/P{603 0 98 0 569 729 _sc
197 648 _m
197 374 _l
321 374 _l
367 374 402 385 427 409 _c
452 433 465 467 465 511 _c
465 555 452 588 427 612 _c
402 636 367 648 321 648 _c
197 648 _l
98 729 _m
321 729 _l
402 729 464 710 506 673 _c
548 636 569 582 569 511 _c
569 439 548 384 506 348 _c
464 311 402 293 321 293 _c
197 293 _l
197 0 _l
98 0 _l
98 729 _l
_cl}_d
/S{{635 0 66 -13 579 742 _sc
535 705 _m
535 609 _l
497 627 462 640 429 649 _c
395 657 363 662 333 662 _c
279 662 237 651 208 631 _c
179 610 165 580 165 542 _c
165 510 174 485 194 469 _c
213 452 250 439 304 429 _c
364 417 _l
437 403 491 378 526 343 _c
561 307 579 260 579 201 _c
579 130 555 77 508 41 _c
460 5 391 -13 300 -13 _c
265 -13 228 -9 189 -2 _c
}_e{150 5 110 16 69 32 _c
69 134 _l
109 111 148 94 186 83 _c
224 71 262 66 300 66 _c
356 66 399 77 430 99 _c
460 121 476 152 476 194 _c
476 230 465 258 443 278 _c
421 298 385 313 335 323 _c
275 335 _l
201 349 148 372 115 404 _c
82 435 66 478 66 534 _c
66 598 88 649 134 686 _c
179 723 242 742 322 742 _c
356 742 390 739 426 733 _c
461 727 497 717 535 705 _c
}_e{_cl}_e}_d
/a{{613 0 60 -13 522 560 _sc
343 275 _m
270 275 220 266 192 250 _c
164 233 150 205 150 165 _c
150 133 160 107 181 89 _c
202 70 231 61 267 61 _c
317 61 357 78 387 114 _c
417 149 432 196 432 255 _c
432 275 _l
343 275 _l
522 312 _m
522 0 _l
432 0 _l
432 83 _l
411 49 385 25 355 10 _c
325 -5 287 -13 243 -13 _c
187 -13 142 2 109 33 _c
76 64 60 106 60 159 _c
}_e{60 220 80 266 122 298 _c
163 329 224 345 306 345 _c
432 345 _l
432 354 _l
432 395 418 427 391 450 _c
364 472 326 484 277 484 _c
245 484 215 480 185 472 _c
155 464 127 453 100 439 _c
100 522 _l
132 534 164 544 195 550 _c
226 556 256 560 286 560 _c
365 560 424 539 463 498 _c
502 457 522 395 522 312 _c
_cl}_e}_d
/b{{635 0 91 -13 580 760 _sc
487 273 _m
487 339 473 390 446 428 _c
418 466 381 485 334 485 _c
286 485 249 466 222 428 _c
194 390 181 339 181 273 _c
181 207 194 155 222 117 _c
249 79 286 61 334 61 _c
381 61 418 79 446 117 _c
473 155 487 207 487 273 _c
181 464 _m
199 496 223 520 252 536 _c
281 552 316 560 356 560 _c
422 560 476 533 518 481 _c
559 428 580 359 580 273 _c
}_e{580 187 559 117 518 65 _c
476 13 422 -13 356 -13 _c
316 -13 281 -5 252 10 _c
223 25 199 49 181 82 _c
181 0 _l
91 0 _l
91 760 _l
181 760 _l
181 464 _l
_cl}_e}_d
/c{{550 0 55 -13 488 560 _sc
488 526 _m
488 442 _l
462 456 437 466 411 473 _c
385 480 360 484 334 484 _c
276 484 230 465 198 428 _c
166 391 150 339 150 273 _c
150 206 166 154 198 117 _c
230 80 276 62 334 62 _c
360 62 385 65 411 72 _c
437 79 462 90 488 104 _c
488 21 _l
462 9 436 0 410 -5 _c
383 -10 354 -13 324 -13 _c
242 -13 176 12 128 64 _c
}_e{79 115 55 185 55 273 _c
55 362 79 432 128 483 _c
177 534 244 560 330 560 _c
358 560 385 557 411 551 _c
437 545 463 537 488 526 _c
_cl}_e}_d
/d{{635 0 55 -13 544 760 _sc
454 464 _m
454 760 _l
544 760 _l
544 0 _l
454 0 _l
454 82 _l
435 49 411 25 382 10 _c
353 -5 319 -13 279 -13 _c
213 -13 159 13 117 65 _c
75 117 55 187 55 273 _c
55 359 75 428 117 481 _c
159 533 213 560 279 560 _c
319 560 353 552 382 536 _c
411 520 435 496 454 464 _c
148 273 _m
148 207 161 155 188 117 _c
215 79 253 61 301 61 _c
}_e{348 61 385 79 413 117 _c
440 155 454 207 454 273 _c
454 339 440 390 413 428 _c
385 466 348 485 301 485 _c
253 485 215 466 188 428 _c
161 390 148 339 148 273 _c
_cl}_e}_d
/e{{615 0 55 -13 562 560 _sc
562 296 _m
562 252 _l
149 252 _l
153 190 171 142 205 110 _c
238 78 284 62 344 62 _c
378 62 412 66 444 74 _c
476 82 509 95 541 113 _c
541 28 _l
509 14 476 3 442 -3 _c
408 -9 373 -13 339 -13 _c
251 -13 182 12 131 62 _c
80 112 55 181 55 268 _c
55 357 79 428 127 481 _c
175 533 241 560 323 560 _c
397 560 455 536 498 489 _c
}_e{540 441 562 377 562 296 _c
472 322 _m
471 371 457 410 431 440 _c
404 469 368 484 324 484 _c
274 484 234 469 204 441 _c
174 413 156 373 152 322 _c
472 322 _l
_cl}_e}_d
/f{352 0 23 0 371 760 _sc
371 760 _m
371 685 _l
285 685 _l
253 685 230 678 218 665 _c
205 652 199 629 199 595 _c
199 547 _l
347 547 _l
347 477 _l
199 477 _l
199 0 _l
109 0 _l
109 477 _l
23 477 _l
23 547 _l
109 547 _l
109 585 _l
109 645 123 690 151 718 _c
179 746 224 760 286 760 _c
371 760 _l
_cl}_d
/g{{635 0 55 -207 544 560 _sc
454 280 _m
454 344 440 395 414 431 _c
387 467 349 485 301 485 _c
253 485 215 467 188 431 _c
161 395 148 344 148 280 _c
148 215 161 165 188 129 _c
215 93 253 75 301 75 _c
349 75 387 93 414 129 _c
440 165 454 215 454 280 _c
544 68 _m
544 -24 523 -93 482 -139 _c
440 -184 377 -207 292 -207 _c
260 -207 231 -204 203 -200 _c
175 -195 147 -188 121 -178 _c
}_e{121 -91 _l
147 -105 173 -115 199 -122 _c
225 -129 251 -133 278 -133 _c
336 -133 380 -117 410 -87 _c
439 -56 454 -10 454 52 _c
454 96 _l
435 64 411 40 382 24 _c
353 8 319 0 279 0 _c
211 0 157 25 116 76 _c
75 127 55 195 55 280 _c
55 364 75 432 116 483 _c
157 534 211 560 279 560 _c
319 560 353 552 382 536 _c
411 520 435 496 454 464 _c
454 547 _l
544 547 _l
}_e{544 68 _l
_cl}_e}_d
/i{278 0 94 0 184 760 _sc
94 547 _m
184 547 _l
184 0 _l
94 0 _l
94 547 _l
94 760 _m
184 760 _l
184 646 _l
94 646 _l
94 760 _l
_cl}_d
/k{579 0 91 0 576 760 _sc
91 760 _m
181 760 _l
181 311 _l
449 547 _l
564 547 _l
274 291 _l
576 0 _l
459 0 _l
181 267 _l
181 0 _l
91 0 _l
91 760 _l
_cl}_d
/l{278 0 94 0 184 760 _sc
94 760 _m
184 760 _l
184 0 _l
94 0 _l
94 760 _l
_cl}_d
/n{634 0 91 0 549 560 _sc
549 330 _m
549 0 _l
459 0 _l
459 327 _l
459 379 448 417 428 443 _c
408 469 378 482 338 482 _c
289 482 251 466 223 435 _c
195 404 181 362 181 309 _c
181 0 _l
91 0 _l
91 547 _l
181 547 _l
181 462 _l
202 494 227 519 257 535 _c
286 551 320 560 358 560 _c
420 560 468 540 500 501 _c
532 462 549 405 549 330 _c
_cl}_d
/o{612 0 55 -13 557 560 _sc
306 484 _m
258 484 220 465 192 427 _c
164 389 150 338 150 273 _c
150 207 163 156 191 118 _c
219 80 257 62 306 62 _c
354 62 392 80 420 118 _c
448 156 462 207 462 273 _c
462 337 448 389 420 427 _c
392 465 354 484 306 484 _c
306 560 _m
384 560 445 534 490 484 _c
534 433 557 363 557 273 _c
557 183 534 113 490 63 _c
445 12 384 -13 306 -13 _c
227 -13 165 12 121 63 _c
77 113 55 183 55 273 _c
55 363 77 433 121 484 _c
165 534 227 560 306 560 _c
_cl}_d
/r{411 0 91 0 411 560 _sc
411 463 _m
401 469 390 473 378 476 _c
366 478 353 480 339 480 _c
288 480 249 463 222 430 _c
194 397 181 350 181 288 _c
181 0 _l
91 0 _l
91 547 _l
181 547 _l
181 462 _l
199 495 224 520 254 536 _c
284 552 321 560 365 560 _c
371 560 378 559 386 559 _c
393 558 401 557 411 555 _c
411 463 _l
_cl}_d
/s{{521 0 54 -13 472 560 _sc
443 531 _m
443 446 _l
417 458 391 468 364 475 _c
336 481 308 485 279 485 _c
234 485 200 478 178 464 _c
156 450 145 430 145 403 _c
145 382 153 366 169 354 _c
185 342 217 330 265 320 _c
296 313 _l
360 299 405 279 432 255 _c
458 230 472 195 472 151 _c
472 100 452 60 412 31 _c
372 1 316 -13 246 -13 _c
216 -13 186 -10 154 -5 _c
}_e{122 0 89 8 54 20 _c
54 113 _l
87 95 120 82 152 74 _c
184 65 216 61 248 61 _c
290 61 323 68 346 82 _c
368 96 380 117 380 144 _c
380 168 371 187 355 200 _c
339 213 303 226 247 238 _c
216 245 _l
160 257 119 275 95 299 _c
70 323 58 356 58 399 _c
58 450 76 490 112 518 _c
148 546 200 560 268 560 _c
301 560 332 557 362 552 _c
391 547 418 540 443 531 _c
}_e{_cl}_e}_d
/t{392 0 27 0 368 702 _sc
183 702 _m
183 547 _l
368 547 _l
368 477 _l
183 477 _l
183 180 _l
183 135 189 106 201 94 _c
213 81 238 75 276 75 _c
368 75 _l
368 0 _l
276 0 _l
206 0 158 13 132 39 _c
106 65 93 112 93 180 _c
93 477 _l
27 477 _l
27 547 _l
93 547 _l
93 702 _l
183 702 _l
_cl}_d
/u{634 0 85 -13 543 560 _sc
85 216 _m
85 547 _l
175 547 _l
175 219 _l
175 167 185 129 205 103 _c
225 77 255 64 296 64 _c
344 64 383 79 411 110 _c
439 141 453 183 453 237 _c
453 547 _l
543 547 _l
543 0 _l
453 0 _l
453 84 _l
431 50 405 26 377 10 _c
348 -5 315 -13 277 -13 _c
214 -13 166 6 134 45 _c
101 83 85 140 85 216 _c
311 560 _m
311 560 _l
_cl}_d
/w{818 0 42 0 776 547 _sc
42 547 _m
132 547 _l
244 120 _l
356 547 _l
462 547 _l
574 120 _l
686 547 _l
776 547 _l
633 0 _l
527 0 _l
409 448 _l
291 0 _l
185 0 _l
42 547 _l
_cl}_d
/y{592 0 30 -207 562 547 _sc
322 -50 _m
296 -114 271 -157 247 -177 _c
223 -197 191 -207 151 -207 _c
79 -207 _l
79 -132 _l
132 -132 _l
156 -132 175 -126 189 -114 _c
203 -102 218 -75 235 -31 _c
251 9 _l
30 547 _l
125 547 _l
296 119 _l
467 547 _l
562 547 _l
322 -50 _l
_cl}_d
end readonly def

/BuildGlyph
 {exch begin
 CharStrings exch
 2 copy known not{pop /.notdef}if
 true 3 1 roll get exec
 end}_d

/BuildChar {
 1 index /Encoding get exch get
 1 index /BuildGlyph get exec
}_d

FontName currentdict end definefont pop
end
%%EndProlog
mpldict begin
75.6 223.2 translate
460.8 345.6 0 0 clipbox
gsave
0 0 m
460.8 0 l
460.8 345.6 l
0 345.6 l
cl
1.000 setgray
fill
grestore
gsave
138.24 52.662857 m
414.72 52.662857 l
414.72 304.128 l
138.24 304.128 l
cl
1.000 setgray
fill
grestore
0.800 setlinewidth
1 setlinejoin
0 setlinecap
[] 0 setdash
0.000 setgray
gsave
/o {
gsave
newpath
translate
0.8 setlinewidth
1 setlinejoin
0 setlinecap
0 0 m
0 -3.5 l

gsave
0.000 setgray
fill
grestore
stroke
grestore
} bind def
150.691 52.6629 o
grestore
/DejaVuSans findfont
20.000 scalefont
setfont
gsave
144.331624 30.459732 translate
0.000000 rotate
0.000000 0.000000 m /zero glyphshow
grestore
gsave
/o {
gsave
newpath
translate
0.8 setlinewidth
1 setlinejoin
0 setlinecap
0 0 m
0 -3.5 l

gsave
0.000 setgray
fill
grestore
stroke
grestore
} bind def
228.207 52.6629 o
grestore
gsave
221.847570 30.459732 translate
0.000000 rotate
0.000000 0.000000 m /two glyphshow
grestore
gsave
/o {
gsave
newpath
translate
0.8 setlinewidth
1 setlinejoin
0 setlinecap
0 0 m
0 -3.5 l

gsave
0.000 setgray
fill
grestore
stroke
grestore
} bind def
305.723 52.6629 o
grestore
gsave
299.363516 30.459732 translate
0.000000 rotate
0.000000 0.000000 m /four glyphshow
grestore
gsave
/o {
gsave
newpath
translate
0.8 setlinewidth
1 setlinejoin
0 setlinecap
0 0 m
0 -3.5 l

gsave
0.000 setgray
fill
grestore
stroke
grestore
} bind def
383.239 52.6629 o
grestore
gsave
376.879461 30.459732 translate
0.000000 rotate
0.000000 0.000000 m /six glyphshow
grestore
gsave
135.120625 7.100357 translate
0.000000 rotate
0.000000 0.000000 m /P glyphshow
12.060547 0.000000 m /e glyphshow
24.365234 0.000000 m /r glyphshow
32.587891 0.000000 m /c glyphshow
43.583984 0.000000 m /e glyphshow
55.888672 0.000000 m /n glyphshow
68.564453 0.000000 m /t glyphshow
76.406250 0.000000 m /a glyphshow
88.662109 0.000000 m /g glyphshow
101.357422 0.000000 m /e glyphshow
113.662109 0.000000 m /space glyphshow
120.019531 0.000000 m /o glyphshow
132.255859 0.000000 m /f glyphshow
139.296875 0.000000 m /space glyphshow
145.654297 0.000000 m /k glyphshow
157.236328 0.000000 m /e glyphshow
169.541016 0.000000 m /y glyphshow
181.376953 0.000000 m /n glyphshow
194.052734 0.000000 m /o glyphshow
206.289062 0.000000 m /d glyphshow
218.984375 0.000000 m /e glyphshow
231.289062 0.000000 m /s glyphshow
241.708984 0.000000 m /space glyphshow
248.066406 0.000000 m /parenleft glyphshow
255.869141 0.000000 m /percent glyphshow
274.873047 0.000000 m /parenright glyphshow
grestore
gsave
/o {
gsave
newpath
translate
0.8 setlinewidth
1 setlinejoin
0 setlinecap
0 0 m
-3.5 0 l

gsave
0.000 setgray
fill
grestore
stroke
grestore
} bind def
138.24 78.9205 o
grestore
gsave
118.521250 71.318955 translate
0.000000 rotate
0.000000 0.000000 m /one glyphshow
grestore
gsave
/o {
gsave
newpath
translate
0.8 setlinewidth
1 setlinejoin
0 setlinecap
0 0 m
-3.5 0 l

gsave
0.000 setgray
fill
grestore
stroke
grestore
} bind def
138.24 127.447 o
grestore
gsave
118.521250 119.845079 translate
0.000000 rotate
0.000000 0.000000 m /two glyphshow
grestore
gsave
/o {
gsave
newpath
translate
0.8 setlinewidth
1 setlinejoin
0 setlinecap
0 0 m
-3.5 0 l

gsave
0.000 setgray
fill
grestore
stroke
grestore
} bind def
138.24 175.973 o
grestore
gsave
118.521250 168.371203 translate
0.000000 rotate
0.000000 0.000000 m /three glyphshow
grestore
gsave
/o {
gsave
newpath
translate
0.8 setlinewidth
1 setlinejoin
0 setlinecap
0 0 m
-3.5 0 l

gsave
0.000 setgray
fill
grestore
stroke
grestore
} bind def
138.24 224.499 o
grestore
gsave
118.521250 216.897327 translate
0.000000 rotate
0.000000 0.000000 m /four glyphshow
grestore
gsave
/o {
gsave
newpath
translate
0.8 setlinewidth
1 setlinejoin
0 setlinecap
0 0 m
-3.5 0 l

gsave
0.000 setgray
fill
grestore
stroke
grestore
} bind def
138.24 273.025 o
grestore
gsave
118.521250 265.423451 translate
0.000000 rotate
0.000000 0.000000 m /five glyphshow
grestore
gsave
110.365000 97.778241 translate
90.000000 rotate
0.000000 0.000000 m /N glyphshow
14.960938 0.000000 m /o glyphshow
27.197266 0.000000 m /period glyphshow
33.554688 0.000000 m /space glyphshow
39.912109 0.000000 m /o glyphshow
52.148438 0.000000 m /f glyphshow
59.189453 0.000000 m /space glyphshow
65.546875 0.000000 m /k glyphshow
77.128906 0.000000 m /e glyphshow
89.433594 0.000000 m /y glyphshow
101.269531 0.000000 m /w glyphshow
117.626953 0.000000 m /o glyphshow
129.863281 0.000000 m /r glyphshow
138.085938 0.000000 m /d glyphshow
150.781250 0.000000 m /s glyphshow
grestore
gsave
276.5 251.5 138.2 52.66 clipbox
150.807273 165.189182 m
151.039821 97.791788 l
151.156094 64.093091 l
151.272368 64.093091 l
151.388642 64.093091 l
151.62119 64.093091 l
151.81498 64.093091 l
151.931254 64.093091 l
152.163802 64.093091 l
152.280076 131.490485 l
152.512624 131.490485 l
152.628897 64.093091 l
152.977719 64.093091 l
153.093993 64.093091 l
153.210267 64.093091 l
153.326541 97.791788 l
153.442815 64.093091 l
153.752879 64.093091 l
153.869153 64.093091 l
154.1017 64.093091 l
154.334248 64.093091 l
154.450522 64.093091 l
154.566796 64.093091 l
155.26444 97.791788 l
155.380714 64.093091 l
155.496987 64.093091 l
155.923325 97.791788 l
156.155873 97.791788 l
156.504695 64.093091 l
156.853517 64.093091 l
157.086064 64.093091 l
157.202338 64.093091 l
157.434886 64.093091 l
157.667434 64.093091 l
157.783708 198.88788 l
157.861224 64.093091 l
158.326319 131.490485 l
158.442593 97.791788 l
158.558867 64.093091 l
158.791415 64.093091 l
159.256511 131.490485 l
159.605333 64.093091 l
160.03167 64.093091 l
160.147944 64.093091 l
160.61304 64.093091 l
160.729314 64.093091 l
160.845588 64.093091 l
161.078136 64.093091 l
161.310683 64.093091 l
161.969569 97.791788 l
162.434665 97.791788 l
163.016034 64.093091 l
163.364856 64.093091 l
163.48113 64.093091 l
163.829952 64.093091 l
163.907468 64.093091 l
164.605111 97.791788 l
164.837659 64.093091 l
165.419029 64.093091 l
165.535302 64.093091 l
165.76785 64.093091 l
165.845366 64.093091 l
166.659284 64.093091 l
166.775558 64.093091 l
167.124379 97.791788 l
167.473201 97.791788 l
167.589475 64.093091 l
169.953711 64.093091 l
171.000177 64.093091 l
171.116451 64.093091 l
172.240432 64.093091 l
172.821801 64.093091 l
173.519445 64.093091 l
173.868267 64.093091 l
174.410878 64.093091 l
174.875974 64.093091 l
175.34107 64.093091 l
175.806165 64.093091 l
178.402949 131.490485 l
179.333141 64.093091 l
179.91451 97.791788 l
183.325212 64.093091 l
184.332919 97.791788 l
188.673812 64.093091 l
189.255182 64.093091 l
189.604004 64.093091 l
189.720278 64.093091 l
191.076807 64.093091 l
191.309354 64.093091 l
193.944897 64.093091 l
195.999069 64.093091 l
201.347669 64.093091 l
205.339741 64.093091 l
205.92111 64.093091 l
207.161365 64.093091 l
209.680634 64.093091 l
213.323883 64.093091 l
218.672483 64.093091 l
221.075478 64.093091 l
222.238217 64.093091 l
226.346562 64.093091 l
228.710798 64.093091 l
242.857458 64.093091 l
253.244595 64.093091 l
263.399184 64.093091 l
264.678197 64.093091 l
266.383548 64.093091 l
278.824857 64.093091 l
279.134921 64.093091 l
280.29766 64.093091 l
299.250309 64.093091 l
316.110027 64.093091 l
330.605509 64.093091 l
402.152727 64.093091 l
grestore
1.000 setlinewidth
0.122 0.467 0.706 setrgbcolor
gsave
276.5 251.5 138.2 52.66 clipbox
/o {
gsave
newpath
translate
1.0 setlinewidth
1 setlinejoin
0 setlinecap
0 -6 m
1.591219 -6 3.117479 -5.367802 4.242641 -4.242641 c
5.367802 -3.117479 6 -1.591219 6 0 c
6 1.591219 5.367802 3.117479 4.242641 4.242641 c
3.117479 5.367802 1.591219 6 0 6 c
-1.591219 6 -3.117479 5.367802 -4.242641 4.242641 c
-5.367802 3.117479 -6 1.591219 -6 0 c
-6 -1.591219 -5.367802 -3.117479 -4.242641 -4.242641 c
-3.117479 -5.367802 -1.591219 -6 0 -6 c
cl

gsave
0.122 0.467 0.706 setrgbcolor
fill
grestore
stroke
grestore
} bind def
150.807 165.189 o
151.04 97.7918 o
151.156 64.0931 o
151.272 64.0931 o
151.389 64.0931 o
151.621 64.0931 o
151.815 64.0931 o
151.931 64.0931 o
152.164 64.0931 o
152.28 131.49 o
152.513 131.49 o
152.629 64.0931 o
152.978 64.0931 o
153.094 64.0931 o
153.21 64.0931 o
153.327 97.7918 o
153.443 64.0931 o
153.753 64.0931 o
153.869 64.0931 o
154.102 64.0931 o
154.334 64.0931 o
154.451 64.0931 o
154.567 64.0931 o
155.264 97.7918 o
155.381 64.0931 o
155.497 64.0931 o
155.923 97.7918 o
156.156 97.7918 o
156.505 64.0931 o
156.854 64.0931 o
157.086 64.0931 o
157.202 64.0931 o
157.435 64.0931 o
157.667 64.0931 o
157.784 198.888 o
157.861 64.0931 o
158.326 131.49 o
158.443 97.7918 o
158.559 64.0931 o
158.791 64.0931 o
159.257 131.49 o
159.605 64.0931 o
160.032 64.0931 o
160.148 64.0931 o
160.613 64.0931 o
160.729 64.0931 o
160.846 64.0931 o
161.078 64.0931 o
161.311 64.0931 o
161.97 97.7918 o
162.435 97.7918 o
163.016 64.0931 o
163.365 64.0931 o
163.481 64.0931 o
163.83 64.0931 o
163.907 64.0931 o
164.605 97.7918 o
164.838 64.0931 o
165.419 64.0931 o
165.535 64.0931 o
165.768 64.0931 o
165.845 64.0931 o
166.659 64.0931 o
166.776 64.0931 o
167.124 97.7918 o
167.473 97.7918 o
167.589 64.0931 o
169.954 64.0931 o
171 64.0931 o
171.116 64.0931 o
172.24 64.0931 o
172.822 64.0931 o
173.519 64.0931 o
173.868 64.0931 o
174.411 64.0931 o
174.876 64.0931 o
175.341 64.0931 o
175.806 64.0931 o
178.403 131.49 o
179.333 64.0931 o
179.915 97.7918 o
183.325 64.0931 o
184.333 97.7918 o
188.674 64.0931 o
189.255 64.0931 o
189.604 64.0931 o
189.72 64.0931 o
191.077 64.0931 o
191.309 64.0931 o
193.945 64.0931 o
195.999 64.0931 o
201.348 64.0931 o
205.34 64.0931 o
205.921 64.0931 o
207.161 64.0931 o
209.681 64.0931 o
213.324 64.0931 o
218.672 64.0931 o
221.075 64.0931 o
222.238 64.0931 o
226.347 64.0931 o
228.711 64.0931 o
242.857 64.0931 o
253.245 64.0931 o
263.399 64.0931 o
264.678 64.0931 o
266.384 64.0931 o
278.825 64.0931 o
279.135 64.0931 o
280.298 64.0931 o
299.25 64.0931 o
316.11 64.0931 o
330.606 64.0931 o
402.153 64.0931 o
grestore
gsave
276.5 251.5 138.2 52.66 clipbox
161.271925 292.697766 m
162.434665 161.54608 l
163.636162 161.54608 l
164.798901 95.970237 l
167.163137 227.121923 l
169.488616 292.697766 l
170.690113 292.697766 l
171.852852 227.121923 l
173.015591 95.970237 l
174.217088 95.970237 l
175.379828 161.54608 l
177.744064 227.121923 l
178.906803 227.121923 l
182.433779 161.54608 l
183.596518 161.54608 l
184.798015 227.121923 l
185.960754 95.970237 l
187.123493 227.121923 l
188.324991 95.970237 l
189.48773 95.970237 l
191.851966 95.970237 l
194.177444 95.970237 l
196.541681 95.970237 l
198.905917 95.970237 l
203.595632 161.54608 l
205.959868 95.970237 l
210.649583 161.54608 l
214.176558 95.970237 l
215.339298 95.970237 l
220.06777 95.970237 l
221.23051 95.970237 l
234.136915 95.970237 l
238.865387 95.970237 l
245.919338 95.970237 l
260.02724 95.970237 l
261.18998 95.970237 l
269.40667 95.970237 l
275.297882 95.970237 l
277.662118 95.970237 l
279.987597 95.970237 l
281.189094 95.970237 l
297.622474 95.970237 l
305.877922 95.970237 l
362.309531 95.970237 l
364.635009 95.970237 l
366.999246 95.970237 l
grestore
0 setlinejoin
1.000 0.498 0.055 setrgbcolor
gsave
276.5 251.5 138.2 52.66 clipbox
/o {
gsave
newpath
translate
1.0 setlinewidth
0 setlinejoin
0 setlinecap
-3 -6 m
0 -3 l
3 -6 l
6 -3 l
3 0 l
6 3 l
3 6 l
0 3 l
-3 6 l
-6 3 l
-3 0 l
-6 -3 l
cl

gsave
1.000 0.498 0.055 setrgbcolor
fill
grestore
stroke
grestore
} bind def
161.272 292.698 o
162.435 161.546 o
163.636 161.546 o
164.799 95.9702 o
167.163 227.122 o
169.489 292.698 o
170.69 292.698 o
171.853 227.122 o
173.016 95.9702 o
174.217 95.9702 o
175.38 161.546 o
177.744 227.122 o
178.907 227.122 o
182.434 161.546 o
183.597 161.546 o
184.798 227.122 o
185.961 95.9702 o
187.123 227.122 o
188.325 95.9702 o
189.488 95.9702 o
191.852 95.9702 o
194.177 95.9702 o
196.542 95.9702 o
198.906 95.9702 o
203.596 161.546 o
205.96 95.9702 o
210.65 161.546 o
214.177 95.9702 o
215.339 95.9702 o
220.068 95.9702 o
221.231 95.9702 o
234.137 95.9702 o
238.865 95.9702 o
245.919 95.9702 o
260.027 95.9702 o
261.19 95.9702 o
269.407 95.9702 o
275.298 95.9702 o
277.662 95.9702 o
279.988 95.9702 o
281.189 95.9702 o
297.622 95.9702 o
305.878 95.9702 o
362.31 95.9702 o
364.635 95.9702 o
366.999 95.9702 o
grestore
0.800 setlinewidth
2 setlinecap
[] 0 setdash
0.000 setgray
gsave
138.24 52.662857 m
138.24 304.128 l
stroke
grestore
gsave
414.72 52.662857 m
414.72 304.128 l
stroke
grestore
gsave
138.24 52.662857 m
414.72 52.662857 l
stroke
grestore
gsave
138.24 304.128 m
414.72 304.128 l
stroke
grestore
1.000 setlinewidth
0 setlinecap
0.800 setgray
gsave
262.641875 229.40925 m
400.72 229.40925 l
403.386667 229.40925 404.72 230.742583 404.72 233.40925 c
404.72 290.128 l
404.72 292.794667 403.386667 294.128 400.72 294.128 c
262.641875 294.128 l
259.975208 294.128 258.641875 292.794667 258.641875 290.128 c
258.641875 233.40925 l
258.641875 230.742583 259.975208 229.40925 262.641875 229.40925 c
cl
gsave
1.000 setgray
fill
grestore
stroke
grestore
gsave
266.641875 277.924875 m
306.641875 277.924875 l
grestore
1 setlinejoin
[] 0 setdash
0.122 0.467 0.706 setrgbcolor
gsave
/o {
gsave
newpath
translate
1.0 setlinewidth
1 setlinejoin
0 setlinecap
0 -6 m
1.591219 -6 3.117479 -5.367802 4.242641 -4.242641 c
5.367802 -3.117479 6 -1.591219 6 0 c
6 1.591219 5.367802 3.117479 4.242641 4.242641 c
3.117479 5.367802 1.591219 6 0 6 c
-1.591219 6 -3.117479 5.367802 -4.242641 4.242641 c
-5.367802 3.117479 -6 1.591219 -6 0 c
-6 -1.591219 -5.367802 -3.117479 -4.242641 -4.242641 c
-3.117479 -5.367802 -1.591219 -6 0 -6 c
cl

gsave
0.122 0.467 0.706 setrgbcolor
fill
grestore
stroke
grestore
} bind def
286.642 277.925 o
grestore
0.000 setgray
gsave
322.641875 270.924875 translate
0.000000 rotate
0.000000 0.000000 m /S glyphshow
12.695312 0.000000 m /y glyphshow
24.531250 0.000000 m /d glyphshow
37.226562 0.000000 m /n glyphshow
49.902344 0.000000 m /e glyphshow
62.207031 0.000000 m /y glyphshow
grestore
gsave
266.641875 248.5655 m
306.641875 248.5655 l
grestore
0 setlinejoin
1.000 0.498 0.055 setrgbcolor
gsave
/o {
gsave
newpath
translate
1.0 setlinewidth
0 setlinejoin
0 setlinecap
-3 -6 m
0 -3 l
3 -6 l
6 -3 l
3 0 l
6 3 l
3 6 l
0 3 l
-3 6 l
-6 3 l
-3 0 l
-6 -3 l
cl

gsave
1.000 0.498 0.055 setrgbcolor
fill
grestore
stroke
grestore
} bind def
286.642 248.565 o
grestore
0.000 setgray
gsave
322.641875 241.565500 translate
0.000000 rotate
0.000000 0.000000 m /D glyphshow
15.400391 0.000000 m /u glyphshow
28.076172 0.000000 m /b glyphshow
40.771484 0.000000 m /l glyphshow
46.328125 0.000000 m /i glyphshow
51.884766 0.000000 m /n glyphshow
grestore

end
showpage
