%!PS-Adobe-3.0 EPSF-3.0
%%BoundingBox: 119 204 508 553
%%HiResBoundingBox: 119.310 204.162 507.590 552.791
%%Title: /media/sf_OneDrive/Research/projects/squark/squark/latex/vldb19/eps/frequencyvstime.eps
%%Creator: matplotlib version 2.0.0, http://matplotlib.org/
%%CreationDate: Fri Apr 13 11:10:33 2018
%%Orientation: portrait
%%EndComments
%%BeginProlog
/mpldict 9 dict def
mpldict begin
/m { moveto } bind def
/l { lineto } bind def
/r { rlineto } bind def
/c { curveto } bind def
/cl { closepath } bind def
/box {
m
1 index 0 r
0 exch r
neg 0 r
cl
} bind def
/clipbox {
box
clip
newpath
} bind def
%!PS-Adobe-3.0 Resource-Font
%%Title: DejaVu Sans Oblique
%%Copyright: Copyright (c) 2003 by Bitstream, Inc. All Rights Reserved. Copyright (c) 2006 by Tavmjong Bah. All Rights Reserved. DejaVu changes are in public domain 
%%Creator: Converted from TrueType to type 3 by PPR
25 dict begin
/_d{bind def}bind def
/_m{moveto}_d
/_l{lineto}_d
/_cl{closepath eofill}_d
/_c{curveto}_d
/_sc{7 -1 roll{setcachedevice}{pop pop pop pop pop pop}ifelse}_d
/_e{exec}_d
/FontName /DejaVuSans-Oblique def
/PaintType 0 def
/FontMatrix[.001 0 0 .001 0 0]def
/FontBBox[-1016 -350 1659 1068]def
/FontType 3 def
/Encoding [ /epsilon ] def
/FontInfo 10 dict dup begin
/FamilyName (DejaVu Sans) def
/FullName (DejaVu Sans Oblique) def
/Notice (Copyright (c) 2003 by Bitstream, Inc. All Rights Reserved. Copyright (c) 2006 by Tavmjong Bah. All Rights Reserved. DejaVu changes are in public domain ) def
/Weight (Oblique) def
/Version (Version 2.35) def
/ItalicAngle -11.0 def
/isFixedPitch false def
/UnderlinePosition -130 def
/UnderlineThickness 90 def
end readonly def
/CharStrings 1 dict dup begin
/epsilon{{541 0 39 -13 506 561 _sc
197 295 _m
162 303 137 317 122 338 _c
110 353 104 371 104 391 _c
104 446 130 490 184 522 _c
225 548 278 561 342 561 _c
366 561 392 559 419 555 _c
446 551 475 545 505 537 _c
490 456 _l
460 465 432 472 407 476 _c
381 480 357 482 334 482 _c
295 482 263 474 238 460 _c
207 442 192 420 192 394 _c
192 376 200 362 216 350 _c
234 336 263 329 301 329 _c
}_e{376 329 _l
362 254 _l
290 254 _l
245 254 209 245 183 229 _c
147 207 129 178 129 143 _c
129 121 138 102 158 88 _c
182 70 218 61 268 61 _c
298 61 327 63 357 69 _c
385 75 412 85 438 97 _c
422 13 _l
390 4 361 -2 333 -6 _c
305 -10 277 -13 251 -13 _c
173 -13 117 1 81 30 _c
53 52 39 83 39 122 _c
39 174 57 216 94 248 _c
120 271 155 287 197 295 _c
_cl}_e}_d
end readonly def

/BuildGlyph
 {exch begin
 CharStrings exch
 2 copy known not{pop /.notdef}if
 true 3 1 roll get exec
 end}_d

/BuildChar {
 1 index /Encoding get exch get
 1 index /BuildGlyph get exec
}_d

FontName currentdict end definefont pop
%!PS-Adobe-3.0 Resource-Font
%%Title: DejaVu Sans
%%Copyright: Copyright (c) 2003 by Bitstream, Inc. All Rights Reserved. Copyright (c) 2006 by Tavmjong Bah. All Rights Reserved. DejaVu changes are in public domain 
%%Creator: Converted from TrueType to type 3 by PPR
25 dict begin
/_d{bind def}bind def
/_m{moveto}_d
/_l{lineto}_d
/_cl{closepath eofill}_d
/_c{curveto}_d
/_sc{7 -1 roll{setcachedevice}{pop pop pop pop pop pop}ifelse}_d
/_e{exec}_d
/FontName /DejaVuSans def
/PaintType 0 def
/FontMatrix[.001 0 0 .001 0 0]def
/FontBBox[-1021 -463 1793 1232]def
/FontType 3 def
/Encoding [ /space /parenleft /parenright /hyphen /period /zero /one /two /three /four /five /six /seven /eight /nine /equal /K /L /Q /S /c /d /e /f /g /i /l /m /n /o /p /q /r /s /t /u /w /y ] def
/FontInfo 10 dict dup begin
/FamilyName (DejaVu Sans) def
/FullName (DejaVu Sans) def
/Notice (Copyright (c) 2003 by Bitstream, Inc. All Rights Reserved. Copyright (c) 2006 by Tavmjong Bah. All Rights Reserved. DejaVu changes are in public domain ) def
/Weight (Book) def
/Version (Version 2.35) def
/ItalicAngle 0.0 def
/isFixedPitch false def
/UnderlinePosition -130 def
/UnderlineThickness 90 def
end readonly def
/CharStrings 38 dict dup begin
/space{318 0 0 0 0 0 _sc
}_d
/parenleft{390 0 86 -131 310 759 _sc
310 759 _m
266 683 234 609 213 536 _c
191 463 181 389 181 314 _c
181 238 191 164 213 91 _c
234 17 266 -56 310 -131 _c
232 -131 _l
183 -54 146 20 122 94 _c
98 168 86 241 86 314 _c
86 386 98 459 122 533 _c
146 607 182 682 232 759 _c
310 759 _l
_cl}_d
/parenright{390 0 80 -131 304 759 _sc
80 759 _m
158 759 _l
206 682 243 607 267 533 _c
291 459 304 386 304 314 _c
304 241 291 168 267 94 _c
243 20 206 -54 158 -131 _c
80 -131 _l
123 -56 155 17 177 91 _c
198 164 209 238 209 314 _c
209 389 198 463 177 536 _c
155 609 123 683 80 759 _c
_cl}_d
/hyphen{361 0 49 234 312 314 _sc
49 314 _m
312 314 _l
312 234 _l
49 234 _l
49 314 _l
_cl}_d
/period{318 0 107 0 210 124 _sc
107 124 _m
210 124 _l
210 0 _l
107 0 _l
107 124 _l
_cl}_d
/zero{636 0 66 -13 570 742 _sc
318 664 _m
267 664 229 639 203 589 _c
177 539 165 464 165 364 _c
165 264 177 189 203 139 _c
229 89 267 64 318 64 _c
369 64 407 89 433 139 _c
458 189 471 264 471 364 _c
471 464 458 539 433 589 _c
407 639 369 664 318 664 _c
318 742 _m
399 742 461 709 505 645 _c
548 580 570 486 570 364 _c
570 241 548 147 505 83 _c
461 19 399 -13 318 -13 _c
236 -13 173 19 130 83 _c
87 147 66 241 66 364 _c
66 486 87 580 130 645 _c
173 709 236 742 318 742 _c
_cl}_d
/one{636 0 110 0 544 729 _sc
124 83 _m
285 83 _l
285 639 _l
110 604 _l
110 694 _l
284 729 _l
383 729 _l
383 83 _l
544 83 _l
544 0 _l
124 0 _l
124 83 _l
_cl}_d
/two{{636 0 73 0 536 742 _sc
192 83 _m
536 83 _l
536 0 _l
73 0 _l
73 83 _l
110 121 161 173 226 239 _c
290 304 331 346 348 365 _c
380 400 402 430 414 455 _c
426 479 433 504 433 528 _c
433 566 419 598 392 622 _c
365 646 330 659 286 659 _c
255 659 222 653 188 643 _c
154 632 117 616 78 594 _c
78 694 _l
118 710 155 722 189 730 _c
223 738 255 742 284 742 _c
}_e{359 742 419 723 464 685 _c
509 647 532 597 532 534 _c
532 504 526 475 515 449 _c
504 422 484 390 454 354 _c
446 344 420 317 376 272 _c
332 227 271 164 192 83 _c
_cl}_e}_d
/three{{636 0 76 -13 556 742 _sc
406 393 _m
453 383 490 362 516 330 _c
542 298 556 258 556 212 _c
556 140 531 84 482 45 _c
432 6 362 -13 271 -13 _c
240 -13 208 -10 176 -4 _c
144 1 110 10 76 22 _c
76 117 _l
103 101 133 89 166 81 _c
198 73 232 69 268 69 _c
330 69 377 81 409 105 _c
441 129 458 165 458 212 _c
458 254 443 288 413 312 _c
383 336 341 349 287 349 _c
}_e{202 349 _l
202 430 _l
291 430 _l
339 430 376 439 402 459 _c
428 478 441 506 441 543 _c
441 580 427 609 401 629 _c
374 649 336 659 287 659 _c
260 659 231 656 200 650 _c
169 644 135 635 98 623 _c
98 711 _l
135 721 170 729 203 734 _c
235 739 266 742 296 742 _c
370 742 429 725 473 691 _c
517 657 539 611 539 553 _c
539 513 527 479 504 451 _c
481 423 448 403 406 393 _c
_cl}_e}_d
/four{636 0 49 0 580 729 _sc
378 643 _m
129 254 _l
378 254 _l
378 643 _l
352 729 _m
476 729 _l
476 254 _l
580 254 _l
580 172 _l
476 172 _l
476 0 _l
378 0 _l
378 172 _l
49 172 _l
49 267 _l
352 729 _l
_cl}_d
/five{{636 0 77 -13 549 729 _sc
108 729 _m
495 729 _l
495 646 _l
198 646 _l
198 467 _l
212 472 227 476 241 478 _c
255 480 270 482 284 482 _c
365 482 429 459 477 415 _c
525 370 549 310 549 234 _c
549 155 524 94 475 51 _c
426 8 357 -13 269 -13 _c
238 -13 207 -10 175 -6 _c
143 -1 111 6 77 17 _c
77 116 _l
106 100 136 88 168 80 _c
199 72 232 69 267 69 _c
}_e{323 69 368 83 401 113 _c
433 143 450 183 450 234 _c
450 284 433 324 401 354 _c
368 384 323 399 267 399 _c
241 399 214 396 188 390 _c
162 384 135 375 108 363 _c
108 729 _l
_cl}_e}_d
/six{{636 0 70 -13 573 742 _sc
330 404 _m
286 404 251 388 225 358 _c
199 328 186 286 186 234 _c
186 181 199 139 225 109 _c
251 79 286 64 330 64 _c
374 64 409 79 435 109 _c
461 139 474 181 474 234 _c
474 286 461 328 435 358 _c
409 388 374 404 330 404 _c
526 713 _m
526 623 _l
501 635 476 644 451 650 _c
425 656 400 659 376 659 _c
310 659 260 637 226 593 _c
}_e{192 549 172 482 168 394 _c
187 422 211 444 240 459 _c
269 474 301 482 336 482 _c
409 482 467 459 509 415 _c
551 371 573 310 573 234 _c
573 159 550 99 506 54 _c
462 9 403 -13 330 -13 _c
246 -13 181 19 137 83 _c
92 147 70 241 70 364 _c
70 479 97 571 152 639 _c
206 707 280 742 372 742 _c
396 742 421 739 447 735 _c
472 730 498 723 526 713 _c
_cl}_e}_d
/seven{636 0 82 0 551 729 _sc
82 729 _m
551 729 _l
551 687 _l
286 0 _l
183 0 _l
432 646 _l
82 646 _l
82 729 _l
_cl}_d
/eight{{636 0 68 -13 568 742 _sc
318 346 _m
271 346 234 333 207 308 _c
180 283 167 249 167 205 _c
167 161 180 126 207 101 _c
234 76 271 64 318 64 _c
364 64 401 76 428 102 _c
455 127 469 161 469 205 _c
469 249 455 283 429 308 _c
402 333 365 346 318 346 _c
219 388 _m
177 398 144 418 120 447 _c
96 476 85 511 85 553 _c
85 611 105 657 147 691 _c
188 725 245 742 318 742 _c
}_e{390 742 447 725 489 691 _c
530 657 551 611 551 553 _c
551 511 539 476 515 447 _c
491 418 459 398 417 388 _c
464 377 501 355 528 323 _c
554 291 568 251 568 205 _c
568 134 546 80 503 43 _c
459 5 398 -13 318 -13 _c
237 -13 175 5 132 43 _c
89 80 68 134 68 205 _c
68 251 81 291 108 323 _c
134 355 171 377 219 388 _c
183 544 _m
183 506 194 476 218 455 _c
}_e{242 434 275 424 318 424 _c
360 424 393 434 417 455 _c
441 476 453 506 453 544 _c
453 582 441 611 417 632 _c
393 653 360 664 318 664 _c
275 664 242 653 218 632 _c
194 611 183 582 183 544 _c
_cl}_e}_d
/nine{{636 0 63 -13 566 742 _sc
110 15 _m
110 105 _l
134 93 159 84 185 78 _c
210 72 235 69 260 69 _c
324 69 374 90 408 134 _c
442 178 462 244 468 334 _c
448 306 424 284 396 269 _c
367 254 335 247 300 247 _c
226 247 168 269 126 313 _c
84 357 63 417 63 494 _c
63 568 85 628 129 674 _c
173 719 232 742 306 742 _c
390 742 455 709 499 645 _c
543 580 566 486 566 364 _c
}_e{566 248 538 157 484 89 _c
429 21 356 -13 264 -13 _c
239 -13 214 -10 189 -6 _c
163 -2 137 5 110 15 _c
306 324 _m
350 324 385 339 411 369 _c
437 399 450 441 450 494 _c
450 546 437 588 411 618 _c
385 648 350 664 306 664 _c
262 664 227 648 201 618 _c
175 588 162 546 162 494 _c
162 441 175 399 201 369 _c
227 339 262 324 306 324 _c
_cl}_e}_d
/equal{838 0 106 172 732 454 _sc
106 454 _m
732 454 _l
732 372 _l
106 372 _l
106 454 _l
106 255 _m
732 255 _l
732 172 _l
106 172 _l
106 255 _l
_cl}_d
/K{656 0 98 0 677 729 _sc
98 729 _m
197 729 _l
197 421 _l
524 729 _l
651 729 _l
289 389 _l
677 0 _l
547 0 _l
197 351 _l
197 0 _l
98 0 _l
98 729 _l
_cl}_d
/L{557 0 98 0 552 729 _sc
98 729 _m
197 729 _l
197 83 _l
552 83 _l
552 0 _l
98 0 _l
98 729 _l
_cl}_d
/Q{{787 0 56 -128 731 742 _sc
394 662 _m
322 662 265 635 223 582 _c
181 528 160 456 160 364 _c
160 272 181 199 223 146 _c
265 92 322 66 394 66 _c
465 66 522 92 564 146 _c
606 199 627 272 627 364 _c
627 456 606 528 564 582 _c
522 635 465 662 394 662 _c
532 13 _m
662 -128 _l
543 -128 _l
435 -11 _l
424 -11 416 -12 410 -12 _c
404 -12 399 -13 394 -13 _c
291 -13 209 21 148 89 _c
}_e{86 157 56 248 56 364 _c
56 479 86 571 148 639 _c
209 707 291 742 394 742 _c
496 742 577 707 639 639 _c
700 571 731 479 731 364 _c
731 279 714 206 680 146 _c
646 86 596 41 532 13 _c
_cl}_e}_d
/S{{635 0 66 -13 579 742 _sc
535 705 _m
535 609 _l
497 627 462 640 429 649 _c
395 657 363 662 333 662 _c
279 662 237 651 208 631 _c
179 610 165 580 165 542 _c
165 510 174 485 194 469 _c
213 452 250 439 304 429 _c
364 417 _l
437 403 491 378 526 343 _c
561 307 579 260 579 201 _c
579 130 555 77 508 41 _c
460 5 391 -13 300 -13 _c
265 -13 228 -9 189 -2 _c
}_e{150 5 110 16 69 32 _c
69 134 _l
109 111 148 94 186 83 _c
224 71 262 66 300 66 _c
356 66 399 77 430 99 _c
460 121 476 152 476 194 _c
476 230 465 258 443 278 _c
421 298 385 313 335 323 _c
275 335 _l
201 349 148 372 115 404 _c
82 435 66 478 66 534 _c
66 598 88 649 134 686 _c
179 723 242 742 322 742 _c
356 742 390 739 426 733 _c
461 727 497 717 535 705 _c
}_e{_cl}_e}_d
/c{{550 0 55 -13 488 560 _sc
488 526 _m
488 442 _l
462 456 437 466 411 473 _c
385 480 360 484 334 484 _c
276 484 230 465 198 428 _c
166 391 150 339 150 273 _c
150 206 166 154 198 117 _c
230 80 276 62 334 62 _c
360 62 385 65 411 72 _c
437 79 462 90 488 104 _c
488 21 _l
462 9 436 0 410 -5 _c
383 -10 354 -13 324 -13 _c
242 -13 176 12 128 64 _c
}_e{79 115 55 185 55 273 _c
55 362 79 432 128 483 _c
177 534 244 560 330 560 _c
358 560 385 557 411 551 _c
437 545 463 537 488 526 _c
_cl}_e}_d
/d{{635 0 55 -13 544 760 _sc
454 464 _m
454 760 _l
544 760 _l
544 0 _l
454 0 _l
454 82 _l
435 49 411 25 382 10 _c
353 -5 319 -13 279 -13 _c
213 -13 159 13 117 65 _c
75 117 55 187 55 273 _c
55 359 75 428 117 481 _c
159 533 213 560 279 560 _c
319 560 353 552 382 536 _c
411 520 435 496 454 464 _c
148 273 _m
148 207 161 155 188 117 _c
215 79 253 61 301 61 _c
}_e{348 61 385 79 413 117 _c
440 155 454 207 454 273 _c
454 339 440 390 413 428 _c
385 466 348 485 301 485 _c
253 485 215 466 188 428 _c
161 390 148 339 148 273 _c
_cl}_e}_d
/e{{615 0 55 -13 562 560 _sc
562 296 _m
562 252 _l
149 252 _l
153 190 171 142 205 110 _c
238 78 284 62 344 62 _c
378 62 412 66 444 74 _c
476 82 509 95 541 113 _c
541 28 _l
509 14 476 3 442 -3 _c
408 -9 373 -13 339 -13 _c
251 -13 182 12 131 62 _c
80 112 55 181 55 268 _c
55 357 79 428 127 481 _c
175 533 241 560 323 560 _c
397 560 455 536 498 489 _c
}_e{540 441 562 377 562 296 _c
472 322 _m
471 371 457 410 431 440 _c
404 469 368 484 324 484 _c
274 484 234 469 204 441 _c
174 413 156 373 152 322 _c
472 322 _l
_cl}_e}_d
/f{352 0 23 0 371 760 _sc
371 760 _m
371 685 _l
285 685 _l
253 685 230 678 218 665 _c
205 652 199 629 199 595 _c
199 547 _l
347 547 _l
347 477 _l
199 477 _l
199 0 _l
109 0 _l
109 477 _l
23 477 _l
23 547 _l
109 547 _l
109 585 _l
109 645 123 690 151 718 _c
179 746 224 760 286 760 _c
371 760 _l
_cl}_d
/g{{635 0 55 -207 544 560 _sc
454 280 _m
454 344 440 395 414 431 _c
387 467 349 485 301 485 _c
253 485 215 467 188 431 _c
161 395 148 344 148 280 _c
148 215 161 165 188 129 _c
215 93 253 75 301 75 _c
349 75 387 93 414 129 _c
440 165 454 215 454 280 _c
544 68 _m
544 -24 523 -93 482 -139 _c
440 -184 377 -207 292 -207 _c
260 -207 231 -204 203 -200 _c
175 -195 147 -188 121 -178 _c
}_e{121 -91 _l
147 -105 173 -115 199 -122 _c
225 -129 251 -133 278 -133 _c
336 -133 380 -117 410 -87 _c
439 -56 454 -10 454 52 _c
454 96 _l
435 64 411 40 382 24 _c
353 8 319 0 279 0 _c
211 0 157 25 116 76 _c
75 127 55 195 55 280 _c
55 364 75 432 116 483 _c
157 534 211 560 279 560 _c
319 560 353 552 382 536 _c
411 520 435 496 454 464 _c
454 547 _l
544 547 _l
}_e{544 68 _l
_cl}_e}_d
/i{278 0 94 0 184 760 _sc
94 547 _m
184 547 _l
184 0 _l
94 0 _l
94 547 _l
94 760 _m
184 760 _l
184 646 _l
94 646 _l
94 760 _l
_cl}_d
/l{278 0 94 0 184 760 _sc
94 760 _m
184 760 _l
184 0 _l
94 0 _l
94 760 _l
_cl}_d
/m{{974 0 91 0 889 560 _sc
520 442 _m
542 482 569 511 600 531 _c
631 550 668 560 711 560 _c
767 560 811 540 842 500 _c
873 460 889 403 889 330 _c
889 0 _l
799 0 _l
799 327 _l
799 379 789 418 771 444 _c
752 469 724 482 686 482 _c
639 482 602 466 575 435 _c
548 404 535 362 535 309 _c
535 0 _l
445 0 _l
445 327 _l
445 379 435 418 417 444 _c
398 469 369 482 331 482 _c
}_e{285 482 248 466 221 435 _c
194 404 181 362 181 309 _c
181 0 _l
91 0 _l
91 547 _l
181 547 _l
181 462 _l
201 495 226 520 255 536 _c
283 552 317 560 357 560 _c
397 560 430 550 458 530 _c
486 510 506 480 520 442 _c
_cl}_e}_d
/n{634 0 91 0 549 560 _sc
549 330 _m
549 0 _l
459 0 _l
459 327 _l
459 379 448 417 428 443 _c
408 469 378 482 338 482 _c
289 482 251 466 223 435 _c
195 404 181 362 181 309 _c
181 0 _l
91 0 _l
91 547 _l
181 547 _l
181 462 _l
202 494 227 519 257 535 _c
286 551 320 560 358 560 _c
420 560 468 540 500 501 _c
532 462 549 405 549 330 _c
_cl}_d
/o{612 0 55 -13 557 560 _sc
306 484 _m
258 484 220 465 192 427 _c
164 389 150 338 150 273 _c
150 207 163 156 191 118 _c
219 80 257 62 306 62 _c
354 62 392 80 420 118 _c
448 156 462 207 462 273 _c
462 337 448 389 420 427 _c
392 465 354 484 306 484 _c
306 560 _m
384 560 445 534 490 484 _c
534 433 557 363 557 273 _c
557 183 534 113 490 63 _c
445 12 384 -13 306 -13 _c
227 -13 165 12 121 63 _c
77 113 55 183 55 273 _c
55 363 77 433 121 484 _c
165 534 227 560 306 560 _c
_cl}_d
/p{{635 0 91 -207 580 560 _sc
181 82 _m
181 -207 _l
91 -207 _l
91 547 _l
181 547 _l
181 464 _l
199 496 223 520 252 536 _c
281 552 316 560 356 560 _c
422 560 476 533 518 481 _c
559 428 580 359 580 273 _c
580 187 559 117 518 65 _c
476 13 422 -13 356 -13 _c
316 -13 281 -5 252 10 _c
223 25 199 49 181 82 _c
487 273 _m
487 339 473 390 446 428 _c
418 466 381 485 334 485 _c
}_e{286 485 249 466 222 428 _c
194 390 181 339 181 273 _c
181 207 194 155 222 117 _c
249 79 286 61 334 61 _c
381 61 418 79 446 117 _c
473 155 487 207 487 273 _c
_cl}_e}_d
/q{{635 0 55 -207 544 560 _sc
148 273 _m
148 207 161 155 188 117 _c
215 79 253 61 301 61 _c
348 61 385 79 413 117 _c
440 155 454 207 454 273 _c
454 339 440 390 413 428 _c
385 466 348 485 301 485 _c
253 485 215 466 188 428 _c
161 390 148 339 148 273 _c
454 82 _m
435 49 411 25 382 10 _c
353 -5 319 -13 279 -13 _c
213 -13 159 13 117 65 _c
75 117 55 187 55 273 _c
}_e{55 359 75 428 117 481 _c
159 533 213 560 279 560 _c
319 560 353 552 382 536 _c
411 520 435 496 454 464 _c
454 547 _l
544 547 _l
544 -207 _l
454 -207 _l
454 82 _l
_cl}_e}_d
/r{411 0 91 0 411 560 _sc
411 463 _m
401 469 390 473 378 476 _c
366 478 353 480 339 480 _c
288 480 249 463 222 430 _c
194 397 181 350 181 288 _c
181 0 _l
91 0 _l
91 547 _l
181 547 _l
181 462 _l
199 495 224 520 254 536 _c
284 552 321 560 365 560 _c
371 560 378 559 386 559 _c
393 558 401 557 411 555 _c
411 463 _l
_cl}_d
/s{{521 0 54 -13 472 560 _sc
443 531 _m
443 446 _l
417 458 391 468 364 475 _c
336 481 308 485 279 485 _c
234 485 200 478 178 464 _c
156 450 145 430 145 403 _c
145 382 153 366 169 354 _c
185 342 217 330 265 320 _c
296 313 _l
360 299 405 279 432 255 _c
458 230 472 195 472 151 _c
472 100 452 60 412 31 _c
372 1 316 -13 246 -13 _c
216 -13 186 -10 154 -5 _c
}_e{122 0 89 8 54 20 _c
54 113 _l
87 95 120 82 152 74 _c
184 65 216 61 248 61 _c
290 61 323 68 346 82 _c
368 96 380 117 380 144 _c
380 168 371 187 355 200 _c
339 213 303 226 247 238 _c
216 245 _l
160 257 119 275 95 299 _c
70 323 58 356 58 399 _c
58 450 76 490 112 518 _c
148 546 200 560 268 560 _c
301 560 332 557 362 552 _c
391 547 418 540 443 531 _c
}_e{_cl}_e}_d
/t{392 0 27 0 368 702 _sc
183 702 _m
183 547 _l
368 547 _l
368 477 _l
183 477 _l
183 180 _l
183 135 189 106 201 94 _c
213 81 238 75 276 75 _c
368 75 _l
368 0 _l
276 0 _l
206 0 158 13 132 39 _c
106 65 93 112 93 180 _c
93 477 _l
27 477 _l
27 547 _l
93 547 _l
93 702 _l
183 702 _l
_cl}_d
/u{634 0 85 -13 543 560 _sc
85 216 _m
85 547 _l
175 547 _l
175 219 _l
175 167 185 129 205 103 _c
225 77 255 64 296 64 _c
344 64 383 79 411 110 _c
439 141 453 183 453 237 _c
453 547 _l
543 547 _l
543 0 _l
453 0 _l
453 84 _l
431 50 405 26 377 10 _c
348 -5 315 -13 277 -13 _c
214 -13 166 6 134 45 _c
101 83 85 140 85 216 _c
311 560 _m
311 560 _l
_cl}_d
/w{818 0 42 0 776 547 _sc
42 547 _m
132 547 _l
244 120 _l
356 547 _l
462 547 _l
574 120 _l
686 547 _l
776 547 _l
633 0 _l
527 0 _l
409 448 _l
291 0 _l
185 0 _l
42 547 _l
_cl}_d
/y{592 0 30 -207 562 547 _sc
322 -50 _m
296 -114 271 -157 247 -177 _c
223 -197 191 -207 151 -207 _c
79 -207 _l
79 -132 _l
132 -132 _l
156 -132 175 -126 189 -114 _c
203 -102 218 -75 235 -31 _c
251 9 _l
30 547 _l
125 547 _l
296 119 _l
467 547 _l
562 547 _l
322 -50 _l
_cl}_d
end readonly def

/BuildGlyph
 {exch begin
 CharStrings exch
 2 copy known not{pop /.notdef}if
 true 3 1 roll get exec
 end}_d

/BuildChar {
 1 index /Encoding get exch get
 1 index /BuildGlyph get exec
}_d

FontName currentdict end definefont pop
end
%%EndProlog
mpldict begin
54.72 190.44 translate
502.56 411.12 0 0 clipbox
gsave
0 0 m
502.56 0 l
502.56 411.12 l
0 411.12 l
cl
1.000 setgray
fill
grestore
gsave
107.691429 75.372 m
452.304 75.372 l
452.304 361.7856 l
107.691429 361.7856 l
cl
1.000 setgray
fill
grestore
0.800 setlinewidth
1 setlinejoin
2 setlinecap
[] 0 setdash
0.690 setgray
gsave
344.6 286.4 107.7 75.37 clipbox
107.691429 75.372 m
107.691429 361.7856 l
stroke
grestore
0 setlinecap
0.000 setgray
gsave
/o {
gsave
newpath
translate
0.8 setlinewidth
1 setlinejoin
0 setlinecap
0 0 m
0 -3.5 l

gsave
0.000 setgray
fill
grestore
stroke
grestore
} bind def
107.691 75.372 o
grestore
2 setlinecap
0.690 setgray
gsave
344.6 286.4 107.7 75.37 clipbox
140.668708 75.372 m
140.668708 361.7856 l
stroke
grestore
0 setlinecap
0.000 setgray
gsave
/o {
gsave
newpath
translate
0.8 setlinewidth
1 setlinejoin
0 setlinecap
0 0 m
0 -3.5 l

gsave
0.000 setgray
fill
grestore
stroke
grestore
} bind def
140.669 75.372 o
grestore
/DejaVuSans findfont
15.000 scalefont
setfont
gsave
123.645271 56.981375 translate
0.000000 rotate
0.000000 0.000000 m /one glyphshow
9.543457 0.000000 m /zero glyphshow
19.086914 0.000000 m /zero glyphshow
28.630371 0.000000 m /hyphen glyphshow
grestore
gsave
131.121833 40.187625 translate
0.000000 rotate
0.000000 0.000000 m /nine glyphshow
9.543457 0.000000 m /zero glyphshow
grestore
2 setlinecap
0.690 setgray
gsave
344.6 286.4 107.7 75.37 clipbox
173.645988 75.372 m
173.645988 361.7856 l
stroke
grestore
0 setlinecap
0.000 setgray
gsave
/o {
gsave
newpath
translate
0.8 setlinewidth
1 setlinejoin
0 setlinecap
0 0 m
0 -3.5 l

gsave
0.000 setgray
fill
grestore
stroke
grestore
} bind def
173.646 75.372 o
grestore
gsave
161.395988 56.981375 translate
0.000000 rotate
0.000000 0.000000 m /nine glyphshow
9.543457 0.000000 m /zero glyphshow
19.086914 0.000000 m /hyphen glyphshow
grestore
gsave
164.099113 40.187625 translate
0.000000 rotate
0.000000 0.000000 m /eight glyphshow
9.543457 0.000000 m /zero glyphshow
grestore
2 setlinecap
0.690 setgray
gsave
344.6 286.4 107.7 75.37 clipbox
206.623267 75.372 m
206.623267 361.7856 l
stroke
grestore
0 setlinecap
0.000 setgray
gsave
/o {
gsave
newpath
translate
0.8 setlinewidth
1 setlinejoin
0 setlinecap
0 0 m
0 -3.5 l

gsave
0.000 setgray
fill
grestore
stroke
grestore
} bind def
206.623 75.372 o
grestore
gsave
194.373267 56.981375 translate
0.000000 rotate
0.000000 0.000000 m /eight glyphshow
9.543457 0.000000 m /zero glyphshow
19.086914 0.000000 m /hyphen glyphshow
grestore
gsave
197.076392 40.187625 translate
0.000000 rotate
0.000000 0.000000 m /seven glyphshow
9.543457 0.000000 m /zero glyphshow
grestore
2 setlinecap
0.690 setgray
gsave
344.6 286.4 107.7 75.37 clipbox
239.600547 75.372 m
239.600547 361.7856 l
stroke
grestore
0 setlinecap
0.000 setgray
gsave
/o {
gsave
newpath
translate
0.8 setlinewidth
1 setlinejoin
0 setlinecap
0 0 m
0 -3.5 l

gsave
0.000 setgray
fill
grestore
stroke
grestore
} bind def
239.601 75.372 o
grestore
gsave
227.350547 56.981375 translate
0.000000 rotate
0.000000 0.000000 m /seven glyphshow
9.543457 0.000000 m /zero glyphshow
19.086914 0.000000 m /hyphen glyphshow
grestore
gsave
230.053672 40.187625 translate
0.000000 rotate
0.000000 0.000000 m /six glyphshow
9.543457 0.000000 m /zero glyphshow
grestore
2 setlinecap
0.690 setgray
gsave
344.6 286.4 107.7 75.37 clipbox
272.577826 75.372 m
272.577826 361.7856 l
stroke
grestore
0 setlinecap
0.000 setgray
gsave
/o {
gsave
newpath
translate
0.8 setlinewidth
1 setlinejoin
0 setlinecap
0 0 m
0 -3.5 l

gsave
0.000 setgray
fill
grestore
stroke
grestore
} bind def
272.578 75.372 o
grestore
gsave
260.327826 56.981375 translate
0.000000 rotate
0.000000 0.000000 m /six glyphshow
9.543457 0.000000 m /zero glyphshow
19.086914 0.000000 m /hyphen glyphshow
grestore
gsave
263.030951 40.187625 translate
0.000000 rotate
0.000000 0.000000 m /five glyphshow
9.543457 0.000000 m /zero glyphshow
grestore
2 setlinecap
0.690 setgray
gsave
344.6 286.4 107.7 75.37 clipbox
305.555106 75.372 m
305.555106 361.7856 l
stroke
grestore
0 setlinecap
0.000 setgray
gsave
/o {
gsave
newpath
translate
0.8 setlinewidth
1 setlinejoin
0 setlinecap
0 0 m
0 -3.5 l

gsave
0.000 setgray
fill
grestore
stroke
grestore
} bind def
305.555 75.372 o
grestore
gsave
293.305106 56.981375 translate
0.000000 rotate
0.000000 0.000000 m /five glyphshow
9.543457 0.000000 m /zero glyphshow
19.086914 0.000000 m /hyphen glyphshow
grestore
gsave
296.008231 40.187625 translate
0.000000 rotate
0.000000 0.000000 m /four glyphshow
9.543457 0.000000 m /zero glyphshow
grestore
2 setlinecap
0.690 setgray
gsave
344.6 286.4 107.7 75.37 clipbox
338.532386 75.372 m
338.532386 361.7856 l
stroke
grestore
0 setlinecap
0.000 setgray
gsave
/o {
gsave
newpath
translate
0.8 setlinewidth
1 setlinejoin
0 setlinecap
0 0 m
0 -3.5 l

gsave
0.000 setgray
fill
grestore
stroke
grestore
} bind def
338.532 75.372 o
grestore
gsave
326.282386 56.981375 translate
0.000000 rotate
0.000000 0.000000 m /four glyphshow
9.543457 0.000000 m /zero glyphshow
19.086914 0.000000 m /hyphen glyphshow
grestore
gsave
328.985511 40.187625 translate
0.000000 rotate
0.000000 0.000000 m /three glyphshow
9.543457 0.000000 m /zero glyphshow
grestore
2 setlinecap
0.690 setgray
gsave
344.6 286.4 107.7 75.37 clipbox
371.509665 75.372 m
371.509665 361.7856 l
stroke
grestore
0 setlinecap
0.000 setgray
gsave
/o {
gsave
newpath
translate
0.8 setlinewidth
1 setlinejoin
0 setlinecap
0 0 m
0 -3.5 l

gsave
0.000 setgray
fill
grestore
stroke
grestore
} bind def
371.51 75.372 o
grestore
gsave
359.259665 56.981375 translate
0.000000 rotate
0.000000 0.000000 m /three glyphshow
9.543457 0.000000 m /zero glyphshow
19.086914 0.000000 m /hyphen glyphshow
grestore
gsave
361.962790 40.187625 translate
0.000000 rotate
0.000000 0.000000 m /two glyphshow
9.543457 0.000000 m /zero glyphshow
grestore
2 setlinecap
0.690 setgray
gsave
344.6 286.4 107.7 75.37 clipbox
404.486945 75.372 m
404.486945 361.7856 l
stroke
grestore
0 setlinecap
0.000 setgray
gsave
/o {
gsave
newpath
translate
0.8 setlinewidth
1 setlinejoin
0 setlinecap
0 0 m
0 -3.5 l

gsave
0.000 setgray
fill
grestore
stroke
grestore
} bind def
404.487 75.372 o
grestore
gsave
392.236945 56.981375 translate
0.000000 rotate
0.000000 0.000000 m /two glyphshow
9.543457 0.000000 m /zero glyphshow
19.086914 0.000000 m /hyphen glyphshow
grestore
gsave
394.940070 40.187625 translate
0.000000 rotate
0.000000 0.000000 m /one glyphshow
9.543457 0.000000 m /zero glyphshow
grestore
2 setlinecap
0.690 setgray
gsave
344.6 286.4 107.7 75.37 clipbox
437.464224 75.372 m
437.464224 361.7856 l
stroke
grestore
0 setlinecap
0.000 setgray
gsave
/o {
gsave
newpath
translate
0.8 setlinewidth
1 setlinejoin
0 setlinecap
0 0 m
0 -3.5 l

gsave
0.000 setgray
fill
grestore
stroke
grestore
} bind def
437.464 75.372 o
grestore
gsave
425.214224 56.981375 translate
0.000000 rotate
0.000000 0.000000 m /one glyphshow
9.543457 0.000000 m /zero glyphshow
19.086914 0.000000 m /hyphen glyphshow
grestore
gsave
432.690787 40.187625 translate
0.000000 rotate
0.000000 0.000000 m /zero glyphshow
grestore
/DejaVuSans findfont
20.000 scalefont
setfont
gsave
109.521152 17.859500 translate
0.000000 rotate
0.000000 0.000000 m /K glyphshow
13.099609 0.000000 m /e glyphshow
25.404297 0.000000 m /y glyphshow
37.240234 0.000000 m /w glyphshow
53.597656 0.000000 m /o glyphshow
65.833984 0.000000 m /r glyphshow
74.056641 0.000000 m /d glyphshow
86.751953 0.000000 m /space glyphshow
93.109375 0.000000 m /f glyphshow
100.150391 0.000000 m /r glyphshow
108.373047 0.000000 m /e glyphshow
120.677734 0.000000 m /q glyphshow
133.373047 0.000000 m /u glyphshow
146.048828 0.000000 m /e glyphshow
158.353516 0.000000 m /n glyphshow
171.029297 0.000000 m /c glyphshow
182.025391 0.000000 m /y glyphshow
193.861328 0.000000 m /space glyphshow
200.218750 0.000000 m /parenleft glyphshow
208.021484 0.000000 m /i glyphshow
213.578125 0.000000 m /n glyphshow
226.253906 0.000000 m /space glyphshow
232.611328 0.000000 m /p glyphshow
245.306641 0.000000 m /e glyphshow
257.611328 0.000000 m /r glyphshow
265.833984 0.000000 m /c glyphshow
276.830078 0.000000 m /e glyphshow
289.134766 0.000000 m /n glyphshow
301.810547 0.000000 m /t glyphshow
309.652344 0.000000 m /i glyphshow
315.208984 0.000000 m /l glyphshow
320.765625 0.000000 m /e glyphshow
333.070312 0.000000 m /parenright glyphshow
grestore
2 setlinecap
0.690 setgray
gsave
344.6 286.4 107.7 75.37 clipbox
107.691429 87.907728 m
452.304 87.907728 l
stroke
grestore
0 setlinecap
0.000 setgray
gsave
/o {
gsave
newpath
translate
0.8 setlinewidth
1 setlinejoin
0 setlinecap
0 0 m
-3.5 0 l

gsave
0.000 setgray
fill
grestore
stroke
grestore
} bind def
107.691 87.9077 o
grestore
/DejaVuSans findfont
10.000 scalefont
setfont
gsave
94.332054 84.110853 translate
0.000000 rotate
0.000000 0.000000 m /zero glyphshow
grestore
2 setlinecap
0.690 setgray
gsave
344.6 286.4 107.7 75.37 clipbox
107.691429 184.522199 m
452.304 184.522199 l
stroke
grestore
0 setlinecap
0.000 setgray
gsave
/o {
gsave
newpath
translate
0.8 setlinewidth
1 setlinejoin
0 setlinecap
0 0 m
-3.5 0 l

gsave
0.000 setgray
fill
grestore
stroke
grestore
} bind def
107.691 184.522 o
grestore
gsave
87.972679 180.725324 translate
0.000000 rotate
0.000000 0.000000 m /two glyphshow
6.362305 0.000000 m /zero glyphshow
grestore
2 setlinecap
0.690 setgray
gsave
344.6 286.4 107.7 75.37 clipbox
107.691429 281.13667 m
452.304 281.13667 l
stroke
grestore
0 setlinecap
0.000 setgray
gsave
/o {
gsave
newpath
translate
0.8 setlinewidth
1 setlinejoin
0 setlinecap
0 0 m
-3.5 0 l

gsave
0.000 setgray
fill
grestore
stroke
grestore
} bind def
107.691 281.137 o
grestore
gsave
87.972679 277.339795 translate
0.000000 rotate
0.000000 0.000000 m /four glyphshow
6.362305 0.000000 m /zero glyphshow
grestore
/DejaVuSans findfont
20.000 scalefont
setfont
gsave
79.816429 101.578800 translate
90.000000 rotate
0.000000 0.000000 m /Q glyphshow
15.742188 0.000000 m /u glyphshow
28.417969 0.000000 m /e glyphshow
40.722656 0.000000 m /r glyphshow
48.945312 0.000000 m /y glyphshow
60.781250 0.000000 m /i glyphshow
66.337891 0.000000 m /n glyphshow
79.013672 0.000000 m /g glyphshow
91.708984 0.000000 m /space glyphshow
98.066406 0.000000 m /t glyphshow
105.908203 0.000000 m /i glyphshow
111.464844 0.000000 m /m glyphshow
130.947266 0.000000 m /e glyphshow
143.251953 0.000000 m /space glyphshow
149.609375 0.000000 m /parenleft glyphshow
157.412109 0.000000 m /i glyphshow
162.968750 0.000000 m /n glyphshow
175.644531 0.000000 m /space glyphshow
182.001953 0.000000 m /s glyphshow
192.421875 0.000000 m /e glyphshow
204.726562 0.000000 m /c glyphshow
215.722656 0.000000 m /s glyphshow
226.142578 0.000000 m /parenright glyphshow
grestore
4.000 setlinewidth
2 setlinecap
0.122 0.467 0.706 setrgbcolor
gsave
344.6 286.4 107.7 75.37 clipbox
140.668708 348.7668 m
173.645988 203.845093 l
206.623267 160.368581 l
239.600547 116.892069 l
272.577826 102.399898 l
305.555106 97.569175 l
338.532386 92.738451 l
371.509665 92.255379 l
404.486945 91.289234 l
437.464224 90.323089 l
stroke
grestore
1.000 setlinewidth
0 setlinecap
gsave
344.6 286.4 107.7 75.37 clipbox
/o {
gsave
newpath
translate
1.0 setlinewidth
1 setlinejoin
0 setlinecap
0 -6 m
1.591219 -6 3.117479 -5.367802 4.242641 -4.242641 c
5.367802 -3.117479 6 -1.591219 6 0 c
6 1.591219 5.367802 3.117479 4.242641 4.242641 c
3.117479 5.367802 1.591219 6 0 6 c
-1.591219 6 -3.117479 5.367802 -4.242641 4.242641 c
-5.367802 3.117479 -6 1.591219 -6 0 c
-6 -1.591219 -5.367802 -3.117479 -4.242641 -4.242641 c
-3.117479 -5.367802 -1.591219 -6 0 -6 c
cl

gsave
0.122 0.467 0.706 setrgbcolor
fill
grestore
stroke
grestore
} bind def
140.669 348.767 o
173.646 203.845 o
206.623 160.369 o
239.601 116.892 o
272.578 102.4 o
305.555 97.5692 o
338.532 92.7385 o
371.51 92.2554 o
404.487 91.2892 o
437.464 90.3231 o
grestore
4.000 setlinewidth
[11.2 4.8] 0 setdash
1.000 0.498 0.055 setrgbcolor
gsave
344.6 286.4 107.7 75.37 clipbox
140.668708 97.569175 m
173.645988 92.255379 l
206.623267 91.772306 l
239.600547 91.289234 l
272.577826 90.806162 l
305.555106 90.323089 l
338.532386 89.840017 l
371.509665 89.356945 l
404.486945 88.873872 l
437.464224 88.3908 l
stroke
grestore
1.000 setlinewidth
[] 0 setdash
gsave
344.6 286.4 107.7 75.37 clipbox
/o {
gsave
newpath
translate
1.0 setlinewidth
1 setlinejoin
0 setlinecap
0 -6 m
1.591219 -6 3.117479 -5.367802 4.242641 -4.242641 c
5.367802 -3.117479 6 -1.591219 6 0 c
6 1.591219 5.367802 3.117479 4.242641 4.242641 c
3.117479 5.367802 1.591219 6 0 6 c
-1.591219 6 -3.117479 5.367802 -4.242641 4.242641 c
-5.367802 3.117479 -6 1.591219 -6 0 c
-6 -1.591219 -5.367802 -3.117479 -4.242641 -4.242641 c
-3.117479 -5.367802 -1.591219 -6 0 -6 c
cl

gsave
1.000 0.498 0.055 setrgbcolor
fill
grestore
stroke
grestore
} bind def
140.669 97.5692 o
173.646 92.2554 o
206.623 91.7723 o
239.601 91.2892 o
272.578 90.8062 o
305.555 90.3231 o
338.532 89.84 o
371.51 89.3569 o
404.487 88.8739 o
437.464 88.3908 o
grestore
4.000 setlinewidth
2 setlinecap
0.173 0.627 0.173 setrgbcolor
gsave
344.6 286.4 107.7 75.37 clipbox
140.668708 266.644499 m
173.645988 136.214963 l
206.623267 131.38424 l
239.600547 112.061345 l
272.577826 97.569175 l
305.555106 97.569175 l
338.532386 92.255379 l
371.509665 90.806162 l
404.486945 89.840017 l
437.464224 88.3908 l
stroke
grestore
1.000 setlinewidth
2 setlinejoin
0 setlinecap
gsave
344.6 286.4 107.7 75.37 clipbox
/o {
gsave
newpath
translate
1.0 setlinewidth
2 setlinejoin
0 setlinecap
0 6 m
-1.347084 1.854102 l
-5.706339 1.854102 l
-2.179628 -0.708204 l
-3.526712 -4.854102 l
-0 -2.291796 l
3.526712 -4.854102 l
2.179628 -0.708204 l
5.706339 1.854102 l
1.347084 1.854102 l
cl

gsave
0.173 0.627 0.173 setrgbcolor
fill
grestore
stroke
grestore
} bind def
140.669 266.644 o
173.646 136.215 o
206.623 131.384 o
239.601 112.061 o
272.578 97.5692 o
305.555 97.5692 o
338.532 92.2554 o
371.51 90.8062 o
404.487 89.84 o
437.464 88.3908 o
grestore
4.000 setlinewidth
1 setlinejoin
[11.2 4.8] 0 setdash
0.839 0.153 0.157 setrgbcolor
gsave
344.6 286.4 107.7 75.37 clipbox
140.668708 102.399898 m
173.645988 92.255379 l
206.623267 91.772306 l
239.600547 91.289234 l
272.577826 90.806162 l
305.555106 90.323089 l
338.532386 89.840017 l
371.509665 89.356945 l
404.486945 88.873872 l
437.464224 88.3908 l
stroke
grestore
1.000 setlinewidth
2 setlinejoin
[] 0 setdash
gsave
344.6 286.4 107.7 75.37 clipbox
/o {
gsave
newpath
translate
1.0 setlinewidth
2 setlinejoin
0 setlinecap
0 6 m
-1.347084 1.854102 l
-5.706339 1.854102 l
-2.179628 -0.708204 l
-3.526712 -4.854102 l
-0 -2.291796 l
3.526712 -4.854102 l
2.179628 -0.708204 l
5.706339 1.854102 l
1.347084 1.854102 l
cl

gsave
0.839 0.153 0.157 setrgbcolor
fill
grestore
stroke
grestore
} bind def
140.669 102.4 o
173.646 92.2554 o
206.623 91.7723 o
239.601 91.2892 o
272.578 90.8062 o
305.555 90.3231 o
338.532 89.84 o
371.51 89.3569 o
404.487 88.8739 o
437.464 88.3908 o
grestore
0.800 setlinewidth
0 setlinejoin
2 setlinecap
[] 0 setdash
0.000 setgray
gsave
107.691429 75.372 m
107.691429 361.7856 l
stroke
grestore
gsave
452.304 75.372 m
452.304 361.7856 l
stroke
grestore
gsave
107.691429 75.372 m
452.304 75.372 l
stroke
grestore
gsave
107.691429 361.7856 m
452.304 361.7856 l
stroke
grestore
1.000 setlinewidth
0 setlinecap
0.800 setgray
gsave
226.304 225.06685 m
438.304 225.06685 l
440.970667 225.06685 442.304 226.400183 442.304 229.06685 c
442.304 347.7856 l
442.304 350.452267 440.970667 351.7856 438.304 351.7856 c
226.304 351.7856 l
223.637333 351.7856 222.304 350.452267 222.304 347.7856 c
222.304 229.06685 l
222.304 226.400183 223.637333 225.06685 226.304 225.06685 c
cl
gsave
1.000 setgray
fill
grestore
stroke
grestore
4.000 setlinewidth
1 setlinejoin
2 setlinecap
[] 0 setdash
0.122 0.467 0.706 setrgbcolor
gsave
230.304 334.7856 m
270.304 334.7856 l
stroke
grestore
1.000 setlinewidth
0 setlinecap
gsave
/o {
gsave
newpath
translate
1.0 setlinewidth
1 setlinejoin
0 setlinecap
0 -6 m
1.591219 -6 3.117479 -5.367802 4.242641 -4.242641 c
5.367802 -3.117479 6 -1.591219 6 0 c
6 1.591219 5.367802 3.117479 4.242641 4.242641 c
3.117479 5.367802 1.591219 6 0 6 c
-1.591219 6 -3.117479 5.367802 -4.242641 4.242641 c
-5.367802 3.117479 -6 1.591219 -6 0 c
-6 -1.591219 -5.367802 -3.117479 -4.242641 -4.242641 c
-3.117479 -5.367802 -1.591219 -6 0 -6 c
cl

gsave
0.122 0.467 0.706 setrgbcolor
fill
grestore
stroke
grestore
} bind def
250.304 334.786 o
grestore
0.000 setgray
gsave
286.304000 327.785600 translate
0.000000 rotate
/DejaVuSans findfont
20.0 scalefont
setfont
0.000000 0.796875 moveto
/S glyphshow

12.695312 0.796875 moveto
/y glyphshow

24.531250 0.796875 moveto
/d glyphshow

37.226562 0.796875 moveto
/n glyphshow

49.902344 0.796875 moveto
/e glyphshow

62.207031 0.796875 moveto
/y glyphshow

74.042969 0.796875 moveto
/space glyphshow

/DejaVuSans-Oblique findfont
20.0 scalefont
setfont
80.400391 0.796875 moveto
/epsilon glyphshow

/DejaVuSans findfont
20.0 scalefont
setfont
95.107422 0.796875 moveto
/equal glyphshow

115.761719 0.796875 moveto
/zero glyphshow

128.486328 0.796875 moveto
/period glyphshow

134.843750 0.796875 moveto
/zero glyphshow


grestore
4.000 setlinewidth
[11.2 4.8] 0 setdash
1.000 0.498 0.055 setrgbcolor
gsave
230.304 303.7856 m
270.304 303.7856 l
stroke
grestore
1.000 setlinewidth
[] 0 setdash
gsave
/o {
gsave
newpath
translate
1.0 setlinewidth
1 setlinejoin
0 setlinecap
0 -6 m
1.591219 -6 3.117479 -5.367802 4.242641 -4.242641 c
5.367802 -3.117479 6 -1.591219 6 0 c
6 1.591219 5.367802 3.117479 4.242641 4.242641 c
3.117479 5.367802 1.591219 6 0 6 c
-1.591219 6 -3.117479 5.367802 -4.242641 4.242641 c
-5.367802 3.117479 -6 1.591219 -6 0 c
-6 -1.591219 -5.367802 -3.117479 -4.242641 -4.242641 c
-3.117479 -5.367802 -1.591219 -6 0 -6 c
cl

gsave
1.000 0.498 0.055 setrgbcolor
fill
grestore
stroke
grestore
} bind def
250.304 303.786 o
grestore
0.000 setgray
gsave
286.304000 296.785600 translate
0.000000 rotate
/DejaVuSans findfont
20.0 scalefont
setfont
0.000000 0.796875 moveto
/S glyphshow

12.695312 0.796875 moveto
/y glyphshow

24.531250 0.796875 moveto
/d glyphshow

37.226562 0.796875 moveto
/n glyphshow

49.902344 0.796875 moveto
/e glyphshow

62.207031 0.796875 moveto
/y glyphshow

74.042969 0.796875 moveto
/space glyphshow

/DejaVuSans-Oblique findfont
20.0 scalefont
setfont
80.400391 0.796875 moveto
/epsilon glyphshow

/DejaVuSans findfont
20.0 scalefont
setfont
95.107422 0.796875 moveto
/equal glyphshow

115.761719 0.796875 moveto
/zero glyphshow

128.486328 0.796875 moveto
/period glyphshow

134.828125 0.796875 moveto
/two glyphshow


grestore
4.000 setlinewidth
2 setlinecap
0.173 0.627 0.173 setrgbcolor
gsave
230.304 273.582475 m
270.304 273.582475 l
stroke
grestore
1.000 setlinewidth
2 setlinejoin
0 setlinecap
gsave
/o {
gsave
newpath
translate
1.0 setlinewidth
2 setlinejoin
0 setlinecap
0 6 m
-1.347084 1.854102 l
-5.706339 1.854102 l
-2.179628 -0.708204 l
-3.526712 -4.854102 l
-0 -2.291796 l
3.526712 -4.854102 l
2.179628 -0.708204 l
5.706339 1.854102 l
1.347084 1.854102 l
cl

gsave
0.173 0.627 0.173 setrgbcolor
fill
grestore
stroke
grestore
} bind def
250.304 273.582 o
grestore
0.000 setgray
gsave
286.304000 266.582475 translate
0.000000 rotate
/DejaVuSans findfont
20.0 scalefont
setfont
0.000000 0.796875 moveto
/L glyphshow

11.142578 0.796875 moveto
/o glyphshow

23.378906 0.796875 moveto
/n glyphshow

36.054688 0.796875 moveto
/d glyphshow

48.750000 0.796875 moveto
/o glyphshow

60.986328 0.796875 moveto
/n glyphshow

73.662109 0.796875 moveto
/space glyphshow

/DejaVuSans-Oblique findfont
20.0 scalefont
setfont
80.019531 0.796875 moveto
/epsilon glyphshow

/DejaVuSans findfont
20.0 scalefont
setfont
94.726562 0.796875 moveto
/equal glyphshow

115.380859 0.796875 moveto
/zero glyphshow

128.105469 0.796875 moveto
/period glyphshow

134.462891 0.796875 moveto
/zero glyphshow


grestore
4.000 setlinewidth
1 setlinejoin
[11.2 4.8] 0 setdash
0.839 0.153 0.157 setrgbcolor
gsave
230.304 244.2231 m
270.304 244.2231 l
stroke
grestore
1.000 setlinewidth
2 setlinejoin
[] 0 setdash
gsave
/o {
gsave
newpath
translate
1.0 setlinewidth
2 setlinejoin
0 setlinecap
0 6 m
-1.347084 1.854102 l
-5.706339 1.854102 l
-2.179628 -0.708204 l
-3.526712 -4.854102 l
-0 -2.291796 l
3.526712 -4.854102 l
2.179628 -0.708204 l
5.706339 1.854102 l
1.347084 1.854102 l
cl

gsave
0.839 0.153 0.157 setrgbcolor
fill
grestore
stroke
grestore
} bind def
250.304 244.223 o
grestore
0.000 setgray
gsave
286.304000 237.223100 translate
0.000000 rotate
/DejaVuSans findfont
20.0 scalefont
setfont
0.000000 0.796875 moveto
/L glyphshow

11.142578 0.796875 moveto
/o glyphshow

23.378906 0.796875 moveto
/n glyphshow

36.054688 0.796875 moveto
/d glyphshow

48.750000 0.796875 moveto
/o glyphshow

60.986328 0.796875 moveto
/n glyphshow

73.662109 0.796875 moveto
/space glyphshow

/DejaVuSans-Oblique findfont
20.0 scalefont
setfont
80.019531 0.796875 moveto
/epsilon glyphshow

/DejaVuSans findfont
20.0 scalefont
setfont
94.726562 0.796875 moveto
/equal glyphshow

115.380859 0.796875 moveto
/zero glyphshow

128.105469 0.796875 moveto
/period glyphshow

134.447266 0.796875 moveto
/two glyphshow


grestore

end
showpage
