%!PS-Adobe-3.0 EPSF-3.0
%%BoundingBox: 137 246 491 537
%%HiResBoundingBox: 137.562 246.912 490.886 536.010
%%Title: /media/sf_OneDrive/Research/projects/squark/squark/latex/vldb19/eps/keynodedist.eps
%%Creator: matplotlib version 2.0.0, http://matplotlib.org/
%%CreationDate: Thu Apr 26 09:27:35 2018
%%Orientation: portrait
%%EndComments
%%BeginProlog
/mpldict 8 dict def
mpldict begin
/m { moveto } bind def
/l { lineto } bind def
/r { rlineto } bind def
/c { curveto } bind def
/cl { closepath } bind def
/box {
m
1 index 0 r
0 exch r
neg 0 r
cl
} bind def
/clipbox {
box
clip
newpath
} bind def
%!PS-Adobe-3.0 Resource-Font
%%Title: DejaVu Sans
%%Copyright: Copyright (c) 2003 by Bitstream, Inc. All Rights Reserved. Copyright (c) 2006 by Tavmjong Bah. All Rights Reserved. DejaVu changes are in public domain 
%%Creator: Converted from TrueType to type 3 by PPR
25 dict begin
/_d{bind def}bind def
/_m{moveto}_d
/_l{lineto}_d
/_cl{closepath eofill}_d
/_c{curveto}_d
/_sc{7 -1 roll{setcachedevice}{pop pop pop pop pop pop}ifelse}_d
/_e{exec}_d
/FontName /DejaVuSans def
/PaintType 0 def
/FontMatrix[.001 0 0 .001 0 0]def
/FontBBox[-1021 -463 1793 1232]def
/FontType 3 def
/Encoding [ /space /percent /parenleft /parenright /period /zero /one /two /A /C /D /L /N /S /b /d /e /f /i /k /l /n /o /r /s /t /u /w /y /minus ] def
/FontInfo 10 dict dup begin
/FamilyName (DejaVu Sans) def
/FullName (DejaVu Sans) def
/Notice (Copyright (c) 2003 by Bitstream, Inc. All Rights Reserved. Copyright (c) 2006 by Tavmjong Bah. All Rights Reserved. DejaVu changes are in public domain ) def
/Weight (Book) def
/Version (Version 2.35) def
/ItalicAngle 0.0 def
/isFixedPitch false def
/UnderlinePosition -130 def
/UnderlineThickness 90 def
end readonly def
/CharStrings 30 dict dup begin
/space{318 0 0 0 0 0 _sc
}_d
/percent{{950 0 55 -13 895 742 _sc
727 321 _m
699 321 676 309 660 285 _c
644 261 636 227 636 184 _c
636 142 644 108 660 84 _c
676 60 699 48 727 48 _c
755 48 777 60 793 84 _c
809 108 817 142 817 184 _c
817 226 809 260 793 284 _c
777 308 755 321 727 321 _c
727 383 _m
778 383 819 365 849 329 _c
879 293 895 244 895 184 _c
895 123 879 75 849 40 _c
819 4 778 -13 727 -13 _c
}_e{675 -13 633 4 603 40 _c
573 75 558 123 558 184 _c
558 245 573 293 603 329 _c
633 365 675 383 727 383 _c
223 680 _m
195 680 173 667 157 643 _c
141 619 133 586 133 544 _c
133 500 141 467 157 443 _c
173 419 195 407 223 407 _c
251 407 274 419 290 443 _c
306 467 314 500 314 544 _c
314 586 305 619 289 643 _c
273 667 251 680 223 680 _c
664 742 _m
742 742 _l
286 -13 _l
}_e{208 -13 _l
664 742 _l
223 742 _m
274 742 315 724 346 688 _c
376 652 392 604 392 544 _c
392 482 376 434 346 398 _c
316 362 275 345 223 345 _c
171 345 130 362 100 398 _c
70 434 55 482 55 544 _c
55 604 70 652 100 688 _c
130 724 171 742 223 742 _c
_cl}_e}_d
/parenleft{390 0 86 -131 310 759 _sc
310 759 _m
266 683 234 609 213 536 _c
191 463 181 389 181 314 _c
181 238 191 164 213 91 _c
234 17 266 -56 310 -131 _c
232 -131 _l
183 -54 146 20 122 94 _c
98 168 86 241 86 314 _c
86 386 98 459 122 533 _c
146 607 182 682 232 759 _c
310 759 _l
_cl}_d
/parenright{390 0 80 -131 304 759 _sc
80 759 _m
158 759 _l
206 682 243 607 267 533 _c
291 459 304 386 304 314 _c
304 241 291 168 267 94 _c
243 20 206 -54 158 -131 _c
80 -131 _l
123 -56 155 17 177 91 _c
198 164 209 238 209 314 _c
209 389 198 463 177 536 _c
155 609 123 683 80 759 _c
_cl}_d
/period{318 0 107 0 210 124 _sc
107 124 _m
210 124 _l
210 0 _l
107 0 _l
107 124 _l
_cl}_d
/zero{636 0 66 -13 570 742 _sc
318 664 _m
267 664 229 639 203 589 _c
177 539 165 464 165 364 _c
165 264 177 189 203 139 _c
229 89 267 64 318 64 _c
369 64 407 89 433 139 _c
458 189 471 264 471 364 _c
471 464 458 539 433 589 _c
407 639 369 664 318 664 _c
318 742 _m
399 742 461 709 505 645 _c
548 580 570 486 570 364 _c
570 241 548 147 505 83 _c
461 19 399 -13 318 -13 _c
236 -13 173 19 130 83 _c
87 147 66 241 66 364 _c
66 486 87 580 130 645 _c
173 709 236 742 318 742 _c
_cl}_d
/one{636 0 110 0 544 729 _sc
124 83 _m
285 83 _l
285 639 _l
110 604 _l
110 694 _l
284 729 _l
383 729 _l
383 83 _l
544 83 _l
544 0 _l
124 0 _l
124 83 _l
_cl}_d
/two{{636 0 73 0 536 742 _sc
192 83 _m
536 83 _l
536 0 _l
73 0 _l
73 83 _l
110 121 161 173 226 239 _c
290 304 331 346 348 365 _c
380 400 402 430 414 455 _c
426 479 433 504 433 528 _c
433 566 419 598 392 622 _c
365 646 330 659 286 659 _c
255 659 222 653 188 643 _c
154 632 117 616 78 594 _c
78 694 _l
118 710 155 722 189 730 _c
223 738 255 742 284 742 _c
}_e{359 742 419 723 464 685 _c
509 647 532 597 532 534 _c
532 504 526 475 515 449 _c
504 422 484 390 454 354 _c
446 344 420 317 376 272 _c
332 227 271 164 192 83 _c
_cl}_e}_d
/A{684 0 8 0 676 729 _sc
342 632 _m
208 269 _l
476 269 _l
342 632 _l
286 729 _m
398 729 _l
676 0 _l
573 0 _l
507 187 _l
178 187 _l
112 0 _l
8 0 _l
286 729 _l
_cl}_d
/C{{698 0 56 -13 644 742 _sc
644 673 _m
644 569 _l
610 599 575 622 537 638 _c
499 653 460 661 418 661 _c
334 661 270 635 226 584 _c
182 533 160 460 160 364 _c
160 268 182 194 226 143 _c
270 92 334 67 418 67 _c
460 67 499 74 537 90 _c
575 105 610 128 644 159 _c
644 56 _l
609 32 572 15 534 4 _c
496 -7 455 -13 412 -13 _c
302 -13 215 20 151 87 _c
}_e{87 154 56 246 56 364 _c
56 481 87 573 151 641 _c
215 708 302 742 412 742 _c
456 742 497 736 535 725 _c
573 713 610 696 644 673 _c
_cl}_e}_d
/D{770 0 98 0 711 729 _sc
197 648 _m
197 81 _l
316 81 _l
416 81 490 103 537 149 _c
583 195 607 267 607 365 _c
607 463 583 534 537 580 _c
490 625 416 648 316 648 _c
197 648 _l
98 729 _m
301 729 _l
442 729 546 699 612 641 _c
678 582 711 490 711 365 _c
711 239 677 147 611 88 _c
545 29 441 0 301 0 _c
98 0 _l
98 729 _l
_cl}_d
/L{557 0 98 0 552 729 _sc
98 729 _m
197 729 _l
197 83 _l
552 83 _l
552 0 _l
98 0 _l
98 729 _l
_cl}_d
/N{748 0 98 0 650 729 _sc
98 729 _m
231 729 _l
554 119 _l
554 729 _l
650 729 _l
650 0 _l
517 0 _l
194 610 _l
194 0 _l
98 0 _l
98 729 _l
_cl}_d
/S{{635 0 66 -13 579 742 _sc
535 705 _m
535 609 _l
497 627 462 640 429 649 _c
395 657 363 662 333 662 _c
279 662 237 651 208 631 _c
179 610 165 580 165 542 _c
165 510 174 485 194 469 _c
213 452 250 439 304 429 _c
364 417 _l
437 403 491 378 526 343 _c
561 307 579 260 579 201 _c
579 130 555 77 508 41 _c
460 5 391 -13 300 -13 _c
265 -13 228 -9 189 -2 _c
}_e{150 5 110 16 69 32 _c
69 134 _l
109 111 148 94 186 83 _c
224 71 262 66 300 66 _c
356 66 399 77 430 99 _c
460 121 476 152 476 194 _c
476 230 465 258 443 278 _c
421 298 385 313 335 323 _c
275 335 _l
201 349 148 372 115 404 _c
82 435 66 478 66 534 _c
66 598 88 649 134 686 _c
179 723 242 742 322 742 _c
356 742 390 739 426 733 _c
461 727 497 717 535 705 _c
}_e{_cl}_e}_d
/b{{635 0 91 -13 580 760 _sc
487 273 _m
487 339 473 390 446 428 _c
418 466 381 485 334 485 _c
286 485 249 466 222 428 _c
194 390 181 339 181 273 _c
181 207 194 155 222 117 _c
249 79 286 61 334 61 _c
381 61 418 79 446 117 _c
473 155 487 207 487 273 _c
181 464 _m
199 496 223 520 252 536 _c
281 552 316 560 356 560 _c
422 560 476 533 518 481 _c
559 428 580 359 580 273 _c
}_e{580 187 559 117 518 65 _c
476 13 422 -13 356 -13 _c
316 -13 281 -5 252 10 _c
223 25 199 49 181 82 _c
181 0 _l
91 0 _l
91 760 _l
181 760 _l
181 464 _l
_cl}_e}_d
/d{{635 0 55 -13 544 760 _sc
454 464 _m
454 760 _l
544 760 _l
544 0 _l
454 0 _l
454 82 _l
435 49 411 25 382 10 _c
353 -5 319 -13 279 -13 _c
213 -13 159 13 117 65 _c
75 117 55 187 55 273 _c
55 359 75 428 117 481 _c
159 533 213 560 279 560 _c
319 560 353 552 382 536 _c
411 520 435 496 454 464 _c
148 273 _m
148 207 161 155 188 117 _c
215 79 253 61 301 61 _c
}_e{348 61 385 79 413 117 _c
440 155 454 207 454 273 _c
454 339 440 390 413 428 _c
385 466 348 485 301 485 _c
253 485 215 466 188 428 _c
161 390 148 339 148 273 _c
_cl}_e}_d
/e{{615 0 55 -13 562 560 _sc
562 296 _m
562 252 _l
149 252 _l
153 190 171 142 205 110 _c
238 78 284 62 344 62 _c
378 62 412 66 444 74 _c
476 82 509 95 541 113 _c
541 28 _l
509 14 476 3 442 -3 _c
408 -9 373 -13 339 -13 _c
251 -13 182 12 131 62 _c
80 112 55 181 55 268 _c
55 357 79 428 127 481 _c
175 533 241 560 323 560 _c
397 560 455 536 498 489 _c
}_e{540 441 562 377 562 296 _c
472 322 _m
471 371 457 410 431 440 _c
404 469 368 484 324 484 _c
274 484 234 469 204 441 _c
174 413 156 373 152 322 _c
472 322 _l
_cl}_e}_d
/f{352 0 23 0 371 760 _sc
371 760 _m
371 685 _l
285 685 _l
253 685 230 678 218 665 _c
205 652 199 629 199 595 _c
199 547 _l
347 547 _l
347 477 _l
199 477 _l
199 0 _l
109 0 _l
109 477 _l
23 477 _l
23 547 _l
109 547 _l
109 585 _l
109 645 123 690 151 718 _c
179 746 224 760 286 760 _c
371 760 _l
_cl}_d
/i{278 0 94 0 184 760 _sc
94 547 _m
184 547 _l
184 0 _l
94 0 _l
94 547 _l
94 760 _m
184 760 _l
184 646 _l
94 646 _l
94 760 _l
_cl}_d
/k{579 0 91 0 576 760 _sc
91 760 _m
181 760 _l
181 311 _l
449 547 _l
564 547 _l
274 291 _l
576 0 _l
459 0 _l
181 267 _l
181 0 _l
91 0 _l
91 760 _l
_cl}_d
/l{278 0 94 0 184 760 _sc
94 760 _m
184 760 _l
184 0 _l
94 0 _l
94 760 _l
_cl}_d
/n{634 0 91 0 549 560 _sc
549 330 _m
549 0 _l
459 0 _l
459 327 _l
459 379 448 417 428 443 _c
408 469 378 482 338 482 _c
289 482 251 466 223 435 _c
195 404 181 362 181 309 _c
181 0 _l
91 0 _l
91 547 _l
181 547 _l
181 462 _l
202 494 227 519 257 535 _c
286 551 320 560 358 560 _c
420 560 468 540 500 501 _c
532 462 549 405 549 330 _c
_cl}_d
/o{612 0 55 -13 557 560 _sc
306 484 _m
258 484 220 465 192 427 _c
164 389 150 338 150 273 _c
150 207 163 156 191 118 _c
219 80 257 62 306 62 _c
354 62 392 80 420 118 _c
448 156 462 207 462 273 _c
462 337 448 389 420 427 _c
392 465 354 484 306 484 _c
306 560 _m
384 560 445 534 490 484 _c
534 433 557 363 557 273 _c
557 183 534 113 490 63 _c
445 12 384 -13 306 -13 _c
227 -13 165 12 121 63 _c
77 113 55 183 55 273 _c
55 363 77 433 121 484 _c
165 534 227 560 306 560 _c
_cl}_d
/r{411 0 91 0 411 560 _sc
411 463 _m
401 469 390 473 378 476 _c
366 478 353 480 339 480 _c
288 480 249 463 222 430 _c
194 397 181 350 181 288 _c
181 0 _l
91 0 _l
91 547 _l
181 547 _l
181 462 _l
199 495 224 520 254 536 _c
284 552 321 560 365 560 _c
371 560 378 559 386 559 _c
393 558 401 557 411 555 _c
411 463 _l
_cl}_d
/s{{521 0 54 -13 472 560 _sc
443 531 _m
443 446 _l
417 458 391 468 364 475 _c
336 481 308 485 279 485 _c
234 485 200 478 178 464 _c
156 450 145 430 145 403 _c
145 382 153 366 169 354 _c
185 342 217 330 265 320 _c
296 313 _l
360 299 405 279 432 255 _c
458 230 472 195 472 151 _c
472 100 452 60 412 31 _c
372 1 316 -13 246 -13 _c
216 -13 186 -10 154 -5 _c
}_e{122 0 89 8 54 20 _c
54 113 _l
87 95 120 82 152 74 _c
184 65 216 61 248 61 _c
290 61 323 68 346 82 _c
368 96 380 117 380 144 _c
380 168 371 187 355 200 _c
339 213 303 226 247 238 _c
216 245 _l
160 257 119 275 95 299 _c
70 323 58 356 58 399 _c
58 450 76 490 112 518 _c
148 546 200 560 268 560 _c
301 560 332 557 362 552 _c
391 547 418 540 443 531 _c
}_e{_cl}_e}_d
/t{392 0 27 0 368 702 _sc
183 702 _m
183 547 _l
368 547 _l
368 477 _l
183 477 _l
183 180 _l
183 135 189 106 201 94 _c
213 81 238 75 276 75 _c
368 75 _l
368 0 _l
276 0 _l
206 0 158 13 132 39 _c
106 65 93 112 93 180 _c
93 477 _l
27 477 _l
27 547 _l
93 547 _l
93 702 _l
183 702 _l
_cl}_d
/u{634 0 85 -13 543 560 _sc
85 216 _m
85 547 _l
175 547 _l
175 219 _l
175 167 185 129 205 103 _c
225 77 255 64 296 64 _c
344 64 383 79 411 110 _c
439 141 453 183 453 237 _c
453 547 _l
543 547 _l
543 0 _l
453 0 _l
453 84 _l
431 50 405 26 377 10 _c
348 -5 315 -13 277 -13 _c
214 -13 166 6 134 45 _c
101 83 85 140 85 216 _c
311 560 _m
311 560 _l
_cl}_d
/w{818 0 42 0 776 547 _sc
42 547 _m
132 547 _l
244 120 _l
356 547 _l
462 547 _l
574 120 _l
686 547 _l
776 547 _l
633 0 _l
527 0 _l
409 448 _l
291 0 _l
185 0 _l
42 547 _l
_cl}_d
/y{592 0 30 -207 562 547 _sc
322 -50 _m
296 -114 271 -157 247 -177 _c
223 -197 191 -207 151 -207 _c
79 -207 _l
79 -132 _l
132 -132 _l
156 -132 175 -126 189 -114 _c
203 -102 218 -75 235 -31 _c
251 9 _l
30 547 _l
125 547 _l
296 119 _l
467 547 _l
562 547 _l
322 -50 _l
_cl}_d
/minus{838 0 106 272 732 355 _sc
106 355 _m
732 355 _l
732 272 _l
106 272 _l
106 355 _l
_cl}_d
end readonly def

/BuildGlyph
 {exch begin
 CharStrings exch
 2 copy known not{pop /.notdef}if
 true 3 1 roll get exec
 end}_d

/BuildChar {
 1 index /Encoding get exch get
 1 index /BuildGlyph get exec
}_d

FontName currentdict end definefont pop
end
%%EndProlog
mpldict begin
75.6 223.2 translate
460.8 345.6 0 0 clipbox
gsave
0 0 m
460.8 0 l
460.8 345.6 l
0 345.6 l
cl
1.000 setgray
fill
grestore
gsave
139.337143 74.057143 m
414.72 74.057143 l
414.72 304.128 l
139.337143 304.128 l
cl
1.000 setgray
fill
grestore
0.800 setlinewidth
1 setlinejoin
0 setlinecap
[] 0 setdash
0.000 setgray
gsave
/o {
gsave
newpath
translate
0.8 setlinewidth
1 setlinejoin
0 setlinecap
0 0 m
0 -3.5 l

gsave
0.000 setgray
fill
grestore
stroke
grestore
} bind def
151.855 74.0571 o
grestore
gsave
133.854545 51.213393 translate
0.000000 rotate
/DejaVuSans findfont
20.0 scalefont
setfont
0.000000 0.953125 moveto
/one glyphshow

12.724609 0.953125 moveto
/zero glyphshow

/DejaVuSans findfont
14.0 scalefont
setfont
25.640625 8.609375 moveto
/zero glyphshow


grestore
gsave
/o {
gsave
newpath
translate
0.8 setlinewidth
1 setlinejoin
0 setlinecap
0 0 m
0 -3.5 l

gsave
0.000 setgray
fill
grestore
stroke
grestore
} bind def
266.006 74.0571 o
grestore
gsave
248.005858 51.854018 translate
0.000000 rotate
/DejaVuSans findfont
20.0 scalefont
setfont
0.000000 0.139063 moveto
/one glyphshow

12.724609 0.139063 moveto
/zero glyphshow

/DejaVuSans findfont
14.0 scalefont
setfont
25.640625 7.795313 moveto
/one glyphshow


grestore
gsave
/o {
gsave
newpath
translate
0.8 setlinewidth
1 setlinejoin
0 setlinecap
0 0 m
0 -3.5 l

gsave
0.000 setgray
fill
grestore
stroke
grestore
} bind def
380.157 74.0571 o
grestore
gsave
362.157171 51.213393 translate
0.000000 rotate
/DejaVuSans findfont
20.0 scalefont
setfont
0.000000 0.953125 moveto
/one glyphshow

12.724609 0.953125 moveto
/zero glyphshow

/DejaVuSans findfont
14.0 scalefont
setfont
25.640625 8.609375 moveto
/two glyphshow


grestore
0.600 setlinewidth
gsave
/o {
gsave
newpath
translate
0.6 setlinewidth
1 setlinejoin
0 setlinecap
0 0 m
0 -2 l

gsave
0.000 setgray
fill
grestore
stroke
grestore
} bind def
140.792 74.0571 o
grestore
gsave
/o {
gsave
newpath
translate
0.6 setlinewidth
1 setlinejoin
0 setlinecap
0 0 m
0 -2 l

gsave
0.000 setgray
fill
grestore
stroke
grestore
} bind def
146.631 74.0571 o
grestore
gsave
/o {
gsave
newpath
translate
0.6 setlinewidth
1 setlinejoin
0 setlinecap
0 0 m
0 -2 l

gsave
0.000 setgray
fill
grestore
stroke
grestore
} bind def
186.218 74.0571 o
grestore
gsave
/o {
gsave
newpath
translate
0.6 setlinewidth
1 setlinejoin
0 setlinecap
0 0 m
0 -2 l

gsave
0.000 setgray
fill
grestore
stroke
grestore
} bind def
206.319 74.0571 o
grestore
gsave
/o {
gsave
newpath
translate
0.6 setlinewidth
1 setlinejoin
0 setlinecap
0 0 m
0 -2 l

gsave
0.000 setgray
fill
grestore
stroke
grestore
} bind def
220.58 74.0571 o
grestore
gsave
/o {
gsave
newpath
translate
0.6 setlinewidth
1 setlinejoin
0 setlinecap
0 0 m
0 -2 l

gsave
0.000 setgray
fill
grestore
stroke
grestore
} bind def
231.643 74.0571 o
grestore
gsave
/o {
gsave
newpath
translate
0.6 setlinewidth
1 setlinejoin
0 setlinecap
0 0 m
0 -2 l

gsave
0.000 setgray
fill
grestore
stroke
grestore
} bind def
240.682 74.0571 o
grestore
gsave
/o {
gsave
newpath
translate
0.6 setlinewidth
1 setlinejoin
0 setlinecap
0 0 m
0 -2 l

gsave
0.000 setgray
fill
grestore
stroke
grestore
} bind def
248.324 74.0571 o
grestore
gsave
/o {
gsave
newpath
translate
0.6 setlinewidth
1 setlinejoin
0 setlinecap
0 0 m
0 -2 l

gsave
0.000 setgray
fill
grestore
stroke
grestore
} bind def
254.943 74.0571 o
grestore
gsave
/o {
gsave
newpath
translate
0.6 setlinewidth
1 setlinejoin
0 setlinecap
0 0 m
0 -2 l

gsave
0.000 setgray
fill
grestore
stroke
grestore
} bind def
260.783 74.0571 o
grestore
gsave
/o {
gsave
newpath
translate
0.6 setlinewidth
1 setlinejoin
0 setlinecap
0 0 m
0 -2 l

gsave
0.000 setgray
fill
grestore
stroke
grestore
} bind def
300.369 74.0571 o
grestore
gsave
/o {
gsave
newpath
translate
0.6 setlinewidth
1 setlinejoin
0 setlinecap
0 0 m
0 -2 l

gsave
0.000 setgray
fill
grestore
stroke
grestore
} bind def
320.47 74.0571 o
grestore
gsave
/o {
gsave
newpath
translate
0.6 setlinewidth
1 setlinejoin
0 setlinecap
0 0 m
0 -2 l

gsave
0.000 setgray
fill
grestore
stroke
grestore
} bind def
334.732 74.0571 o
grestore
gsave
/o {
gsave
newpath
translate
0.6 setlinewidth
1 setlinejoin
0 setlinecap
0 0 m
0 -2 l

gsave
0.000 setgray
fill
grestore
stroke
grestore
} bind def
345.794 74.0571 o
grestore
gsave
/o {
gsave
newpath
translate
0.6 setlinewidth
1 setlinejoin
0 setlinecap
0 0 m
0 -2 l

gsave
0.000 setgray
fill
grestore
stroke
grestore
} bind def
354.833 74.0571 o
grestore
gsave
/o {
gsave
newpath
translate
0.6 setlinewidth
1 setlinejoin
0 setlinecap
0 0 m
0 -2 l

gsave
0.000 setgray
fill
grestore
stroke
grestore
} bind def
362.475 74.0571 o
grestore
gsave
/o {
gsave
newpath
translate
0.6 setlinewidth
1 setlinejoin
0 setlinecap
0 0 m
0 -2 l

gsave
0.000 setgray
fill
grestore
stroke
grestore
} bind def
369.095 74.0571 o
grestore
gsave
/o {
gsave
newpath
translate
0.6 setlinewidth
1 setlinejoin
0 setlinecap
0 0 m
0 -2 l

gsave
0.000 setgray
fill
grestore
stroke
grestore
} bind def
374.934 74.0571 o
grestore
gsave
/o {
gsave
newpath
translate
0.6 setlinewidth
1 setlinejoin
0 setlinecap
0 0 m
0 -2 l

gsave
0.000 setgray
fill
grestore
stroke
grestore
} bind def
414.52 74.0571 o
grestore
/DejaVuSans findfont
20.000 scalefont
setfont
gsave
196.411384 27.854018 translate
0.000000 rotate
0.000000 0.000000 m /N glyphshow
14.960938 0.000000 m /o glyphshow
27.197266 0.000000 m /period glyphshow
33.554688 0.000000 m /space glyphshow
39.912109 0.000000 m /o glyphshow
52.148438 0.000000 m /f glyphshow
59.189453 0.000000 m /space glyphshow
65.546875 0.000000 m /k glyphshow
77.128906 0.000000 m /e glyphshow
89.433594 0.000000 m /y glyphshow
101.269531 0.000000 m /w glyphshow
117.626953 0.000000 m /o glyphshow
129.863281 0.000000 m /r glyphshow
138.085938 0.000000 m /d glyphshow
150.781250 0.000000 m /s glyphshow
grestore
0.800 setlinewidth
gsave
/o {
gsave
newpath
translate
0.8 setlinewidth
1 setlinejoin
0 setlinecap
0 0 m
-3.5 0 l

gsave
0.000 setgray
fill
grestore
stroke
grestore
} bind def
139.337 135.789 o
grestore
gsave
85.337143 127.867001 translate
0.000000 rotate
/DejaVuSans findfont
20.0 scalefont
setfont
0.000000 0.953125 moveto
/one glyphshow

12.724609 0.953125 moveto
/zero glyphshow

/DejaVuSans findfont
14.0 scalefont
setfont
25.640625 8.609375 moveto
/minus glyphshow

37.371094 8.609375 moveto
/two glyphshow


grestore
gsave
/o {
gsave
newpath
translate
0.8 setlinewidth
1 setlinejoin
0 setlinecap
0 0 m
-3.5 0 l

gsave
0.000 setgray
fill
grestore
stroke
grestore
} bind def
139.337 218.755 o
grestore
gsave
96.337143 210.832867 translate
0.000000 rotate
/DejaVuSans findfont
20.0 scalefont
setfont
0.000000 0.953125 moveto
/one glyphshow

12.724609 0.953125 moveto
/zero glyphshow

/DejaVuSans findfont
14.0 scalefont
setfont
25.640625 8.609375 moveto
/zero glyphshow


grestore
gsave
/o {
gsave
newpath
translate
0.8 setlinewidth
1 setlinejoin
0 setlinecap
0 0 m
-3.5 0 l

gsave
0.000 setgray
fill
grestore
stroke
grestore
} bind def
139.337 301.721 o
grestore
gsave
96.337143 293.798733 translate
0.000000 rotate
/DejaVuSans findfont
20.0 scalefont
setfont
0.000000 0.953125 moveto
/one glyphshow

12.724609 0.953125 moveto
/zero glyphshow

/DejaVuSans findfont
14.0 scalefont
setfont
25.640625 8.609375 moveto
/two glyphshow


grestore
0.600 setlinewidth
gsave
/o {
gsave
newpath
translate
0.6 setlinewidth
1 setlinejoin
0 setlinecap
0 0 m
-2 0 l

gsave
0.000 setgray
fill
grestore
stroke
grestore
} bind def
139.337 77.7982 o
grestore
gsave
/o {
gsave
newpath
translate
0.6 setlinewidth
1 setlinejoin
0 setlinecap
0 0 m
-2 0 l

gsave
0.000 setgray
fill
grestore
stroke
grestore
} bind def
139.337 81.8183 o
grestore
gsave
/o {
gsave
newpath
translate
0.6 setlinewidth
1 setlinejoin
0 setlinecap
0 0 m
-2 0 l

gsave
0.000 setgray
fill
grestore
stroke
grestore
} bind def
139.337 85.103 o
grestore
gsave
/o {
gsave
newpath
translate
0.6 setlinewidth
1 setlinejoin
0 setlinecap
0 0 m
-2 0 l

gsave
0.000 setgray
fill
grestore
stroke
grestore
} bind def
139.337 87.8802 o
grestore
gsave
/o {
gsave
newpath
translate
0.6 setlinewidth
1 setlinejoin
0 setlinecap
0 0 m
-2 0 l

gsave
0.000 setgray
fill
grestore
stroke
grestore
} bind def
139.337 90.2858 o
grestore
gsave
/o {
gsave
newpath
translate
0.6 setlinewidth
1 setlinejoin
0 setlinecap
0 0 m
-2 0 l

gsave
0.000 setgray
fill
grestore
stroke
grestore
} bind def
139.337 92.4078 o
grestore
gsave
/o {
gsave
newpath
translate
0.6 setlinewidth
1 setlinejoin
0 setlinecap
0 0 m
-2 0 l

gsave
0.000 setgray
fill
grestore
stroke
grestore
} bind def
139.337 148.276 o
grestore
gsave
/o {
gsave
newpath
translate
0.6 setlinewidth
1 setlinejoin
0 setlinecap
0 0 m
-2 0 l

gsave
0.000 setgray
fill
grestore
stroke
grestore
} bind def
139.337 155.581 o
grestore
gsave
/o {
gsave
newpath
translate
0.6 setlinewidth
1 setlinejoin
0 setlinecap
0 0 m
-2 0 l

gsave
0.000 setgray
fill
grestore
stroke
grestore
} bind def
139.337 160.764 o
grestore
gsave
/o {
gsave
newpath
translate
0.6 setlinewidth
1 setlinejoin
0 setlinecap
0 0 m
-2 0 l

gsave
0.000 setgray
fill
grestore
stroke
grestore
} bind def
139.337 164.784 o
grestore
gsave
/o {
gsave
newpath
translate
0.6 setlinewidth
1 setlinejoin
0 setlinecap
0 0 m
-2 0 l

gsave
0.000 setgray
fill
grestore
stroke
grestore
} bind def
139.337 168.069 o
grestore
gsave
/o {
gsave
newpath
translate
0.6 setlinewidth
1 setlinejoin
0 setlinecap
0 0 m
-2 0 l

gsave
0.000 setgray
fill
grestore
stroke
grestore
} bind def
139.337 170.846 o
grestore
gsave
/o {
gsave
newpath
translate
0.6 setlinewidth
1 setlinejoin
0 setlinecap
0 0 m
-2 0 l

gsave
0.000 setgray
fill
grestore
stroke
grestore
} bind def
139.337 173.252 o
grestore
gsave
/o {
gsave
newpath
translate
0.6 setlinewidth
1 setlinejoin
0 setlinecap
0 0 m
-2 0 l

gsave
0.000 setgray
fill
grestore
stroke
grestore
} bind def
139.337 175.374 o
grestore
gsave
/o {
gsave
newpath
translate
0.6 setlinewidth
1 setlinejoin
0 setlinecap
0 0 m
-2 0 l

gsave
0.000 setgray
fill
grestore
stroke
grestore
} bind def
139.337 231.242 o
grestore
gsave
/o {
gsave
newpath
translate
0.6 setlinewidth
1 setlinejoin
0 setlinecap
0 0 m
-2 0 l

gsave
0.000 setgray
fill
grestore
stroke
grestore
} bind def
139.337 238.547 o
grestore
gsave
/o {
gsave
newpath
translate
0.6 setlinewidth
1 setlinejoin
0 setlinecap
0 0 m
-2 0 l

gsave
0.000 setgray
fill
grestore
stroke
grestore
} bind def
139.337 243.73 o
grestore
gsave
/o {
gsave
newpath
translate
0.6 setlinewidth
1 setlinejoin
0 setlinecap
0 0 m
-2 0 l

gsave
0.000 setgray
fill
grestore
stroke
grestore
} bind def
139.337 247.75 o
grestore
gsave
/o {
gsave
newpath
translate
0.6 setlinewidth
1 setlinejoin
0 setlinecap
0 0 m
-2 0 l

gsave
0.000 setgray
fill
grestore
stroke
grestore
} bind def
139.337 251.035 o
grestore
gsave
/o {
gsave
newpath
translate
0.6 setlinewidth
1 setlinejoin
0 setlinecap
0 0 m
-2 0 l

gsave
0.000 setgray
fill
grestore
stroke
grestore
} bind def
139.337 253.812 o
grestore
gsave
/o {
gsave
newpath
translate
0.6 setlinewidth
1 setlinejoin
0 setlinecap
0 0 m
-2 0 l

gsave
0.000 setgray
fill
grestore
stroke
grestore
} bind def
139.337 256.218 o
grestore
gsave
/o {
gsave
newpath
translate
0.6 setlinewidth
1 setlinejoin
0 setlinecap
0 0 m
-2 0 l

gsave
0.000 setgray
fill
grestore
stroke
grestore
} bind def
139.337 258.34 o
grestore
gsave
77.180893 110.264446 translate
90.000000 rotate
0.000000 0.000000 m /D glyphshow
15.400391 0.000000 m /s glyphshow
25.820312 0.000000 m /i glyphshow
31.376953 0.000000 m /t glyphshow
39.218750 0.000000 m /r glyphshow
47.441406 0.000000 m /i glyphshow
52.998047 0.000000 m /b glyphshow
65.693359 0.000000 m /u glyphshow
78.369141 0.000000 m /t glyphshow
86.210938 0.000000 m /i glyphshow
91.767578 0.000000 m /o glyphshow
104.003906 0.000000 m /n glyphshow
116.679688 0.000000 m /space glyphshow
123.037109 0.000000 m /parenleft glyphshow
130.839844 0.000000 m /percent glyphshow
149.843750 0.000000 m /parenright glyphshow
grestore
gsave
275.4 230.1 139.3 74.06 clipbox
186.217515 281.384424 m
206.318563 269.9124 l
220.580484 267.794245 l
231.642889 258.441543 l
240.681532 258.445965 l
248.323596 245.9672 l
254.943453 241.551612 l
260.782581 234.139205 l
266.005858 229.455061 l
270.730888 223.045056 l
275.044501 218.185346 l
279.012641 211.629223 l
282.686565 205.27972 l
286.106907 199.200976 l
289.306422 194.331477 l
292.311905 192.364164 l
295.14555 186.474746 l
297.825948 180.887054 l
300.368827 181.84387 l
302.787614 167.388949 l
305.093857 162.662245 l
307.297566 150.174638 l
309.407471 154.901342 l
311.431233 148.276483 l
313.375611 143.74885 l
315.246598 143.74885 l
317.049535 151.891728 l
318.789197 146.154526 l
320.469876 133.666919 l
322.095441 140.971701 l
323.669391 133.666919 l
325.194905 108.691705 l
326.674874 121.179312 l
328.11194 108.691705 l
329.508519 121.179312 l
330.866831 121.179312 l
332.188917 121.179312 l
333.476659 108.691705 l
334.731797 128.484094 l
335.95594 108.691705 l
337.150583 108.691705 l
339.456826 128.484094 l
340.570924 128.484094 l
341.660535 121.179312 l
343.77044 121.179312 l
344.792647 121.179312 l
345.794202 108.691705 l
346.775923 108.691705 l
349.609567 108.691705 l
350.519231 121.179312 l
353.152166 108.691705 l
353.999627 108.691705 l
354.832845 108.691705 l
355.65229 108.691705 l
357.251631 108.691705 l
358.032361 108.691705 l
360.303381 108.691705 l
363.178116 108.691705 l
373.253214 108.691705 l
grestore
1.000 setlinewidth
2 setlinejoin
0.122 0.467 0.706 setrgbcolor
gsave
275.4 230.1 139.3 74.06 clipbox
/o {
gsave
newpath
translate
1.0 setlinewidth
2 setlinejoin
0 setlinecap
0 6 m
-1.347084 1.854102 l
-5.706339 1.854102 l
-2.179628 -0.708204 l
-3.526712 -4.854102 l
-0 -2.291796 l
3.526712 -4.854102 l
2.179628 -0.708204 l
5.706339 1.854102 l
1.347084 1.854102 l
cl

gsave
0.122 0.467 0.706 setrgbcolor
fill
grestore
stroke
grestore
} bind def
186.218 281.384 o
206.319 269.912 o
220.58 267.794 o
231.643 258.442 o
240.682 258.446 o
248.324 245.967 o
254.943 241.552 o
260.783 234.139 o
266.006 229.455 o
270.731 223.045 o
275.045 218.185 o
279.013 211.629 o
282.687 205.28 o
286.107 199.201 o
289.306 194.331 o
292.312 192.364 o
295.146 186.475 o
297.826 180.887 o
300.369 181.844 o
302.788 167.389 o
305.094 162.662 o
307.298 150.175 o
309.407 154.901 o
311.431 148.276 o
313.376 143.749 o
315.247 143.749 o
317.05 151.892 o
318.789 146.155 o
320.47 133.667 o
322.095 140.972 o
323.669 133.667 o
325.195 108.692 o
326.675 121.179 o
328.112 108.692 o
329.509 121.179 o
330.867 121.179 o
332.189 121.179 o
333.477 108.692 o
334.732 128.484 o
335.956 108.692 o
337.151 108.692 o
339.457 128.484 o
340.571 128.484 o
341.661 121.179 o
343.77 121.179 o
344.793 121.179 o
345.794 108.692 o
346.776 108.692 o
349.61 108.692 o
350.519 121.179 o
353.152 108.692 o
354 108.692 o
354.833 108.692 o
355.652 108.692 o
357.252 108.692 o
358.032 108.692 o
360.303 108.692 o
363.178 108.692 o
373.253 108.692 o
grestore
gsave
275.4 230.1 139.3 74.06 clipbox
151.854545 284.980971 m
186.217515 269.785855 l
206.318563 271.600739 l
220.580484 262.545219 l
231.642889 250.901943 l
240.681532 239.824113 l
248.323596 227.288011 l
254.943453 217.120898 l
260.782581 208.395415 l
266.005858 198.485886 l
270.730888 194.16298 l
275.044501 183.695257 l
279.012641 183.695257 l
282.686565 166.912482 l
286.106907 163.902868 l
289.306422 158.165666 l
292.311905 152.982841 l
295.14555 145.678059 l
297.825948 120.702845 l
300.368827 145.678059 l
302.787614 145.678059 l
305.093857 120.702845 l
307.297566 120.702845 l
309.407471 133.190452 l
311.431233 120.702845 l
grestore
1 setlinejoin
1.000 0.498 0.055 setrgbcolor
gsave
275.4 230.1 139.3 74.06 clipbox
/o {
gsave
newpath
translate
1.0 setlinewidth
1 setlinejoin
0 setlinecap
0 -3.5 m
0.928211 -3.5 1.81853 -3.131218 2.474874 -2.474874 c
3.131218 -1.81853 3.5 -0.928211 3.5 0 c
3.5 0.928211 3.131218 1.81853 2.474874 2.474874 c
1.81853 3.131218 0.928211 3.5 0 3.5 c
-0.928211 3.5 -1.81853 3.131218 -2.474874 2.474874 c
-3.131218 1.81853 -3.5 0.928211 -3.5 0 c
-3.5 -0.928211 -3.131218 -1.81853 -2.474874 -2.474874 c
-1.81853 -3.131218 -0.928211 -3.5 0 -3.5 c
cl

gsave
1.000 0.498 0.055 setrgbcolor
fill
grestore
stroke
grestore
} bind def
151.855 284.981 o
186.218 269.786 o
206.319 271.601 o
220.58 262.545 o
231.643 250.902 o
240.682 239.824 o
248.324 227.288 o
254.943 217.121 o
260.783 208.395 o
266.006 198.486 o
270.731 194.163 o
275.045 183.695 o
279.013 183.695 o
282.687 166.912 o
286.107 163.903 o
289.306 158.166 o
292.312 152.983 o
295.146 145.678 o
297.826 120.703 o
300.369 145.678 o
302.788 145.678 o
305.094 120.703 o
307.298 120.703 o
309.407 133.19 o
311.431 120.703 o
grestore
gsave
275.4 230.1 139.3 74.06 clipbox
151.854545 289.853474 m
186.217515 277.082148 l
206.318563 262.40095 l
220.580484 250.548017 l
231.642889 236.315581 l
240.681532 223.520004 l
248.323596 211.643161 l
254.943453 210.400199 l
260.782581 162.855446 l
266.005858 175.343053 l
270.730888 191.850772 l
275.044501 162.855446 l
grestore
0 setlinejoin
0.173 0.627 0.173 setrgbcolor
gsave
275.4 230.1 139.3 74.06 clipbox
/o {
gsave
newpath
translate
1.0 setlinewidth
0 setlinejoin
0 setlinecap
-3.75 -7.5 m
0 -3.75 l
3.75 -7.5 l
7.5 -3.75 l
3.75 0 l
7.5 3.75 l
3.75 7.5 l
0 3.75 l
-3.75 7.5 l
-7.5 3.75 l
-3.75 0 l
-7.5 -3.75 l
cl

gsave
0.173 0.627 0.173 setrgbcolor
fill
grestore
stroke
grestore
} bind def
151.855 289.853 o
186.218 277.082 o
206.319 262.401 o
220.58 250.548 o
231.643 236.316 o
240.682 223.52 o
248.324 211.643 o
254.943 210.4 o
260.783 162.855 o
266.006 175.343 o
270.731 191.851 o
275.045 162.855 o
grestore
gsave
275.4 230.1 139.3 74.06 clipbox
151.854545 293.670234 m
186.217515 269.92463 l
206.318563 257.218766 l
220.580484 246.408505 l
231.642889 234.010842 l
240.681532 223.388163 l
248.323596 213.965469 l
254.943453 204.533611 l
260.782581 197.217307 l
266.005858 191.002692 l
270.730888 182.796932 l
275.044501 172.345533 l
279.012641 169.682625 l
282.686565 157.975045 l
286.106907 150.973057 l
289.306422 152.275972 l
292.311905 144.547269 l
295.14555 133.302624 l
297.825948 134.465338 l
300.368827 132.059662 l
302.787614 125.997842 l
305.093857 109.490123 l
307.297566 104.307298 l
309.407471 119.572055 l
311.431233 97.002516 l
313.375611 104.307298 l
315.246598 97.002516 l
317.049535 109.490123 l
318.789197 84.514909 l
323.669391 113.510235 l
325.194905 97.002516 l
326.674874 104.307298 l
329.508519 84.514909 l
330.866831 84.514909 l
332.188917 97.002516 l
333.476659 84.514909 l
334.731797 97.002516 l
335.95594 97.002516 l
337.150583 84.514909 l
339.456826 104.307298 l
340.570924 97.002516 l
341.660535 104.307298 l
343.77044 84.514909 l
344.792647 84.514909 l
345.794202 97.002516 l
346.775923 97.002516 l
349.609567 84.514909 l
350.519231 84.514909 l
351.412504 97.002516 l
358.800985 84.514909 l
360.303381 84.514909 l
362.474909 84.514909 l
364.555296 84.514909 l
365.2298 84.514909 l
365.89525 84.514909 l
367.839628 84.514909 l
369.710616 84.514909 l
370.318909 84.514909 l
373.253214 84.514909 l
373.819795 84.514909 l
374.379974 84.514909 l
377.08968 84.514909 l
378.133409 84.514909 l
402.202597 84.514909 l
grestore
0.839 0.153 0.157 setrgbcolor
gsave
275.4 230.1 139.3 74.06 clipbox
/o {
gsave
newpath
translate
1.0 setlinewidth
0 setlinejoin
0 setlinecap
-0 -3.5 m
3.5 3.5 l
-3.5 3.5 l
cl

gsave
0.839 0.153 0.157 setrgbcolor
fill
grestore
stroke
grestore
} bind def
151.855 293.67 o
186.218 269.925 o
206.319 257.219 o
220.58 246.409 o
231.643 234.011 o
240.682 223.388 o
248.324 213.965 o
254.943 204.534 o
260.783 197.217 o
266.006 191.003 o
270.731 182.797 o
275.045 172.346 o
279.013 169.683 o
282.687 157.975 o
286.107 150.973 o
289.306 152.276 o
292.312 144.547 o
295.146 133.303 o
297.826 134.465 o
300.369 132.06 o
302.788 125.998 o
305.094 109.49 o
307.298 104.307 o
309.407 119.572 o
311.431 97.0025 o
313.376 104.307 o
315.247 97.0025 o
317.05 109.49 o
318.789 84.5149 o
323.669 113.51 o
325.195 97.0025 o
326.675 104.307 o
329.509 84.5149 o
330.867 84.5149 o
332.189 97.0025 o
333.477 84.5149 o
334.732 97.0025 o
335.956 97.0025 o
337.151 84.5149 o
339.457 104.307 o
340.571 97.0025 o
341.661 104.307 o
343.77 84.5149 o
344.793 84.5149 o
345.794 97.0025 o
346.776 97.0025 o
349.61 84.5149 o
350.519 84.5149 o
351.413 97.0025 o
358.801 84.5149 o
360.303 84.5149 o
362.475 84.5149 o
364.555 84.5149 o
365.23 84.5149 o
365.895 84.5149 o
367.84 84.5149 o
369.711 84.5149 o
370.319 84.5149 o
373.253 84.5149 o
373.82 84.5149 o
374.38 84.5149 o
377.09 84.5149 o
378.133 84.5149 o
402.203 84.5149 o
grestore
0.800 setlinewidth
2 setlinecap
[] 0 setdash
0.000 setgray
gsave
139.337143 74.057143 m
139.337143 304.128 l
stroke
grestore
gsave
414.72 74.057143 m
414.72 304.128 l
stroke
grestore
gsave
139.337143 74.057143 m
414.72 74.057143 l
stroke
grestore
gsave
139.337143 304.128 m
414.72 304.128 l
stroke
grestore
1.000 setlinewidth
0 setlinecap
0.800 setgray
gsave
300.68875 204.0655 m
404.22 204.0655 l
406.22 204.0655 407.22 205.0655 407.22 207.0655 c
407.22 293.628 l
407.22 295.628 406.22 296.628 404.22 296.628 c
300.68875 296.628 l
298.68875 296.628 297.68875 295.628 297.68875 293.628 c
297.68875 207.0655 l
297.68875 205.0655 298.68875 204.0655 300.68875 204.0655 c
cl
gsave
1.000 setgray
fill
grestore
stroke
grestore
gsave
303.68875 284.487375 m
333.68875 284.487375 l
grestore
2 setlinejoin
[] 0 setdash
0.122 0.467 0.706 setrgbcolor
gsave
/o {
gsave
newpath
translate
1.0 setlinewidth
2 setlinejoin
0 setlinecap
0 6 m
-1.347084 1.854102 l
-5.706339 1.854102 l
-2.179628 -0.708204 l
-3.526712 -4.854102 l
-0 -2.291796 l
3.526712 -4.854102 l
2.179628 -0.708204 l
5.706339 1.854102 l
1.347084 1.854102 l
cl

gsave
0.122 0.467 0.706 setrgbcolor
fill
grestore
stroke
grestore
} bind def
318.689 284.487 o
grestore
0.000 setgray
/DejaVuSans findfont
15.000 scalefont
setfont
gsave
345.688750 279.237375 translate
0.000000 rotate
0.000000 0.000000 m /L glyphshow
8.356934 0.000000 m /o glyphshow
17.534180 0.000000 m /n glyphshow
27.041016 0.000000 m /d glyphshow
36.562500 0.000000 m /o glyphshow
45.739746 0.000000 m /n glyphshow
grestore
gsave
303.68875 262.47175 m
333.68875 262.47175 l
grestore
1 setlinejoin
1.000 0.498 0.055 setrgbcolor
gsave
/o {
gsave
newpath
translate
1.0 setlinewidth
1 setlinejoin
0 setlinecap
0 -3.5 m
0.928211 -3.5 1.81853 -3.131218 2.474874 -2.474874 c
3.131218 -1.81853 3.5 -0.928211 3.5 0 c
3.5 0.928211 3.131218 1.81853 2.474874 2.474874 c
1.81853 3.131218 0.928211 3.5 0 3.5 c
-0.928211 3.5 -1.81853 3.131218 -2.474874 2.474874 c
-3.131218 1.81853 -3.5 0.928211 -3.5 0 c
-3.5 -0.928211 -3.131218 -1.81853 -2.474874 -2.474874 c
-1.81853 -3.131218 -0.928211 -3.5 0 -3.5 c
cl

gsave
1.000 0.498 0.055 setrgbcolor
fill
grestore
stroke
grestore
} bind def
318.689 262.472 o
grestore
0.000 setgray
gsave
345.688750 257.221750 translate
0.000000 rotate
0.000000 0.000000 m /S glyphshow
9.521484 0.000000 m /y glyphshow
18.398438 0.000000 m /d glyphshow
27.919922 0.000000 m /n glyphshow
37.426758 0.000000 m /e glyphshow
46.655273 0.000000 m /y glyphshow
grestore
gsave
303.68875 240.456125 m
333.68875 240.456125 l
grestore
0 setlinejoin
0.173 0.627 0.173 setrgbcolor
gsave
/o {
gsave
newpath
translate
1.0 setlinewidth
0 setlinejoin
0 setlinecap
-3.75 -7.5 m
0 -3.75 l
3.75 -7.5 l
7.5 -3.75 l
3.75 0 l
7.5 3.75 l
3.75 7.5 l
0 3.75 l
-3.75 7.5 l
-7.5 3.75 l
-3.75 0 l
-7.5 -3.75 l
cl

gsave
0.173 0.627 0.173 setrgbcolor
fill
grestore
stroke
grestore
} bind def
318.689 240.456 o
grestore
0.000 setgray
gsave
345.688750 235.206125 translate
0.000000 rotate
0.000000 0.000000 m /D glyphshow
11.550293 0.000000 m /u glyphshow
21.057129 0.000000 m /b glyphshow
30.578613 0.000000 m /l glyphshow
34.746094 0.000000 m /i glyphshow
38.913574 0.000000 m /n glyphshow
grestore
gsave
303.68875 218.4405 m
333.68875 218.4405 l
grestore
0.839 0.153 0.157 setrgbcolor
gsave
/o {
gsave
newpath
translate
1.0 setlinewidth
0 setlinejoin
0 setlinecap
-0 -3.5 m
3.5 3.5 l
-3.5 3.5 l
cl

gsave
0.839 0.153 0.157 setrgbcolor
fill
grestore
stroke
grestore
} bind def
318.689 218.44 o
grestore
0.000 setgray
gsave
345.688750 213.190500 translate
0.000000 rotate
0.000000 0.000000 m /C glyphshow
10.473633 0.000000 m /A glyphshow
grestore

end
showpage
