%!PS-Adobe-3.0 EPSF-3.0
%%BoundingBox: 55 172 568 605
%%HiResBoundingBox: 55.968 172.383 567.906 604.896
%%Title: /media/sf_OneDrive/Research/projects/squark/squark/latex/vldb19/eps/keywordvstime.eps
%%Creator: matplotlib version 2.0.0, http://matplotlib.org/
%%CreationDate: Fri Apr 13 12:11:54 2018
%%Orientation: portrait
%%EndComments
%%BeginProlog
/mpldict 9 dict def
mpldict begin
/m { moveto } bind def
/l { lineto } bind def
/r { rlineto } bind def
/c { curveto } bind def
/cl { closepath } bind def
/box {
m
1 index 0 r
0 exch r
neg 0 r
cl
} bind def
/clipbox {
box
clip
newpath
} bind def
%!PS-Adobe-3.0 Resource-Font
%%Title: DejaVu Sans Oblique
%%Copyright: Copyright (c) 2003 by Bitstream, Inc. All Rights Reserved. Copyright (c) 2006 by Tavmjong Bah. All Rights Reserved. DejaVu changes are in public domain 
%%Creator: Converted from TrueType to type 3 by PPR
25 dict begin
/_d{bind def}bind def
/_m{moveto}_d
/_l{lineto}_d
/_cl{closepath eofill}_d
/_c{curveto}_d
/_sc{7 -1 roll{setcachedevice}{pop pop pop pop pop pop}ifelse}_d
/_e{exec}_d
/FontName /DejaVuSans-Oblique def
/PaintType 0 def
/FontMatrix[.001 0 0 .001 0 0]def
/FontBBox[-1016 -350 1659 1068]def
/FontType 3 def
/Encoding [ /epsilon ] def
/FontInfo 10 dict dup begin
/FamilyName (DejaVu Sans) def
/FullName (DejaVu Sans Oblique) def
/Notice (Copyright (c) 2003 by Bitstream, Inc. All Rights Reserved. Copyright (c) 2006 by Tavmjong Bah. All Rights Reserved. DejaVu changes are in public domain ) def
/Weight (Oblique) def
/Version (Version 2.35) def
/ItalicAngle -11.0 def
/isFixedPitch false def
/UnderlinePosition -130 def
/UnderlineThickness 90 def
end readonly def
/CharStrings 1 dict dup begin
/epsilon{{541 0 39 -13 506 561 _sc
197 295 _m
162 303 137 317 122 338 _c
110 353 104 371 104 391 _c
104 446 130 490 184 522 _c
225 548 278 561 342 561 _c
366 561 392 559 419 555 _c
446 551 475 545 505 537 _c
490 456 _l
460 465 432 472 407 476 _c
381 480 357 482 334 482 _c
295 482 263 474 238 460 _c
207 442 192 420 192 394 _c
192 376 200 362 216 350 _c
234 336 263 329 301 329 _c
}_e{376 329 _l
362 254 _l
290 254 _l
245 254 209 245 183 229 _c
147 207 129 178 129 143 _c
129 121 138 102 158 88 _c
182 70 218 61 268 61 _c
298 61 327 63 357 69 _c
385 75 412 85 438 97 _c
422 13 _l
390 4 361 -2 333 -6 _c
305 -10 277 -13 251 -13 _c
173 -13 117 1 81 30 _c
53 52 39 83 39 122 _c
39 174 57 216 94 248 _c
120 271 155 287 197 295 _c
_cl}_e}_d
end readonly def

/BuildGlyph
 {exch begin
 CharStrings exch
 2 copy known not{pop /.notdef}if
 true 3 1 roll get exec
 end}_d

/BuildChar {
 1 index /Encoding get exch get
 1 index /BuildGlyph get exec
}_d

FontName currentdict end definefont pop
%!PS-Adobe-3.0 Resource-Font
%%Title: DejaVu Sans
%%Copyright: Copyright (c) 2003 by Bitstream, Inc. All Rights Reserved. Copyright (c) 2006 by Tavmjong Bah. All Rights Reserved. DejaVu changes are in public domain 
%%Creator: Converted from TrueType to type 3 by PPR
25 dict begin
/_d{bind def}bind def
/_m{moveto}_d
/_l{lineto}_d
/_cl{closepath eofill}_d
/_c{curveto}_d
/_sc{7 -1 roll{setcachedevice}{pop pop pop pop pop pop}ifelse}_d
/_e{exec}_d
/FontName /DejaVuSans def
/PaintType 0 def
/FontMatrix[.001 0 0 .001 0 0]def
/FontBBox[-1021 -463 1793 1232]def
/FontType 3 def
/Encoding [ /space /parenleft /parenright /period /zero /one /two /three /four /five /equal /L /N /Q /S /X /b /c /d /e /f /g /i /k /m /n /o /r /s /t /u /y ] def
/FontInfo 10 dict dup begin
/FamilyName (DejaVu Sans) def
/FullName (DejaVu Sans) def
/Notice (Copyright (c) 2003 by Bitstream, Inc. All Rights Reserved. Copyright (c) 2006 by Tavmjong Bah. All Rights Reserved. DejaVu changes are in public domain ) def
/Weight (Book) def
/Version (Version 2.35) def
/ItalicAngle 0.0 def
/isFixedPitch false def
/UnderlinePosition -130 def
/UnderlineThickness 90 def
end readonly def
/CharStrings 32 dict dup begin
/space{318 0 0 0 0 0 _sc
}_d
/parenleft{390 0 86 -131 310 759 _sc
310 759 _m
266 683 234 609 213 536 _c
191 463 181 389 181 314 _c
181 238 191 164 213 91 _c
234 17 266 -56 310 -131 _c
232 -131 _l
183 -54 146 20 122 94 _c
98 168 86 241 86 314 _c
86 386 98 459 122 533 _c
146 607 182 682 232 759 _c
310 759 _l
_cl}_d
/parenright{390 0 80 -131 304 759 _sc
80 759 _m
158 759 _l
206 682 243 607 267 533 _c
291 459 304 386 304 314 _c
304 241 291 168 267 94 _c
243 20 206 -54 158 -131 _c
80 -131 _l
123 -56 155 17 177 91 _c
198 164 209 238 209 314 _c
209 389 198 463 177 536 _c
155 609 123 683 80 759 _c
_cl}_d
/period{318 0 107 0 210 124 _sc
107 124 _m
210 124 _l
210 0 _l
107 0 _l
107 124 _l
_cl}_d
/zero{636 0 66 -13 570 742 _sc
318 664 _m
267 664 229 639 203 589 _c
177 539 165 464 165 364 _c
165 264 177 189 203 139 _c
229 89 267 64 318 64 _c
369 64 407 89 433 139 _c
458 189 471 264 471 364 _c
471 464 458 539 433 589 _c
407 639 369 664 318 664 _c
318 742 _m
399 742 461 709 505 645 _c
548 580 570 486 570 364 _c
570 241 548 147 505 83 _c
461 19 399 -13 318 -13 _c
236 -13 173 19 130 83 _c
87 147 66 241 66 364 _c
66 486 87 580 130 645 _c
173 709 236 742 318 742 _c
_cl}_d
/one{636 0 110 0 544 729 _sc
124 83 _m
285 83 _l
285 639 _l
110 604 _l
110 694 _l
284 729 _l
383 729 _l
383 83 _l
544 83 _l
544 0 _l
124 0 _l
124 83 _l
_cl}_d
/two{{636 0 73 0 536 742 _sc
192 83 _m
536 83 _l
536 0 _l
73 0 _l
73 83 _l
110 121 161 173 226 239 _c
290 304 331 346 348 365 _c
380 400 402 430 414 455 _c
426 479 433 504 433 528 _c
433 566 419 598 392 622 _c
365 646 330 659 286 659 _c
255 659 222 653 188 643 _c
154 632 117 616 78 594 _c
78 694 _l
118 710 155 722 189 730 _c
223 738 255 742 284 742 _c
}_e{359 742 419 723 464 685 _c
509 647 532 597 532 534 _c
532 504 526 475 515 449 _c
504 422 484 390 454 354 _c
446 344 420 317 376 272 _c
332 227 271 164 192 83 _c
_cl}_e}_d
/three{{636 0 76 -13 556 742 _sc
406 393 _m
453 383 490 362 516 330 _c
542 298 556 258 556 212 _c
556 140 531 84 482 45 _c
432 6 362 -13 271 -13 _c
240 -13 208 -10 176 -4 _c
144 1 110 10 76 22 _c
76 117 _l
103 101 133 89 166 81 _c
198 73 232 69 268 69 _c
330 69 377 81 409 105 _c
441 129 458 165 458 212 _c
458 254 443 288 413 312 _c
383 336 341 349 287 349 _c
}_e{202 349 _l
202 430 _l
291 430 _l
339 430 376 439 402 459 _c
428 478 441 506 441 543 _c
441 580 427 609 401 629 _c
374 649 336 659 287 659 _c
260 659 231 656 200 650 _c
169 644 135 635 98 623 _c
98 711 _l
135 721 170 729 203 734 _c
235 739 266 742 296 742 _c
370 742 429 725 473 691 _c
517 657 539 611 539 553 _c
539 513 527 479 504 451 _c
481 423 448 403 406 393 _c
_cl}_e}_d
/four{636 0 49 0 580 729 _sc
378 643 _m
129 254 _l
378 254 _l
378 643 _l
352 729 _m
476 729 _l
476 254 _l
580 254 _l
580 172 _l
476 172 _l
476 0 _l
378 0 _l
378 172 _l
49 172 _l
49 267 _l
352 729 _l
_cl}_d
/five{{636 0 77 -13 549 729 _sc
108 729 _m
495 729 _l
495 646 _l
198 646 _l
198 467 _l
212 472 227 476 241 478 _c
255 480 270 482 284 482 _c
365 482 429 459 477 415 _c
525 370 549 310 549 234 _c
549 155 524 94 475 51 _c
426 8 357 -13 269 -13 _c
238 -13 207 -10 175 -6 _c
143 -1 111 6 77 17 _c
77 116 _l
106 100 136 88 168 80 _c
199 72 232 69 267 69 _c
}_e{323 69 368 83 401 113 _c
433 143 450 183 450 234 _c
450 284 433 324 401 354 _c
368 384 323 399 267 399 _c
241 399 214 396 188 390 _c
162 384 135 375 108 363 _c
108 729 _l
_cl}_e}_d
/equal{838 0 106 172 732 454 _sc
106 454 _m
732 454 _l
732 372 _l
106 372 _l
106 454 _l
106 255 _m
732 255 _l
732 172 _l
106 172 _l
106 255 _l
_cl}_d
/L{557 0 98 0 552 729 _sc
98 729 _m
197 729 _l
197 83 _l
552 83 _l
552 0 _l
98 0 _l
98 729 _l
_cl}_d
/N{748 0 98 0 650 729 _sc
98 729 _m
231 729 _l
554 119 _l
554 729 _l
650 729 _l
650 0 _l
517 0 _l
194 610 _l
194 0 _l
98 0 _l
98 729 _l
_cl}_d
/Q{{787 0 56 -128 731 742 _sc
394 662 _m
322 662 265 635 223 582 _c
181 528 160 456 160 364 _c
160 272 181 199 223 146 _c
265 92 322 66 394 66 _c
465 66 522 92 564 146 _c
606 199 627 272 627 364 _c
627 456 606 528 564 582 _c
522 635 465 662 394 662 _c
532 13 _m
662 -128 _l
543 -128 _l
435 -11 _l
424 -11 416 -12 410 -12 _c
404 -12 399 -13 394 -13 _c
291 -13 209 21 148 89 _c
}_e{86 157 56 248 56 364 _c
56 479 86 571 148 639 _c
209 707 291 742 394 742 _c
496 742 577 707 639 639 _c
700 571 731 479 731 364 _c
731 279 714 206 680 146 _c
646 86 596 41 532 13 _c
_cl}_e}_d
/S{{635 0 66 -13 579 742 _sc
535 705 _m
535 609 _l
497 627 462 640 429 649 _c
395 657 363 662 333 662 _c
279 662 237 651 208 631 _c
179 610 165 580 165 542 _c
165 510 174 485 194 469 _c
213 452 250 439 304 429 _c
364 417 _l
437 403 491 378 526 343 _c
561 307 579 260 579 201 _c
579 130 555 77 508 41 _c
460 5 391 -13 300 -13 _c
265 -13 228 -9 189 -2 _c
}_e{150 5 110 16 69 32 _c
69 134 _l
109 111 148 94 186 83 _c
224 71 262 66 300 66 _c
356 66 399 77 430 99 _c
460 121 476 152 476 194 _c
476 230 465 258 443 278 _c
421 298 385 313 335 323 _c
275 335 _l
201 349 148 372 115 404 _c
82 435 66 478 66 534 _c
66 598 88 649 134 686 _c
179 723 242 742 322 742 _c
356 742 390 739 426 733 _c
461 727 497 717 535 705 _c
}_e{_cl}_e}_d
/X{685 0 30 0 654 729 _sc
63 729 _m
169 729 _l
350 458 _l
532 729 _l
638 729 _l
404 379 _l
654 0 _l
548 0 _l
343 310 _l
136 0 _l
30 0 _l
290 389 _l
63 729 _l
_cl}_d
/b{{635 0 91 -13 580 760 _sc
487 273 _m
487 339 473 390 446 428 _c
418 466 381 485 334 485 _c
286 485 249 466 222 428 _c
194 390 181 339 181 273 _c
181 207 194 155 222 117 _c
249 79 286 61 334 61 _c
381 61 418 79 446 117 _c
473 155 487 207 487 273 _c
181 464 _m
199 496 223 520 252 536 _c
281 552 316 560 356 560 _c
422 560 476 533 518 481 _c
559 428 580 359 580 273 _c
}_e{580 187 559 117 518 65 _c
476 13 422 -13 356 -13 _c
316 -13 281 -5 252 10 _c
223 25 199 49 181 82 _c
181 0 _l
91 0 _l
91 760 _l
181 760 _l
181 464 _l
_cl}_e}_d
/c{{550 0 55 -13 488 560 _sc
488 526 _m
488 442 _l
462 456 437 466 411 473 _c
385 480 360 484 334 484 _c
276 484 230 465 198 428 _c
166 391 150 339 150 273 _c
150 206 166 154 198 117 _c
230 80 276 62 334 62 _c
360 62 385 65 411 72 _c
437 79 462 90 488 104 _c
488 21 _l
462 9 436 0 410 -5 _c
383 -10 354 -13 324 -13 _c
242 -13 176 12 128 64 _c
}_e{79 115 55 185 55 273 _c
55 362 79 432 128 483 _c
177 534 244 560 330 560 _c
358 560 385 557 411 551 _c
437 545 463 537 488 526 _c
_cl}_e}_d
/d{{635 0 55 -13 544 760 _sc
454 464 _m
454 760 _l
544 760 _l
544 0 _l
454 0 _l
454 82 _l
435 49 411 25 382 10 _c
353 -5 319 -13 279 -13 _c
213 -13 159 13 117 65 _c
75 117 55 187 55 273 _c
55 359 75 428 117 481 _c
159 533 213 560 279 560 _c
319 560 353 552 382 536 _c
411 520 435 496 454 464 _c
148 273 _m
148 207 161 155 188 117 _c
215 79 253 61 301 61 _c
}_e{348 61 385 79 413 117 _c
440 155 454 207 454 273 _c
454 339 440 390 413 428 _c
385 466 348 485 301 485 _c
253 485 215 466 188 428 _c
161 390 148 339 148 273 _c
_cl}_e}_d
/e{{615 0 55 -13 562 560 _sc
562 296 _m
562 252 _l
149 252 _l
153 190 171 142 205 110 _c
238 78 284 62 344 62 _c
378 62 412 66 444 74 _c
476 82 509 95 541 113 _c
541 28 _l
509 14 476 3 442 -3 _c
408 -9 373 -13 339 -13 _c
251 -13 182 12 131 62 _c
80 112 55 181 55 268 _c
55 357 79 428 127 481 _c
175 533 241 560 323 560 _c
397 560 455 536 498 489 _c
}_e{540 441 562 377 562 296 _c
472 322 _m
471 371 457 410 431 440 _c
404 469 368 484 324 484 _c
274 484 234 469 204 441 _c
174 413 156 373 152 322 _c
472 322 _l
_cl}_e}_d
/f{352 0 23 0 371 760 _sc
371 760 _m
371 685 _l
285 685 _l
253 685 230 678 218 665 _c
205 652 199 629 199 595 _c
199 547 _l
347 547 _l
347 477 _l
199 477 _l
199 0 _l
109 0 _l
109 477 _l
23 477 _l
23 547 _l
109 547 _l
109 585 _l
109 645 123 690 151 718 _c
179 746 224 760 286 760 _c
371 760 _l
_cl}_d
/g{{635 0 55 -207 544 560 _sc
454 280 _m
454 344 440 395 414 431 _c
387 467 349 485 301 485 _c
253 485 215 467 188 431 _c
161 395 148 344 148 280 _c
148 215 161 165 188 129 _c
215 93 253 75 301 75 _c
349 75 387 93 414 129 _c
440 165 454 215 454 280 _c
544 68 _m
544 -24 523 -93 482 -139 _c
440 -184 377 -207 292 -207 _c
260 -207 231 -204 203 -200 _c
175 -195 147 -188 121 -178 _c
}_e{121 -91 _l
147 -105 173 -115 199 -122 _c
225 -129 251 -133 278 -133 _c
336 -133 380 -117 410 -87 _c
439 -56 454 -10 454 52 _c
454 96 _l
435 64 411 40 382 24 _c
353 8 319 0 279 0 _c
211 0 157 25 116 76 _c
75 127 55 195 55 280 _c
55 364 75 432 116 483 _c
157 534 211 560 279 560 _c
319 560 353 552 382 536 _c
411 520 435 496 454 464 _c
454 547 _l
544 547 _l
}_e{544 68 _l
_cl}_e}_d
/i{278 0 94 0 184 760 _sc
94 547 _m
184 547 _l
184 0 _l
94 0 _l
94 547 _l
94 760 _m
184 760 _l
184 646 _l
94 646 _l
94 760 _l
_cl}_d
/k{579 0 91 0 576 760 _sc
91 760 _m
181 760 _l
181 311 _l
449 547 _l
564 547 _l
274 291 _l
576 0 _l
459 0 _l
181 267 _l
181 0 _l
91 0 _l
91 760 _l
_cl}_d
/m{{974 0 91 0 889 560 _sc
520 442 _m
542 482 569 511 600 531 _c
631 550 668 560 711 560 _c
767 560 811 540 842 500 _c
873 460 889 403 889 330 _c
889 0 _l
799 0 _l
799 327 _l
799 379 789 418 771 444 _c
752 469 724 482 686 482 _c
639 482 602 466 575 435 _c
548 404 535 362 535 309 _c
535 0 _l
445 0 _l
445 327 _l
445 379 435 418 417 444 _c
398 469 369 482 331 482 _c
}_e{285 482 248 466 221 435 _c
194 404 181 362 181 309 _c
181 0 _l
91 0 _l
91 547 _l
181 547 _l
181 462 _l
201 495 226 520 255 536 _c
283 552 317 560 357 560 _c
397 560 430 550 458 530 _c
486 510 506 480 520 442 _c
_cl}_e}_d
/n{634 0 91 0 549 560 _sc
549 330 _m
549 0 _l
459 0 _l
459 327 _l
459 379 448 417 428 443 _c
408 469 378 482 338 482 _c
289 482 251 466 223 435 _c
195 404 181 362 181 309 _c
181 0 _l
91 0 _l
91 547 _l
181 547 _l
181 462 _l
202 494 227 519 257 535 _c
286 551 320 560 358 560 _c
420 560 468 540 500 501 _c
532 462 549 405 549 330 _c
_cl}_d
/o{612 0 55 -13 557 560 _sc
306 484 _m
258 484 220 465 192 427 _c
164 389 150 338 150 273 _c
150 207 163 156 191 118 _c
219 80 257 62 306 62 _c
354 62 392 80 420 118 _c
448 156 462 207 462 273 _c
462 337 448 389 420 427 _c
392 465 354 484 306 484 _c
306 560 _m
384 560 445 534 490 484 _c
534 433 557 363 557 273 _c
557 183 534 113 490 63 _c
445 12 384 -13 306 -13 _c
227 -13 165 12 121 63 _c
77 113 55 183 55 273 _c
55 363 77 433 121 484 _c
165 534 227 560 306 560 _c
_cl}_d
/r{411 0 91 0 411 560 _sc
411 463 _m
401 469 390 473 378 476 _c
366 478 353 480 339 480 _c
288 480 249 463 222 430 _c
194 397 181 350 181 288 _c
181 0 _l
91 0 _l
91 547 _l
181 547 _l
181 462 _l
199 495 224 520 254 536 _c
284 552 321 560 365 560 _c
371 560 378 559 386 559 _c
393 558 401 557 411 555 _c
411 463 _l
_cl}_d
/s{{521 0 54 -13 472 560 _sc
443 531 _m
443 446 _l
417 458 391 468 364 475 _c
336 481 308 485 279 485 _c
234 485 200 478 178 464 _c
156 450 145 430 145 403 _c
145 382 153 366 169 354 _c
185 342 217 330 265 320 _c
296 313 _l
360 299 405 279 432 255 _c
458 230 472 195 472 151 _c
472 100 452 60 412 31 _c
372 1 316 -13 246 -13 _c
216 -13 186 -10 154 -5 _c
}_e{122 0 89 8 54 20 _c
54 113 _l
87 95 120 82 152 74 _c
184 65 216 61 248 61 _c
290 61 323 68 346 82 _c
368 96 380 117 380 144 _c
380 168 371 187 355 200 _c
339 213 303 226 247 238 _c
216 245 _l
160 257 119 275 95 299 _c
70 323 58 356 58 399 _c
58 450 76 490 112 518 _c
148 546 200 560 268 560 _c
301 560 332 557 362 552 _c
391 547 418 540 443 531 _c
}_e{_cl}_e}_d
/t{392 0 27 0 368 702 _sc
183 702 _m
183 547 _l
368 547 _l
368 477 _l
183 477 _l
183 180 _l
183 135 189 106 201 94 _c
213 81 238 75 276 75 _c
368 75 _l
368 0 _l
276 0 _l
206 0 158 13 132 39 _c
106 65 93 112 93 180 _c
93 477 _l
27 477 _l
27 547 _l
93 547 _l
93 702 _l
183 702 _l
_cl}_d
/u{634 0 85 -13 543 560 _sc
85 216 _m
85 547 _l
175 547 _l
175 219 _l
175 167 185 129 205 103 _c
225 77 255 64 296 64 _c
344 64 383 79 411 110 _c
439 141 453 183 453 237 _c
453 547 _l
543 547 _l
543 0 _l
453 0 _l
453 84 _l
431 50 405 26 377 10 _c
348 -5 315 -13 277 -13 _c
214 -13 166 6 134 45 _c
101 83 85 140 85 216 _c
311 560 _m
311 560 _l
_cl}_d
/y{592 0 30 -207 562 547 _sc
322 -50 _m
296 -114 271 -157 247 -177 _c
223 -197 191 -207 151 -207 _c
79 -207 _l
79 -132 _l
132 -132 _l
156 -132 175 -126 189 -114 _c
203 -102 218 -75 235 -31 _c
251 9 _l
30 547 _l
125 547 _l
296 119 _l
467 547 _l
562 547 _l
322 -50 _l
_cl}_d
end readonly def

/BuildGlyph
 {exch begin
 CharStrings exch
 2 copy known not{pop /.notdef}if
 true 3 1 roll get exec
 end}_d

/BuildChar {
 1 index /Encoding get exch get
 1 index /BuildGlyph get exec
}_d

FontName currentdict end definefont pop
end
%%EndProlog
mpldict begin
-5.04 130.68 translate
622.08 530.64 0 0 clipbox
gsave
0 0 m
622.08 0 l
622.08 530.64 l
0 530.64 l
cl
1.000 setgray
fill
grestore
gsave
139.227429 101.074286 m
559.872 101.074286 l
559.872 466.9632 l
139.227429 466.9632 l
cl
1.000 setgray
fill
grestore
0.800 setlinewidth
1 setlinejoin
0 setlinecap
[] 0 setdash
0.000 setgray
gsave
/o {
gsave
newpath
translate
0.8 setlinewidth
1 setlinejoin
0 setlinecap
0 0 m
0 -3.5 l

gsave
0.000 setgray
fill
grestore
stroke
grestore
} bind def
157.496 101.074 o
grestore
/DejaVuSans findfont
20.000 scalefont
setfont
gsave
151.136582 78.871161 translate
0.000000 rotate
0.000000 0.000000 m /zero glyphshow
grestore
gsave
/o {
gsave
newpath
translate
0.8 setlinewidth
1 setlinejoin
0 setlinecap
0 0 m
0 -3.5 l

gsave
0.000 setgray
fill
grestore
stroke
grestore
} bind def
242.664 101.074 o
grestore
gsave
229.945170 78.871161 translate
0.000000 rotate
0.000000 0.000000 m /one glyphshow
12.724609 0.000000 m /zero glyphshow
grestore
gsave
/o {
gsave
newpath
translate
0.8 setlinewidth
1 setlinejoin
0 setlinecap
0 0 m
0 -3.5 l

gsave
0.000 setgray
fill
grestore
stroke
grestore
} bind def
327.832 101.074 o
grestore
gsave
315.113134 78.871161 translate
0.000000 rotate
0.000000 0.000000 m /two glyphshow
12.724609 0.000000 m /zero glyphshow
grestore
gsave
/o {
gsave
newpath
translate
0.8 setlinewidth
1 setlinejoin
0 setlinecap
0 0 m
0 -3.5 l

gsave
0.000 setgray
fill
grestore
stroke
grestore
} bind def
413 101.074 o
grestore
gsave
400.281097 78.871161 translate
0.000000 rotate
0.000000 0.000000 m /three glyphshow
12.724609 0.000000 m /zero glyphshow
grestore
gsave
/o {
gsave
newpath
translate
0.8 setlinewidth
1 setlinejoin
0 setlinecap
0 0 m
0 -3.5 l

gsave
0.000 setgray
fill
grestore
stroke
grestore
} bind def
498.168 101.074 o
grestore
gsave
485.449060 78.871161 translate
0.000000 rotate
0.000000 0.000000 m /four glyphshow
12.724609 0.000000 m /zero glyphshow
grestore
/DejaVuSans findfont
30.000 scalefont
setfont
gsave
123.580964 47.918036 translate
0.000000 rotate
0.000000 0.000000 m /N glyphshow
22.441406 0.000000 m /u glyphshow
41.455078 0.000000 m /m glyphshow
70.678711 0.000000 m /b glyphshow
89.721680 0.000000 m /e glyphshow
108.178711 0.000000 m /r glyphshow
120.512695 0.000000 m /space glyphshow
130.048828 0.000000 m /o glyphshow
148.403320 0.000000 m /f glyphshow
158.964844 0.000000 m /space glyphshow
168.500977 0.000000 m /k glyphshow
185.858398 0.000000 m /e glyphshow
204.315430 0.000000 m /y glyphshow
222.069336 0.000000 m /n glyphshow
241.083008 0.000000 m /o glyphshow
259.437500 0.000000 m /d glyphshow
278.480469 0.000000 m /e glyphshow
296.937500 0.000000 m /s glyphshow
312.567383 0.000000 m /space glyphshow
322.103516 0.000000 m /parenleft glyphshow
333.807617 0.000000 m /X glyphshow
354.359375 0.000000 m /space glyphshow
363.895508 0.000000 m /one glyphshow
382.982422 0.000000 m /zero glyphshow
402.069336 0.000000 m /zero glyphshow
421.156250 0.000000 m /zero glyphshow
440.243164 0.000000 m /parenright glyphshow
grestore
gsave
/o {
gsave
newpath
translate
0.8 setlinewidth
1 setlinejoin
0 setlinecap
0 0 m
-3.5 0 l

gsave
0.000 setgray
fill
grestore
stroke
grestore
} bind def
139.227 101.074 o
grestore
/DejaVuSans findfont
20.000 scalefont
setfont
gsave
119.508679 93.472723 translate
0.000000 rotate
0.000000 0.000000 m /zero glyphshow
grestore
gsave
/o {
gsave
newpath
translate
0.8 setlinewidth
1 setlinejoin
0 setlinecap
0 0 m
-3.5 0 l

gsave
0.000 setgray
fill
grestore
stroke
grestore
} bind def
139.227 162.056 o
grestore
gsave
106.789929 154.454209 translate
0.000000 rotate
0.000000 0.000000 m /five glyphshow
12.724609 0.000000 m /zero glyphshow
grestore
gsave
/o {
gsave
newpath
translate
0.8 setlinewidth
1 setlinejoin
0 setlinecap
0 0 m
-3.5 0 l

gsave
0.000 setgray
fill
grestore
stroke
grestore
} bind def
139.227 223.037 o
grestore
gsave
94.071179 215.435695 translate
0.000000 rotate
0.000000 0.000000 m /one glyphshow
12.724609 0.000000 m /zero glyphshow
25.449219 0.000000 m /zero glyphshow
grestore
gsave
/o {
gsave
newpath
translate
0.8 setlinewidth
1 setlinejoin
0 setlinecap
0 0 m
-3.5 0 l

gsave
0.000 setgray
fill
grestore
stroke
grestore
} bind def
139.227 284.019 o
grestore
gsave
94.071179 276.417180 translate
0.000000 rotate
0.000000 0.000000 m /one glyphshow
12.724609 0.000000 m /five glyphshow
25.449219 0.000000 m /zero glyphshow
grestore
gsave
/o {
gsave
newpath
translate
0.8 setlinewidth
1 setlinejoin
0 setlinecap
0 0 m
-3.5 0 l

gsave
0.000 setgray
fill
grestore
stroke
grestore
} bind def
139.227 345 o
grestore
gsave
94.071179 337.398666 translate
0.000000 rotate
0.000000 0.000000 m /two glyphshow
12.724609 0.000000 m /zero glyphshow
25.449219 0.000000 m /zero glyphshow
grestore
gsave
/o {
gsave
newpath
translate
0.8 setlinewidth
1 setlinejoin
0 setlinecap
0 0 m
-3.5 0 l

gsave
0.000 setgray
fill
grestore
stroke
grestore
} bind def
139.227 405.982 o
grestore
gsave
94.071179 398.380152 translate
0.000000 rotate
0.000000 0.000000 m /two glyphshow
12.724609 0.000000 m /five glyphshow
25.449219 0.000000 m /zero glyphshow
grestore
gsave
/o {
gsave
newpath
translate
0.8 setlinewidth
1 setlinejoin
0 setlinecap
0 0 m
-3.5 0 l

gsave
0.000 setgray
fill
grestore
stroke
grestore
} bind def
139.227 466.963 o
grestore
gsave
94.071179 459.361638 translate
0.000000 rotate
0.000000 0.000000 m /three glyphshow
12.724609 0.000000 m /zero glyphshow
25.449219 0.000000 m /zero glyphshow
grestore
/DejaVuSans findfont
30.000 scalefont
setfont
gsave
83.836804 127.010930 translate
90.000000 rotate
0.000000 0.000000 m /Q glyphshow
23.613281 0.000000 m /u glyphshow
42.626953 0.000000 m /e glyphshow
61.083984 0.000000 m /r glyphshow
73.417969 0.000000 m /y glyphshow
91.171875 0.000000 m /i glyphshow
99.506836 0.000000 m /n glyphshow
118.520508 0.000000 m /g glyphshow
137.563477 0.000000 m /space glyphshow
147.099609 0.000000 m /t glyphshow
158.862305 0.000000 m /i glyphshow
167.197266 0.000000 m /m glyphshow
196.420898 0.000000 m /e glyphshow
214.877930 0.000000 m /space glyphshow
224.414062 0.000000 m /parenleft glyphshow
236.118164 0.000000 m /s glyphshow
251.748047 0.000000 m /e glyphshow
270.205078 0.000000 m /c glyphshow
286.699219 0.000000 m /s glyphshow
302.329102 0.000000 m /parenright glyphshow
grestore
5.000 setlinewidth
2 setlinecap
0.122 0.467 0.706 setrgbcolor
gsave
420.6 365.9 139.2 101.1 clipbox
158.347636 101.098678 m
166.012753 101.806064 l
242.66392 192.546514 l
327.831884 235.233554 l
stroke
grestore
1.000 setlinewidth
0 setlinecap
gsave
420.6 365.9 139.2 101.1 clipbox
/o {
gsave
newpath
translate
1.0 setlinewidth
1 setlinejoin
0 setlinecap
0 -16 m
4.24325 -16 8.313278 -14.314139 11.313708 -11.313708 c
14.314139 -8.313278 16 -4.24325 16 0 c
16 4.24325 14.314139 8.313278 11.313708 11.313708 c
8.313278 14.314139 4.24325 16 0 16 c
-4.24325 16 -8.313278 14.314139 -11.313708 11.313708 c
-14.314139 8.313278 -16 4.24325 -16 0 c
-16 -4.24325 -14.314139 -8.313278 -11.313708 -11.313708 c
-8.313278 -14.314139 -4.24325 -16 0 -16 c
cl

gsave
0.122 0.467 0.706 setrgbcolor
fill
grestore
stroke
grestore
} bind def
158.348 101.099 o
166.013 101.806 o
242.664 192.547 o
327.832 235.234 o
grestore
5.000 setlinewidth
[14 6] 0 setdash
1.000 0.498 0.055 setrgbcolor
gsave
420.6 365.9 139.2 101.1 clipbox
158.347636 101.097459 m
166.012753 101.287721 l
242.66392 104.12336 l
327.831884 104.733175 l
stroke
grestore
1.000 setlinewidth
[] 0 setdash
gsave
420.6 365.9 139.2 101.1 clipbox
/o {
gsave
newpath
translate
1.0 setlinewidth
1 setlinejoin
0 setlinecap
0 -16 m
4.24325 -16 8.313278 -14.314139 11.313708 -11.313708 c
14.314139 -8.313278 16 -4.24325 16 0 c
16 4.24325 14.314139 8.313278 11.313708 11.313708 c
8.313278 14.314139 4.24325 16 0 16 c
-4.24325 16 -8.313278 14.314139 -11.313708 11.313708 c
-14.314139 8.313278 -16 4.24325 -16 0 c
-16 -4.24325 -14.314139 -8.313278 -11.313708 -11.313708 c
-8.313278 -14.314139 -4.24325 -16 0 -16 c
cl

gsave
1.000 0.498 0.055 setrgbcolor
fill
grestore
stroke
grestore
} bind def
158.348 101.097 o
166.013 101.288 o
242.664 104.123 o
327.832 104.733 o
grestore
5.000 setlinewidth
2 setlinecap
0.173 0.627 0.173 setrgbcolor
gsave
420.6 365.9 139.2 101.1 clipbox
158.347636 101.220641 m
166.012753 102.537841 l
242.66392 125.46688 l
327.831884 149.859474 l
540.751792 160.836142 l
stroke
grestore
1.000 setlinewidth
2 setlinejoin
0 setlinecap
gsave
420.6 365.9 139.2 101.1 clipbox
/o {
gsave
newpath
translate
1.0 setlinewidth
2 setlinejoin
0 setlinecap
0 16 m
-3.592224 4.944272 l
-15.216904 4.944272 l
-5.81234 -1.888544 l
-9.404564 -12.944272 l
-0 -6.111456 l
9.404564 -12.944272 l
5.81234 -1.888544 l
15.216904 4.944272 l
3.592224 4.944272 l
cl

gsave
0.173 0.627 0.173 setrgbcolor
fill
grestore
stroke
grestore
} bind def
158.348 101.221 o
166.013 102.538 o
242.664 125.467 o
327.832 149.859 o
540.752 160.836 o
grestore
5.000 setlinewidth
1 setlinejoin
[14 6] 0 setdash
0.839 0.153 0.157 setrgbcolor
gsave
420.6 365.9 139.2 101.1 clipbox
158.347636 101.130389 m
166.012753 101.415782 l
242.66392 104.927096 l
327.831884 105.189316 l
540.751792 110.045882 l
stroke
grestore
1.000 setlinewidth
2 setlinejoin
[] 0 setdash
gsave
420.6 365.9 139.2 101.1 clipbox
/o {
gsave
newpath
translate
1.0 setlinewidth
2 setlinejoin
0 setlinecap
0 16 m
-3.592224 4.944272 l
-15.216904 4.944272 l
-5.81234 -1.888544 l
-9.404564 -12.944272 l
-0 -6.111456 l
9.404564 -12.944272 l
5.81234 -1.888544 l
15.216904 4.944272 l
3.592224 4.944272 l
cl

gsave
0.839 0.153 0.157 setrgbcolor
fill
grestore
stroke
grestore
} bind def
158.348 101.13 o
166.013 101.416 o
242.664 104.927 o
327.832 105.189 o
540.752 110.046 o
grestore
0.800 setlinewidth
0 setlinejoin
2 setlinecap
[] 0 setdash
0.000 setgray
gsave
139.227429 101.074286 m
139.227429 466.9632 l
stroke
grestore
gsave
559.872 101.074286 m
559.872 466.9632 l
stroke
grestore
gsave
139.227429 101.074286 m
559.872 101.074286 l
stroke
grestore
gsave
139.227429 466.9632 m
559.872 466.9632 l
stroke
grestore
1.000 setlinewidth
0 setlinecap
0.800 setgray
gsave
277.372 298.55695 m
542.372 298.55695 l
545.705333 298.55695 547.372 300.223617 547.372 303.55695 c
547.372 449.4632 l
547.372 452.796533 545.705333 454.4632 542.372 454.4632 c
277.372 454.4632 l
274.038667 454.4632 272.372 452.796533 272.372 449.4632 c
272.372 303.55695 l
272.372 300.223617 274.038667 298.55695 277.372 298.55695 c
cl
gsave
1.000 setgray
fill
grestore
stroke
grestore
5.000 setlinewidth
1 setlinejoin
2 setlinecap
[] 0 setdash
0.122 0.467 0.706 setrgbcolor
gsave
282.372 434.2132 m
332.372 434.2132 l
stroke
grestore
1.000 setlinewidth
0 setlinecap
gsave
/o {
gsave
newpath
translate
1.0 setlinewidth
1 setlinejoin
0 setlinecap
0 -16 m
4.24325 -16 8.313278 -14.314139 11.313708 -11.313708 c
14.314139 -8.313278 16 -4.24325 16 0 c
16 4.24325 14.314139 8.313278 11.313708 11.313708 c
8.313278 14.314139 4.24325 16 0 16 c
-4.24325 16 -8.313278 14.314139 -11.313708 11.313708 c
-14.314139 8.313278 -16 4.24325 -16 0 c
-16 -4.24325 -14.314139 -8.313278 -11.313708 -11.313708 c
-8.313278 -14.314139 -4.24325 -16 0 -16 c
cl

gsave
0.122 0.467 0.706 setrgbcolor
fill
grestore
stroke
grestore
} bind def
307.372 434.213 o
grestore
0.000 setgray
gsave
352.372000 425.463200 translate
0.000000 rotate
/DejaVuSans findfont
25.0 scalefont
setfont
0.000000 0.000000 moveto
/S glyphshow

15.869141 0.000000 moveto
/y glyphshow

30.664062 0.000000 moveto
/d glyphshow

46.533203 0.000000 moveto
/n glyphshow

62.377930 0.000000 moveto
/e glyphshow

77.758789 0.000000 moveto
/y glyphshow

92.553711 0.000000 moveto
/space glyphshow

/DejaVuSans-Oblique findfont
25.0 scalefont
setfont
100.500488 0.000000 moveto
/epsilon glyphshow

/DejaVuSans findfont
25.0 scalefont
setfont
118.884277 0.000000 moveto
/equal glyphshow

144.702148 0.000000 moveto
/zero glyphshow

160.607910 0.000000 moveto
/period glyphshow

168.554688 0.000000 moveto
/zero glyphshow


grestore
5.000 setlinewidth
[14 6] 0 setdash
1.000 0.498 0.055 setrgbcolor
gsave
282.372 396.7132 m
332.372 396.7132 l
stroke
grestore
1.000 setlinewidth
[] 0 setdash
gsave
/o {
gsave
newpath
translate
1.0 setlinewidth
1 setlinejoin
0 setlinecap
0 -16 m
4.24325 -16 8.313278 -14.314139 11.313708 -11.313708 c
14.314139 -8.313278 16 -4.24325 16 0 c
16 4.24325 14.314139 8.313278 11.313708 11.313708 c
8.313278 14.314139 4.24325 16 0 16 c
-4.24325 16 -8.313278 14.314139 -11.313708 11.313708 c
-14.314139 8.313278 -16 4.24325 -16 0 c
-16 -4.24325 -14.314139 -8.313278 -11.313708 -11.313708 c
-8.313278 -14.314139 -4.24325 -16 0 -16 c
cl

gsave
1.000 0.498 0.055 setrgbcolor
fill
grestore
stroke
grestore
} bind def
307.372 396.713 o
grestore
0.000 setgray
gsave
352.372000 387.963200 translate
0.000000 rotate
/DejaVuSans findfont
25.0 scalefont
setfont
0.000000 0.000000 moveto
/S glyphshow

15.869141 0.000000 moveto
/y glyphshow

30.664062 0.000000 moveto
/d glyphshow

46.533203 0.000000 moveto
/n glyphshow

62.377930 0.000000 moveto
/e glyphshow

77.758789 0.000000 moveto
/y glyphshow

92.553711 0.000000 moveto
/space glyphshow

/DejaVuSans-Oblique findfont
25.0 scalefont
setfont
100.500488 0.000000 moveto
/epsilon glyphshow

/DejaVuSans findfont
25.0 scalefont
setfont
118.884277 0.000000 moveto
/equal glyphshow

144.702148 0.000000 moveto
/zero glyphshow

160.607910 0.000000 moveto
/period glyphshow

168.539062 0.000000 moveto
/two glyphshow


grestore
5.000 setlinewidth
2 setlinecap
0.173 0.627 0.173 setrgbcolor
gsave
282.372 359.2132 m
332.372 359.2132 l
stroke
grestore
1.000 setlinewidth
2 setlinejoin
0 setlinecap
gsave
/o {
gsave
newpath
translate
1.0 setlinewidth
2 setlinejoin
0 setlinecap
0 16 m
-3.592224 4.944272 l
-15.216904 4.944272 l
-5.81234 -1.888544 l
-9.404564 -12.944272 l
-0 -6.111456 l
9.404564 -12.944272 l
5.81234 -1.888544 l
15.216904 4.944272 l
3.592224 4.944272 l
cl

gsave
0.173 0.627 0.173 setrgbcolor
fill
grestore
stroke
grestore
} bind def
307.372 359.213 o
grestore
0.000 setgray
gsave
352.372000 350.463200 translate
0.000000 rotate
/DejaVuSans findfont
25.0 scalefont
setfont
0.000000 0.000000 moveto
/L glyphshow

13.928223 0.000000 moveto
/o glyphshow

29.223633 0.000000 moveto
/n glyphshow

45.068359 0.000000 moveto
/d glyphshow

60.937500 0.000000 moveto
/o glyphshow

76.232910 0.000000 moveto
/n glyphshow

92.077637 0.000000 moveto
/space glyphshow

/DejaVuSans-Oblique findfont
25.0 scalefont
setfont
100.024414 0.000000 moveto
/epsilon glyphshow

/DejaVuSans findfont
25.0 scalefont
setfont
118.408203 0.000000 moveto
/equal glyphshow

144.226074 0.000000 moveto
/zero glyphshow

160.131836 0.000000 moveto
/period glyphshow

168.078613 0.000000 moveto
/zero glyphshow


grestore
5.000 setlinewidth
1 setlinejoin
[14 6] 0 setdash
0.839 0.153 0.157 setrgbcolor
gsave
282.372 322.510075 m
332.372 322.510075 l
stroke
grestore
1.000 setlinewidth
2 setlinejoin
[] 0 setdash
gsave
/o {
gsave
newpath
translate
1.0 setlinewidth
2 setlinejoin
0 setlinecap
0 16 m
-3.592224 4.944272 l
-15.216904 4.944272 l
-5.81234 -1.888544 l
-9.404564 -12.944272 l
-0 -6.111456 l
9.404564 -12.944272 l
5.81234 -1.888544 l
15.216904 4.944272 l
3.592224 4.944272 l
cl

gsave
0.839 0.153 0.157 setrgbcolor
fill
grestore
stroke
grestore
} bind def
307.372 322.51 o
grestore
0.000 setgray
gsave
352.372000 313.760075 translate
0.000000 rotate
/DejaVuSans findfont
25.0 scalefont
setfont
0.000000 0.000000 moveto
/L glyphshow

13.928223 0.000000 moveto
/o glyphshow

29.223633 0.000000 moveto
/n glyphshow

45.068359 0.000000 moveto
/d glyphshow

60.937500 0.000000 moveto
/o glyphshow

76.232910 0.000000 moveto
/n glyphshow

92.077637 0.000000 moveto
/space glyphshow

/DejaVuSans-Oblique findfont
25.0 scalefont
setfont
100.024414 0.000000 moveto
/epsilon glyphshow

/DejaVuSans findfont
25.0 scalefont
setfont
118.408203 0.000000 moveto
/equal glyphshow

144.226074 0.000000 moveto
/zero glyphshow

160.131836 0.000000 moveto
/period glyphshow

168.062988 0.000000 moveto
/two glyphshow


grestore

end
showpage
