%!PS-Adobe-3.0 EPSF-3.0
%%Title: /media/sf_OneDrive/Research/projects/squark/squark/latex/sigmod19/eps/landmarkpruning.eps
%%Creator: matplotlib version 2.1.1, http://matplotlib.org/
%%CreationDate: Sun Oct 14 20:42:37 2018
%%Orientation: portrait
%%BoundingBox: 75 223 536 568
%%EndComments
%%BeginProlog
/mpldict 8 dict def
mpldict begin
/m { moveto } bind def
/l { lineto } bind def
/r { rlineto } bind def
/c { curveto } bind def
/cl { closepath } bind def
/box {
m
1 index 0 r
0 exch r
neg 0 r
cl
} bind def
/clipbox {
box
clip
newpath
} bind def
%!PS-Adobe-3.0 Resource-Font
%%Title: DejaVu Sans
%%Copyright: Copyright (c) 2003 by Bitstream, Inc. All Rights Reserved. Copyright (c) 2006 by Tavmjong Bah. All Rights Reserved. DejaVu changes are in public domain 
%%Creator: Converted from TrueType to type 3 by PPR
25 dict begin
/_d{bind def}bind def
/_m{moveto}_d
/_l{lineto}_d
/_cl{closepath eofill}_d
/_c{curveto}_d
/_sc{7 -1 roll{setcachedevice}{pop pop pop pop pop pop}ifelse}_d
/_e{exec}_d
/FontName /DejaVuSans def
/PaintType 0 def
/FontMatrix[.001 0 0 .001 0 0]def
/FontBBox[-1021 -463 1793 1232]def
/FontType 3 def
/Encoding [ /space /period /zero /one /two /five /seven /F /L /N /P /R /S /a /b /d /e /f /i /k /l /m /n /o /r /s /t /u /v /y ] def
/FontInfo 10 dict dup begin
/FamilyName (DejaVu Sans) def
/FullName (DejaVu Sans) def
/Notice (Copyright (c) 2003 by Bitstream, Inc. All Rights Reserved. Copyright (c) 2006 by Tavmjong Bah. All Rights Reserved. DejaVu changes are in public domain ) def
/Weight (Book) def
/Version (Version 2.35) def
/ItalicAngle 0.0 def
/isFixedPitch false def
/UnderlinePosition -130 def
/UnderlineThickness 90 def
end readonly def
/CharStrings 31 dict dup begin
/.notdef 0 def
/space{318 0 0 0 0 0 _sc
}_d
/period{318 0 107 0 210 124 _sc
107 124 _m
210 124 _l
210 0 _l
107 0 _l
107 124 _l
_cl}_d
/zero{636 0 66 -13 570 742 _sc
318 664 _m
267 664 229 639 203 589 _c
177 539 165 464 165 364 _c
165 264 177 189 203 139 _c
229 89 267 64 318 64 _c
369 64 407 89 433 139 _c
458 189 471 264 471 364 _c
471 464 458 539 433 589 _c
407 639 369 664 318 664 _c
318 742 _m
399 742 461 709 505 645 _c
548 580 570 486 570 364 _c
570 241 548 147 505 83 _c
461 19 399 -13 318 -13 _c
236 -13 173 19 130 83 _c
87 147 66 241 66 364 _c
66 486 87 580 130 645 _c
173 709 236 742 318 742 _c
_cl}_d
/one{636 0 110 0 544 729 _sc
124 83 _m
285 83 _l
285 639 _l
110 604 _l
110 694 _l
284 729 _l
383 729 _l
383 83 _l
544 83 _l
544 0 _l
124 0 _l
124 83 _l
_cl}_d
/two{{636 0 73 0 536 742 _sc
192 83 _m
536 83 _l
536 0 _l
73 0 _l
73 83 _l
110 121 161 173 226 239 _c
290 304 331 346 348 365 _c
380 400 402 430 414 455 _c
426 479 433 504 433 528 _c
433 566 419 598 392 622 _c
365 646 330 659 286 659 _c
255 659 222 653 188 643 _c
154 632 117 616 78 594 _c
78 694 _l
118 710 155 722 189 730 _c
223 738 255 742 284 742 _c
}_e{359 742 419 723 464 685 _c
509 647 532 597 532 534 _c
532 504 526 475 515 449 _c
504 422 484 390 454 354 _c
446 344 420 317 376 272 _c
332 227 271 164 192 83 _c
_cl}_e}_d
/five{{636 0 77 -13 549 729 _sc
108 729 _m
495 729 _l
495 646 _l
198 646 _l
198 467 _l
212 472 227 476 241 478 _c
255 480 270 482 284 482 _c
365 482 429 459 477 415 _c
525 370 549 310 549 234 _c
549 155 524 94 475 51 _c
426 8 357 -13 269 -13 _c
238 -13 207 -10 175 -6 _c
143 -1 111 6 77 17 _c
77 116 _l
106 100 136 88 168 80 _c
199 72 232 69 267 69 _c
}_e{323 69 368 83 401 113 _c
433 143 450 183 450 234 _c
450 284 433 324 401 354 _c
368 384 323 399 267 399 _c
241 399 214 396 188 390 _c
162 384 135 375 108 363 _c
108 729 _l
_cl}_e}_d
/seven{636 0 82 0 551 729 _sc
82 729 _m
551 729 _l
551 687 _l
286 0 _l
183 0 _l
432 646 _l
82 646 _l
82 729 _l
_cl}_d
/F{575 0 98 0 517 729 _sc
98 729 _m
517 729 _l
517 646 _l
197 646 _l
197 431 _l
486 431 _l
486 348 _l
197 348 _l
197 0 _l
98 0 _l
98 729 _l
_cl}_d
/L{557 0 98 0 552 729 _sc
98 729 _m
197 729 _l
197 83 _l
552 83 _l
552 0 _l
98 0 _l
98 729 _l
_cl}_d
/N{748 0 98 0 650 729 _sc
98 729 _m
231 729 _l
554 119 _l
554 729 _l
650 729 _l
650 0 _l
517 0 _l
194 610 _l
194 0 _l
98 0 _l
98 729 _l
_cl}_d
/P{603 0 98 0 569 729 _sc
197 648 _m
197 374 _l
321 374 _l
367 374 402 385 427 409 _c
452 433 465 467 465 511 _c
465 555 452 588 427 612 _c
402 636 367 648 321 648 _c
197 648 _l
98 729 _m
321 729 _l
402 729 464 710 506 673 _c
548 636 569 582 569 511 _c
569 439 548 384 506 348 _c
464 311 402 293 321 293 _c
197 293 _l
197 0 _l
98 0 _l
98 729 _l
_cl}_d
/R{{695 0 98 0 666 729 _sc
444 342 _m
465 334 486 319 506 296 _c
526 272 546 240 566 199 _c
666 0 _l
560 0 _l
467 187 _l
443 235 419 268 397 284 _c
374 300 343 308 304 308 _c
197 308 _l
197 0 _l
98 0 _l
98 729 _l
321 729 _l
404 729 466 711 507 677 _c
548 642 569 589 569 519 _c
569 473 558 434 537 404 _c
515 374 484 353 444 342 _c
197 648 _m
197 389 _l
321 389 _l
}_e{368 389 404 400 428 422 _c
452 444 465 476 465 519 _c
465 561 452 593 428 615 _c
404 637 368 648 321 648 _c
197 648 _l
_cl}_e}_d
/S{{635 0 66 -13 579 742 _sc
535 705 _m
535 609 _l
497 627 462 640 429 649 _c
395 657 363 662 333 662 _c
279 662 237 651 208 631 _c
179 610 165 580 165 542 _c
165 510 174 485 194 469 _c
213 452 250 439 304 429 _c
364 417 _l
437 403 491 378 526 343 _c
561 307 579 260 579 201 _c
579 130 555 77 508 41 _c
460 5 391 -13 300 -13 _c
265 -13 228 -9 189 -2 _c
}_e{150 5 110 16 69 32 _c
69 134 _l
109 111 148 94 186 83 _c
224 71 262 66 300 66 _c
356 66 399 77 430 99 _c
460 121 476 152 476 194 _c
476 230 465 258 443 278 _c
421 298 385 313 335 323 _c
275 335 _l
201 349 148 372 115 404 _c
82 435 66 478 66 534 _c
66 598 88 649 134 686 _c
179 723 242 742 322 742 _c
356 742 390 739 426 733 _c
461 727 497 717 535 705 _c
}_e{_cl}_e}_d
/a{{613 0 60 -13 522 560 _sc
343 275 _m
270 275 220 266 192 250 _c
164 233 150 205 150 165 _c
150 133 160 107 181 89 _c
202 70 231 61 267 61 _c
317 61 357 78 387 114 _c
417 149 432 196 432 255 _c
432 275 _l
343 275 _l
522 312 _m
522 0 _l
432 0 _l
432 83 _l
411 49 385 25 355 10 _c
325 -5 287 -13 243 -13 _c
187 -13 142 2 109 33 _c
76 64 60 106 60 159 _c
}_e{60 220 80 266 122 298 _c
163 329 224 345 306 345 _c
432 345 _l
432 354 _l
432 395 418 427 391 450 _c
364 472 326 484 277 484 _c
245 484 215 480 185 472 _c
155 464 127 453 100 439 _c
100 522 _l
132 534 164 544 195 550 _c
226 556 256 560 286 560 _c
365 560 424 539 463 498 _c
502 457 522 395 522 312 _c
_cl}_e}_d
/b{{635 0 91 -13 580 760 _sc
487 273 _m
487 339 473 390 446 428 _c
418 466 381 485 334 485 _c
286 485 249 466 222 428 _c
194 390 181 339 181 273 _c
181 207 194 155 222 117 _c
249 79 286 61 334 61 _c
381 61 418 79 446 117 _c
473 155 487 207 487 273 _c
181 464 _m
199 496 223 520 252 536 _c
281 552 316 560 356 560 _c
422 560 476 533 518 481 _c
559 428 580 359 580 273 _c
}_e{580 187 559 117 518 65 _c
476 13 422 -13 356 -13 _c
316 -13 281 -5 252 10 _c
223 25 199 49 181 82 _c
181 0 _l
91 0 _l
91 760 _l
181 760 _l
181 464 _l
_cl}_e}_d
/d{{635 0 55 -13 544 760 _sc
454 464 _m
454 760 _l
544 760 _l
544 0 _l
454 0 _l
454 82 _l
435 49 411 25 382 10 _c
353 -5 319 -13 279 -13 _c
213 -13 159 13 117 65 _c
75 117 55 187 55 273 _c
55 359 75 428 117 481 _c
159 533 213 560 279 560 _c
319 560 353 552 382 536 _c
411 520 435 496 454 464 _c
148 273 _m
148 207 161 155 188 117 _c
215 79 253 61 301 61 _c
}_e{348 61 385 79 413 117 _c
440 155 454 207 454 273 _c
454 339 440 390 413 428 _c
385 466 348 485 301 485 _c
253 485 215 466 188 428 _c
161 390 148 339 148 273 _c
_cl}_e}_d
/e{{615 0 55 -13 562 560 _sc
562 296 _m
562 252 _l
149 252 _l
153 190 171 142 205 110 _c
238 78 284 62 344 62 _c
378 62 412 66 444 74 _c
476 82 509 95 541 113 _c
541 28 _l
509 14 476 3 442 -3 _c
408 -9 373 -13 339 -13 _c
251 -13 182 12 131 62 _c
80 112 55 181 55 268 _c
55 357 79 428 127 481 _c
175 533 241 560 323 560 _c
397 560 455 536 498 489 _c
}_e{540 441 562 377 562 296 _c
472 322 _m
471 371 457 410 431 440 _c
404 469 368 484 324 484 _c
274 484 234 469 204 441 _c
174 413 156 373 152 322 _c
472 322 _l
_cl}_e}_d
/f{352 0 23 0 371 760 _sc
371 760 _m
371 685 _l
285 685 _l
253 685 230 678 218 665 _c
205 652 199 629 199 595 _c
199 547 _l
347 547 _l
347 477 _l
199 477 _l
199 0 _l
109 0 _l
109 477 _l
23 477 _l
23 547 _l
109 547 _l
109 585 _l
109 645 123 690 151 718 _c
179 746 224 760 286 760 _c
371 760 _l
_cl}_d
/i{278 0 94 0 184 760 _sc
94 547 _m
184 547 _l
184 0 _l
94 0 _l
94 547 _l
94 760 _m
184 760 _l
184 646 _l
94 646 _l
94 760 _l
_cl}_d
/k{579 0 91 0 576 760 _sc
91 760 _m
181 760 _l
181 311 _l
449 547 _l
564 547 _l
274 291 _l
576 0 _l
459 0 _l
181 267 _l
181 0 _l
91 0 _l
91 760 _l
_cl}_d
/l{278 0 94 0 184 760 _sc
94 760 _m
184 760 _l
184 0 _l
94 0 _l
94 760 _l
_cl}_d
/m{{974 0 91 0 889 560 _sc
520 442 _m
542 482 569 511 600 531 _c
631 550 668 560 711 560 _c
767 560 811 540 842 500 _c
873 460 889 403 889 330 _c
889 0 _l
799 0 _l
799 327 _l
799 379 789 418 771 444 _c
752 469 724 482 686 482 _c
639 482 602 466 575 435 _c
548 404 535 362 535 309 _c
535 0 _l
445 0 _l
445 327 _l
445 379 435 418 417 444 _c
398 469 369 482 331 482 _c
}_e{285 482 248 466 221 435 _c
194 404 181 362 181 309 _c
181 0 _l
91 0 _l
91 547 _l
181 547 _l
181 462 _l
201 495 226 520 255 536 _c
283 552 317 560 357 560 _c
397 560 430 550 458 530 _c
486 510 506 480 520 442 _c
_cl}_e}_d
/n{634 0 91 0 549 560 _sc
549 330 _m
549 0 _l
459 0 _l
459 327 _l
459 379 448 417 428 443 _c
408 469 378 482 338 482 _c
289 482 251 466 223 435 _c
195 404 181 362 181 309 _c
181 0 _l
91 0 _l
91 547 _l
181 547 _l
181 462 _l
202 494 227 519 257 535 _c
286 551 320 560 358 560 _c
420 560 468 540 500 501 _c
532 462 549 405 549 330 _c
_cl}_d
/o{612 0 55 -13 557 560 _sc
306 484 _m
258 484 220 465 192 427 _c
164 389 150 338 150 273 _c
150 207 163 156 191 118 _c
219 80 257 62 306 62 _c
354 62 392 80 420 118 _c
448 156 462 207 462 273 _c
462 337 448 389 420 427 _c
392 465 354 484 306 484 _c
306 560 _m
384 560 445 534 490 484 _c
534 433 557 363 557 273 _c
557 183 534 113 490 63 _c
445 12 384 -13 306 -13 _c
227 -13 165 12 121 63 _c
77 113 55 183 55 273 _c
55 363 77 433 121 484 _c
165 534 227 560 306 560 _c
_cl}_d
/r{411 0 91 0 411 560 _sc
411 463 _m
401 469 390 473 378 476 _c
366 478 353 480 339 480 _c
288 480 249 463 222 430 _c
194 397 181 350 181 288 _c
181 0 _l
91 0 _l
91 547 _l
181 547 _l
181 462 _l
199 495 224 520 254 536 _c
284 552 321 560 365 560 _c
371 560 378 559 386 559 _c
393 558 401 557 411 555 _c
411 463 _l
_cl}_d
/s{{521 0 54 -13 472 560 _sc
443 531 _m
443 446 _l
417 458 391 468 364 475 _c
336 481 308 485 279 485 _c
234 485 200 478 178 464 _c
156 450 145 430 145 403 _c
145 382 153 366 169 354 _c
185 342 217 330 265 320 _c
296 313 _l
360 299 405 279 432 255 _c
458 230 472 195 472 151 _c
472 100 452 60 412 31 _c
372 1 316 -13 246 -13 _c
216 -13 186 -10 154 -5 _c
}_e{122 0 89 8 54 20 _c
54 113 _l
87 95 120 82 152 74 _c
184 65 216 61 248 61 _c
290 61 323 68 346 82 _c
368 96 380 117 380 144 _c
380 168 371 187 355 200 _c
339 213 303 226 247 238 _c
216 245 _l
160 257 119 275 95 299 _c
70 323 58 356 58 399 _c
58 450 76 490 112 518 _c
148 546 200 560 268 560 _c
301 560 332 557 362 552 _c
391 547 418 540 443 531 _c
}_e{_cl}_e}_d
/t{392 0 27 0 368 702 _sc
183 702 _m
183 547 _l
368 547 _l
368 477 _l
183 477 _l
183 180 _l
183 135 189 106 201 94 _c
213 81 238 75 276 75 _c
368 75 _l
368 0 _l
276 0 _l
206 0 158 13 132 39 _c
106 65 93 112 93 180 _c
93 477 _l
27 477 _l
27 547 _l
93 547 _l
93 702 _l
183 702 _l
_cl}_d
/u{634 0 85 -13 543 560 _sc
85 216 _m
85 547 _l
175 547 _l
175 219 _l
175 167 185 129 205 103 _c
225 77 255 64 296 64 _c
344 64 383 79 411 110 _c
439 141 453 183 453 237 _c
453 547 _l
543 547 _l
543 0 _l
453 0 _l
453 84 _l
431 50 405 26 377 10 _c
348 -5 315 -13 277 -13 _c
214 -13 166 6 134 45 _c
101 83 85 140 85 216 _c
311 560 _m
311 560 _l
_cl}_d
/v{592 0 30 0 562 547 _sc
30 547 _m
125 547 _l
296 88 _l
467 547 _l
562 547 _l
357 0 _l
235 0 _l
30 547 _l
_cl}_d
/y{592 0 30 -207 562 547 _sc
322 -50 _m
296 -114 271 -157 247 -177 _c
223 -197 191 -207 151 -207 _c
79 -207 _l
79 -132 _l
132 -132 _l
156 -132 175 -126 189 -114 _c
203 -102 218 -75 235 -31 _c
251 9 _l
30 547 _l
125 547 _l
296 119 _l
467 547 _l
562 547 _l
322 -50 _l
_cl}_d
end readonly def

/BuildGlyph
 {exch begin
 CharStrings exch
 2 copy known not{pop /.notdef}if
 true 3 1 roll get exec
 end}_d

/BuildChar {
 1 index /Encoding get exch get
 1 index /BuildGlyph get exec
}_d

FontName currentdict end definefont pop
end
%%EndProlog
mpldict begin
75.6 223.2 translate
460.8 345.6 0 0 clipbox
gsave
0 0 m
460.8 0 l
460.8 345.6 l
0 345.6 l
cl
1.000 setgray
fill
grestore
gsave
57.6 38.016 m
414.72 38.016 l
414.72 304.128 l
57.6 304.128 l
cl
1.000 setgray
fill
grestore
0.800 setlinewidth
1 setlinejoin
0 setlinecap
[] 0 setdash
0.000 setgray
gsave
/o {
gsave
newpath
translate
0.8 setlinewidth
1 setlinejoin
0 setlinecap
0 0 m
0 -3.5 l

gsave
0.000 setgray
fill
grestore
stroke
grestore
} bind def
159.634 38.016 o
grestore
/DejaVuSans findfont
30.000 scalefont
setfont
gsave
135.774911 8.219125 translate
0.000000 rotate
0.000000 0.000000 m /five glyphshow
19.086914 0.000000 m /period glyphshow
28.623047 0.000000 m /zero glyphshow
grestore
gsave
/o {
gsave
newpath
translate
0.8 setlinewidth
1 setlinejoin
0 setlinecap
0 0 m
0 -3.5 l

gsave
0.000 setgray
fill
grestore
stroke
grestore
} bind def
287.177 38.016 o
grestore
gsave
263.317768 8.219125 translate
0.000000 rotate
0.000000 0.000000 m /seven glyphshow
19.086914 0.000000 m /period glyphshow
28.623047 0.000000 m /five glyphshow
grestore
gsave
/o {
gsave
newpath
translate
0.8 setlinewidth
1 setlinejoin
0 setlinecap
0 0 m
0 -3.5 l

gsave
0.000 setgray
fill
grestore
stroke
grestore
} bind def
414.72 38.016 o
grestore
gsave
381.313750 8.219125 translate
0.000000 rotate
0.000000 0.000000 m /one glyphshow
19.086914 0.000000 m /zero glyphshow
38.173828 0.000000 m /period glyphshow
47.709961 0.000000 m /zero glyphshow
grestore
gsave
73.050625 -24.812125 translate
0.000000 rotate
0.000000 0.000000 m /N glyphshow
22.441406 0.000000 m /u glyphshow
41.455078 0.000000 m /m glyphshow
70.678711 0.000000 m /b glyphshow
89.721680 0.000000 m /e glyphshow
108.178711 0.000000 m /r glyphshow
120.512695 0.000000 m /space glyphshow
130.048828 0.000000 m /o glyphshow
148.403320 0.000000 m /f glyphshow
158.964844 0.000000 m /space glyphshow
168.500977 0.000000 m /l glyphshow
176.835938 0.000000 m /a glyphshow
195.219727 0.000000 m /n glyphshow
214.233398 0.000000 m /d glyphshow
233.276367 0.000000 m /m glyphshow
262.500000 0.000000 m /a glyphshow
280.883789 0.000000 m /r glyphshow
293.217773 0.000000 m /k glyphshow
310.590820 0.000000 m /s glyphshow
grestore
gsave
/o {
gsave
newpath
translate
0.8 setlinewidth
1 setlinejoin
0 setlinecap
0 0 m
-3.5 0 l

gsave
0.000 setgray
fill
grestore
stroke
grestore
} bind def
57.6 38.016 o
grestore
gsave
-16.212500 26.617562 translate
0.000000 rotate
0.000000 0.000000 m /zero glyphshow
19.086914 0.000000 m /period glyphshow
28.623047 0.000000 m /zero glyphshow
47.709961 0.000000 m /zero glyphshow
grestore
gsave
/o {
gsave
newpath
translate
0.8 setlinewidth
1 setlinejoin
0 setlinecap
0 0 m
-3.5 0 l

gsave
0.000 setgray
fill
grestore
stroke
grestore
} bind def
57.6 104.544 o
grestore
gsave
-16.212500 93.145562 translate
0.000000 rotate
0.000000 0.000000 m /zero glyphshow
19.086914 0.000000 m /period glyphshow
28.623047 0.000000 m /two glyphshow
47.709961 0.000000 m /five glyphshow
grestore
gsave
/o {
gsave
newpath
translate
0.8 setlinewidth
1 setlinejoin
0 setlinecap
0 0 m
-3.5 0 l

gsave
0.000 setgray
fill
grestore
stroke
grestore
} bind def
57.6 171.072 o
grestore
gsave
-16.212500 159.673562 translate
0.000000 rotate
0.000000 0.000000 m /zero glyphshow
19.086914 0.000000 m /period glyphshow
28.623047 0.000000 m /five glyphshow
47.709961 0.000000 m /zero glyphshow
grestore
gsave
/o {
gsave
newpath
translate
0.8 setlinewidth
1 setlinejoin
0 setlinecap
0 0 m
-3.5 0 l

gsave
0.000 setgray
fill
grestore
stroke
grestore
} bind def
57.6 237.6 o
grestore
gsave
-16.212500 226.201562 translate
0.000000 rotate
0.000000 0.000000 m /zero glyphshow
19.086914 0.000000 m /period glyphshow
28.623047 0.000000 m /seven glyphshow
47.709961 0.000000 m /five glyphshow
grestore
gsave
/o {
gsave
newpath
translate
0.8 setlinewidth
1 setlinejoin
0 setlinecap
0 0 m
-3.5 0 l

gsave
0.000 setgray
fill
grestore
stroke
grestore
} bind def
57.6 304.128 o
grestore
gsave
-16.212500 292.729562 translate
0.000000 rotate
0.000000 0.000000 m /one glyphshow
19.086914 0.000000 m /period glyphshow
28.623047 0.000000 m /zero glyphshow
47.709961 0.000000 m /zero glyphshow
grestore
gsave
-26.446875 29.439187 translate
90.000000 rotate
0.000000 0.000000 m /F glyphshow
17.224609 0.000000 m /a glyphshow
35.608398 0.000000 m /l glyphshow
43.943359 0.000000 m /s glyphshow
59.573242 0.000000 m /e glyphshow
78.030273 0.000000 m /space glyphshow
87.566406 0.000000 m /P glyphshow
105.641602 0.000000 m /o glyphshow
123.996094 0.000000 m /s glyphshow
139.625977 0.000000 m /i glyphshow
147.960938 0.000000 m /t glyphshow
159.723633 0.000000 m /i glyphshow
168.058594 0.000000 m /v glyphshow
185.812500 0.000000 m /e glyphshow
204.269531 0.000000 m /space glyphshow
213.805664 0.000000 m /R glyphshow
234.650391 0.000000 m /a glyphshow
253.034180 0.000000 m /t glyphshow
264.796875 0.000000 m /e glyphshow
grestore
5.000 setlinewidth
2 setlinecap
0.122 0.467 0.706 setrgbcolor
gsave
357.1 266.1 57.6 38.02 clipbox
108.617143 72.61056 m
159.634286 77.9328 l
210.651429 80.59392 l
261.668571 80.59392 l
414.72 80.59392 l
stroke
grestore
1.000 setlinewidth
0 setlinecap
gsave
357.1 266.1 57.6 38.02 clipbox
/o {
gsave
newpath
translate
1.0 setlinewidth
1 setlinejoin
0 setlinecap
0 -16 m
4.24325 -16 8.313278 -14.314139 11.313708 -11.313708 c
14.314139 -8.313278 16 -4.24325 16 0 c
16 4.24325 14.314139 8.313278 11.313708 11.313708 c
8.313278 14.314139 4.24325 16 0 16 c
-4.24325 16 -8.313278 14.314139 -11.313708 11.313708 c
-14.314139 8.313278 -16 4.24325 -16 0 c
-16 -4.24325 -14.314139 -8.313278 -11.313708 -11.313708 c
-8.313278 -14.314139 -4.24325 -16 0 -16 c
cl

gsave
0.122 0.467 0.706 setrgbcolor
fill
grestore
stroke
grestore
} bind def
108.617 72.6106 o
159.634 77.9328 o
210.651 80.5939 o
261.669 80.5939 o
414.72 80.5939 o
grestore
5.000 setlinewidth
2 setlinecap
1.000 0.498 0.055 setrgbcolor
gsave
357.1 266.1 57.6 38.02 clipbox
108.617143 85.91616 m
159.634286 83.25504 l
210.651429 85.91616 l
261.668571 72.61056 l
414.72 72.61056 l
stroke
grestore
1.000 setlinewidth
2 setlinejoin
0 setlinecap
gsave
357.1 266.1 57.6 38.02 clipbox
/o {
gsave
newpath
translate
1.0 setlinewidth
2 setlinejoin
0 setlinecap
0 16 m
-3.592224 4.944272 l
-15.216904 4.944272 l
-5.81234 -1.888544 l
-9.404564 -12.944272 l
-0 -6.111456 l
9.404564 -12.944272 l
5.81234 -1.888544 l
15.216904 4.944272 l
3.592224 4.944272 l
cl

gsave
1.000 0.498 0.055 setrgbcolor
fill
grestore
stroke
grestore
} bind def
108.617 85.9162 o
159.634 83.255 o
210.651 85.9162 o
261.669 72.6106 o
414.72 72.6106 o
grestore
0.800 setlinewidth
0 setlinejoin
2 setlinecap
[] 0 setdash
0.000 setgray
gsave
57.6 38.016 m
57.6 304.128 l
stroke
grestore
gsave
414.72 38.016 m
414.72 304.128 l
stroke
grestore
gsave
57.6 38.016 m
414.72 38.016 l
stroke
grestore
gsave
57.6 304.128 m
414.72 304.128 l
stroke
grestore
1.000 setlinewidth
0 setlinecap
0.800 setgray
gsave
224.6575 210.72175 m
397.22 210.72175 l
400.553333 210.72175 402.22 212.388417 402.22 215.72175 c
402.22 286.628 l
402.22 289.961333 400.553333 291.628 397.22 291.628 c
224.6575 291.628 l
221.324167 291.628 219.6575 289.961333 219.6575 286.628 c
219.6575 215.72175 l
219.6575 212.388417 221.324167 210.72175 224.6575 210.72175 c
cl
gsave
1.000 setgray
fill
grestore
stroke
grestore
5.000 setlinewidth
1 setlinejoin
2 setlinecap
[] 0 setdash
0.122 0.467 0.706 setrgbcolor
gsave
229.6575 271.378 m
279.6575 271.378 l
stroke
grestore
1.000 setlinewidth
0 setlinecap
gsave
/o {
gsave
newpath
translate
1.0 setlinewidth
1 setlinejoin
0 setlinecap
0 -16 m
4.24325 -16 8.313278 -14.314139 11.313708 -11.313708 c
14.314139 -8.313278 16 -4.24325 16 0 c
16 4.24325 14.314139 8.313278 11.313708 11.313708 c
8.313278 14.314139 4.24325 16 0 16 c
-4.24325 16 -8.313278 14.314139 -11.313708 11.313708 c
-14.314139 8.313278 -16 4.24325 -16 0 c
-16 -4.24325 -14.314139 -8.313278 -11.313708 -11.313708 c
-8.313278 -14.314139 -4.24325 -16 0 -16 c
cl

gsave
0.122 0.467 0.706 setrgbcolor
fill
grestore
stroke
grestore
} bind def
254.657 271.378 o
grestore
0.000 setgray
/DejaVuSans findfont
25.000 scalefont
setfont
gsave
299.657500 262.628000 translate
0.000000 rotate
0.000000 0.000000 m /S glyphshow
15.869141 0.000000 m /y glyphshow
30.664062 0.000000 m /d glyphshow
46.533203 0.000000 m /n glyphshow
62.377930 0.000000 m /e glyphshow
77.758789 0.000000 m /y glyphshow
grestore
5.000 setlinewidth
2 setlinecap
1.000 0.498 0.055 setrgbcolor
gsave
229.6575 234.674875 m
279.6575 234.674875 l
stroke
grestore
1.000 setlinewidth
2 setlinejoin
0 setlinecap
gsave
/o {
gsave
newpath
translate
1.0 setlinewidth
2 setlinejoin
0 setlinecap
0 16 m
-3.592224 4.944272 l
-15.216904 4.944272 l
-5.81234 -1.888544 l
-9.404564 -12.944272 l
-0 -6.111456 l
9.404564 -12.944272 l
5.81234 -1.888544 l
15.216904 4.944272 l
3.592224 4.944272 l
cl

gsave
1.000 0.498 0.055 setrgbcolor
fill
grestore
stroke
grestore
} bind def
254.657 234.675 o
grestore
0.000 setgray
gsave
299.657500 225.924875 translate
0.000000 rotate
0.000000 0.000000 m /L glyphshow
13.928223 0.000000 m /o glyphshow
29.223633 0.000000 m /n glyphshow
45.068359 0.000000 m /d glyphshow
60.937500 0.000000 m /o glyphshow
76.232910 0.000000 m /n glyphshow
grestore

end
showpage
