%!PS-Adobe-3.0 EPSF-3.0
%%BoundingBox: 122 201 570 601
%%HiResBoundingBox: 122.874 201.786 569.490 600.124
%%Title: /media/sf_OneDrive/Research/projects/squark/squark/latex/vldb19/eps/landmarkvstime.eps
%%Creator: matplotlib version 2.0.0, http://matplotlib.org/
%%CreationDate: Fri Apr 13 10:56:04 2018
%%Orientation: portrait
%%EndComments
%%BeginProlog
/mpldict 9 dict def
mpldict begin
/m { moveto } bind def
/l { lineto } bind def
/r { rlineto } bind def
/c { curveto } bind def
/cl { closepath } bind def
/box {
m
1 index 0 r
0 exch r
neg 0 r
cl
} bind def
/clipbox {
box
clip
newpath
} bind def
%!PS-Adobe-3.0 Resource-Font
%%Title: DejaVu Sans Oblique
%%Copyright: Copyright (c) 2003 by Bitstream, Inc. All Rights Reserved. Copyright (c) 2006 by Tavmjong Bah. All Rights Reserved. DejaVu changes are in public domain 
%%Creator: Converted from TrueType to type 3 by PPR
25 dict begin
/_d{bind def}bind def
/_m{moveto}_d
/_l{lineto}_d
/_cl{closepath eofill}_d
/_c{curveto}_d
/_sc{7 -1 roll{setcachedevice}{pop pop pop pop pop pop}ifelse}_d
/_e{exec}_d
/FontName /DejaVuSans-Oblique def
/PaintType 0 def
/FontMatrix[.001 0 0 .001 0 0]def
/FontBBox[-1016 -350 1659 1068]def
/FontType 3 def
/Encoding [ /epsilon ] def
/FontInfo 10 dict dup begin
/FamilyName (DejaVu Sans) def
/FullName (DejaVu Sans Oblique) def
/Notice (Copyright (c) 2003 by Bitstream, Inc. All Rights Reserved. Copyright (c) 2006 by Tavmjong Bah. All Rights Reserved. DejaVu changes are in public domain ) def
/Weight (Oblique) def
/Version (Version 2.35) def
/ItalicAngle -11.0 def
/isFixedPitch false def
/UnderlinePosition -130 def
/UnderlineThickness 90 def
end readonly def
/CharStrings 1 dict dup begin
/epsilon{{541 0 39 -13 506 561 _sc
197 295 _m
162 303 137 317 122 338 _c
110 353 104 371 104 391 _c
104 446 130 490 184 522 _c
225 548 278 561 342 561 _c
366 561 392 559 419 555 _c
446 551 475 545 505 537 _c
490 456 _l
460 465 432 472 407 476 _c
381 480 357 482 334 482 _c
295 482 263 474 238 460 _c
207 442 192 420 192 394 _c
192 376 200 362 216 350 _c
234 336 263 329 301 329 _c
}_e{376 329 _l
362 254 _l
290 254 _l
245 254 209 245 183 229 _c
147 207 129 178 129 143 _c
129 121 138 102 158 88 _c
182 70 218 61 268 61 _c
298 61 327 63 357 69 _c
385 75 412 85 438 97 _c
422 13 _l
390 4 361 -2 333 -6 _c
305 -10 277 -13 251 -13 _c
173 -13 117 1 81 30 _c
53 52 39 83 39 122 _c
39 174 57 216 94 248 _c
120 271 155 287 197 295 _c
_cl}_e}_d
end readonly def

/BuildGlyph
 {exch begin
 CharStrings exch
 2 copy known not{pop /.notdef}if
 true 3 1 roll get exec
 end}_d

/BuildChar {
 1 index /Encoding get exch get
 1 index /BuildGlyph get exec
}_d

FontName currentdict end definefont pop
%!PS-Adobe-3.0 Resource-Font
%%Title: DejaVu Sans
%%Copyright: Copyright (c) 2003 by Bitstream, Inc. All Rights Reserved. Copyright (c) 2006 by Tavmjong Bah. All Rights Reserved. DejaVu changes are in public domain 
%%Creator: Converted from TrueType to type 3 by PPR
25 dict begin
/_d{bind def}bind def
/_m{moveto}_d
/_l{lineto}_d
/_cl{closepath eofill}_d
/_c{curveto}_d
/_sc{7 -1 roll{setcachedevice}{pop pop pop pop pop pop}ifelse}_d
/_e{exec}_d
/FontName /DejaVuSans def
/PaintType 0 def
/FontMatrix[.001 0 0 .001 0 0]def
/FontBBox[-1021 -463 1793 1232]def
/FontType 3 def
/Encoding [ /space /parenleft /parenright /period /zero /one /two /four /six /eight /equal /L /N /Q /S /X /a /b /c /d /e /f /g /i /k /l /m /n /o /r /s /t /u /y ] def
/FontInfo 10 dict dup begin
/FamilyName (DejaVu Sans) def
/FullName (DejaVu Sans) def
/Notice (Copyright (c) 2003 by Bitstream, Inc. All Rights Reserved. Copyright (c) 2006 by Tavmjong Bah. All Rights Reserved. DejaVu changes are in public domain ) def
/Weight (Book) def
/Version (Version 2.35) def
/ItalicAngle 0.0 def
/isFixedPitch false def
/UnderlinePosition -130 def
/UnderlineThickness 90 def
end readonly def
/CharStrings 34 dict dup begin
/space{318 0 0 0 0 0 _sc
}_d
/parenleft{390 0 86 -131 310 759 _sc
310 759 _m
266 683 234 609 213 536 _c
191 463 181 389 181 314 _c
181 238 191 164 213 91 _c
234 17 266 -56 310 -131 _c
232 -131 _l
183 -54 146 20 122 94 _c
98 168 86 241 86 314 _c
86 386 98 459 122 533 _c
146 607 182 682 232 759 _c
310 759 _l
_cl}_d
/parenright{390 0 80 -131 304 759 _sc
80 759 _m
158 759 _l
206 682 243 607 267 533 _c
291 459 304 386 304 314 _c
304 241 291 168 267 94 _c
243 20 206 -54 158 -131 _c
80 -131 _l
123 -56 155 17 177 91 _c
198 164 209 238 209 314 _c
209 389 198 463 177 536 _c
155 609 123 683 80 759 _c
_cl}_d
/period{318 0 107 0 210 124 _sc
107 124 _m
210 124 _l
210 0 _l
107 0 _l
107 124 _l
_cl}_d
/zero{636 0 66 -13 570 742 _sc
318 664 _m
267 664 229 639 203 589 _c
177 539 165 464 165 364 _c
165 264 177 189 203 139 _c
229 89 267 64 318 64 _c
369 64 407 89 433 139 _c
458 189 471 264 471 364 _c
471 464 458 539 433 589 _c
407 639 369 664 318 664 _c
318 742 _m
399 742 461 709 505 645 _c
548 580 570 486 570 364 _c
570 241 548 147 505 83 _c
461 19 399 -13 318 -13 _c
236 -13 173 19 130 83 _c
87 147 66 241 66 364 _c
66 486 87 580 130 645 _c
173 709 236 742 318 742 _c
_cl}_d
/one{636 0 110 0 544 729 _sc
124 83 _m
285 83 _l
285 639 _l
110 604 _l
110 694 _l
284 729 _l
383 729 _l
383 83 _l
544 83 _l
544 0 _l
124 0 _l
124 83 _l
_cl}_d
/two{{636 0 73 0 536 742 _sc
192 83 _m
536 83 _l
536 0 _l
73 0 _l
73 83 _l
110 121 161 173 226 239 _c
290 304 331 346 348 365 _c
380 400 402 430 414 455 _c
426 479 433 504 433 528 _c
433 566 419 598 392 622 _c
365 646 330 659 286 659 _c
255 659 222 653 188 643 _c
154 632 117 616 78 594 _c
78 694 _l
118 710 155 722 189 730 _c
223 738 255 742 284 742 _c
}_e{359 742 419 723 464 685 _c
509 647 532 597 532 534 _c
532 504 526 475 515 449 _c
504 422 484 390 454 354 _c
446 344 420 317 376 272 _c
332 227 271 164 192 83 _c
_cl}_e}_d
/four{636 0 49 0 580 729 _sc
378 643 _m
129 254 _l
378 254 _l
378 643 _l
352 729 _m
476 729 _l
476 254 _l
580 254 _l
580 172 _l
476 172 _l
476 0 _l
378 0 _l
378 172 _l
49 172 _l
49 267 _l
352 729 _l
_cl}_d
/six{{636 0 70 -13 573 742 _sc
330 404 _m
286 404 251 388 225 358 _c
199 328 186 286 186 234 _c
186 181 199 139 225 109 _c
251 79 286 64 330 64 _c
374 64 409 79 435 109 _c
461 139 474 181 474 234 _c
474 286 461 328 435 358 _c
409 388 374 404 330 404 _c
526 713 _m
526 623 _l
501 635 476 644 451 650 _c
425 656 400 659 376 659 _c
310 659 260 637 226 593 _c
}_e{192 549 172 482 168 394 _c
187 422 211 444 240 459 _c
269 474 301 482 336 482 _c
409 482 467 459 509 415 _c
551 371 573 310 573 234 _c
573 159 550 99 506 54 _c
462 9 403 -13 330 -13 _c
246 -13 181 19 137 83 _c
92 147 70 241 70 364 _c
70 479 97 571 152 639 _c
206 707 280 742 372 742 _c
396 742 421 739 447 735 _c
472 730 498 723 526 713 _c
_cl}_e}_d
/eight{{636 0 68 -13 568 742 _sc
318 346 _m
271 346 234 333 207 308 _c
180 283 167 249 167 205 _c
167 161 180 126 207 101 _c
234 76 271 64 318 64 _c
364 64 401 76 428 102 _c
455 127 469 161 469 205 _c
469 249 455 283 429 308 _c
402 333 365 346 318 346 _c
219 388 _m
177 398 144 418 120 447 _c
96 476 85 511 85 553 _c
85 611 105 657 147 691 _c
188 725 245 742 318 742 _c
}_e{390 742 447 725 489 691 _c
530 657 551 611 551 553 _c
551 511 539 476 515 447 _c
491 418 459 398 417 388 _c
464 377 501 355 528 323 _c
554 291 568 251 568 205 _c
568 134 546 80 503 43 _c
459 5 398 -13 318 -13 _c
237 -13 175 5 132 43 _c
89 80 68 134 68 205 _c
68 251 81 291 108 323 _c
134 355 171 377 219 388 _c
183 544 _m
183 506 194 476 218 455 _c
}_e{242 434 275 424 318 424 _c
360 424 393 434 417 455 _c
441 476 453 506 453 544 _c
453 582 441 611 417 632 _c
393 653 360 664 318 664 _c
275 664 242 653 218 632 _c
194 611 183 582 183 544 _c
_cl}_e}_d
/equal{838 0 106 172 732 454 _sc
106 454 _m
732 454 _l
732 372 _l
106 372 _l
106 454 _l
106 255 _m
732 255 _l
732 172 _l
106 172 _l
106 255 _l
_cl}_d
/L{557 0 98 0 552 729 _sc
98 729 _m
197 729 _l
197 83 _l
552 83 _l
552 0 _l
98 0 _l
98 729 _l
_cl}_d
/N{748 0 98 0 650 729 _sc
98 729 _m
231 729 _l
554 119 _l
554 729 _l
650 729 _l
650 0 _l
517 0 _l
194 610 _l
194 0 _l
98 0 _l
98 729 _l
_cl}_d
/Q{{787 0 56 -128 731 742 _sc
394 662 _m
322 662 265 635 223 582 _c
181 528 160 456 160 364 _c
160 272 181 199 223 146 _c
265 92 322 66 394 66 _c
465 66 522 92 564 146 _c
606 199 627 272 627 364 _c
627 456 606 528 564 582 _c
522 635 465 662 394 662 _c
532 13 _m
662 -128 _l
543 -128 _l
435 -11 _l
424 -11 416 -12 410 -12 _c
404 -12 399 -13 394 -13 _c
291 -13 209 21 148 89 _c
}_e{86 157 56 248 56 364 _c
56 479 86 571 148 639 _c
209 707 291 742 394 742 _c
496 742 577 707 639 639 _c
700 571 731 479 731 364 _c
731 279 714 206 680 146 _c
646 86 596 41 532 13 _c
_cl}_e}_d
/S{{635 0 66 -13 579 742 _sc
535 705 _m
535 609 _l
497 627 462 640 429 649 _c
395 657 363 662 333 662 _c
279 662 237 651 208 631 _c
179 610 165 580 165 542 _c
165 510 174 485 194 469 _c
213 452 250 439 304 429 _c
364 417 _l
437 403 491 378 526 343 _c
561 307 579 260 579 201 _c
579 130 555 77 508 41 _c
460 5 391 -13 300 -13 _c
265 -13 228 -9 189 -2 _c
}_e{150 5 110 16 69 32 _c
69 134 _l
109 111 148 94 186 83 _c
224 71 262 66 300 66 _c
356 66 399 77 430 99 _c
460 121 476 152 476 194 _c
476 230 465 258 443 278 _c
421 298 385 313 335 323 _c
275 335 _l
201 349 148 372 115 404 _c
82 435 66 478 66 534 _c
66 598 88 649 134 686 _c
179 723 242 742 322 742 _c
356 742 390 739 426 733 _c
461 727 497 717 535 705 _c
}_e{_cl}_e}_d
/X{685 0 30 0 654 729 _sc
63 729 _m
169 729 _l
350 458 _l
532 729 _l
638 729 _l
404 379 _l
654 0 _l
548 0 _l
343 310 _l
136 0 _l
30 0 _l
290 389 _l
63 729 _l
_cl}_d
/a{{613 0 60 -13 522 560 _sc
343 275 _m
270 275 220 266 192 250 _c
164 233 150 205 150 165 _c
150 133 160 107 181 89 _c
202 70 231 61 267 61 _c
317 61 357 78 387 114 _c
417 149 432 196 432 255 _c
432 275 _l
343 275 _l
522 312 _m
522 0 _l
432 0 _l
432 83 _l
411 49 385 25 355 10 _c
325 -5 287 -13 243 -13 _c
187 -13 142 2 109 33 _c
76 64 60 106 60 159 _c
}_e{60 220 80 266 122 298 _c
163 329 224 345 306 345 _c
432 345 _l
432 354 _l
432 395 418 427 391 450 _c
364 472 326 484 277 484 _c
245 484 215 480 185 472 _c
155 464 127 453 100 439 _c
100 522 _l
132 534 164 544 195 550 _c
226 556 256 560 286 560 _c
365 560 424 539 463 498 _c
502 457 522 395 522 312 _c
_cl}_e}_d
/b{{635 0 91 -13 580 760 _sc
487 273 _m
487 339 473 390 446 428 _c
418 466 381 485 334 485 _c
286 485 249 466 222 428 _c
194 390 181 339 181 273 _c
181 207 194 155 222 117 _c
249 79 286 61 334 61 _c
381 61 418 79 446 117 _c
473 155 487 207 487 273 _c
181 464 _m
199 496 223 520 252 536 _c
281 552 316 560 356 560 _c
422 560 476 533 518 481 _c
559 428 580 359 580 273 _c
}_e{580 187 559 117 518 65 _c
476 13 422 -13 356 -13 _c
316 -13 281 -5 252 10 _c
223 25 199 49 181 82 _c
181 0 _l
91 0 _l
91 760 _l
181 760 _l
181 464 _l
_cl}_e}_d
/c{{550 0 55 -13 488 560 _sc
488 526 _m
488 442 _l
462 456 437 466 411 473 _c
385 480 360 484 334 484 _c
276 484 230 465 198 428 _c
166 391 150 339 150 273 _c
150 206 166 154 198 117 _c
230 80 276 62 334 62 _c
360 62 385 65 411 72 _c
437 79 462 90 488 104 _c
488 21 _l
462 9 436 0 410 -5 _c
383 -10 354 -13 324 -13 _c
242 -13 176 12 128 64 _c
}_e{79 115 55 185 55 273 _c
55 362 79 432 128 483 _c
177 534 244 560 330 560 _c
358 560 385 557 411 551 _c
437 545 463 537 488 526 _c
_cl}_e}_d
/d{{635 0 55 -13 544 760 _sc
454 464 _m
454 760 _l
544 760 _l
544 0 _l
454 0 _l
454 82 _l
435 49 411 25 382 10 _c
353 -5 319 -13 279 -13 _c
213 -13 159 13 117 65 _c
75 117 55 187 55 273 _c
55 359 75 428 117 481 _c
159 533 213 560 279 560 _c
319 560 353 552 382 536 _c
411 520 435 496 454 464 _c
148 273 _m
148 207 161 155 188 117 _c
215 79 253 61 301 61 _c
}_e{348 61 385 79 413 117 _c
440 155 454 207 454 273 _c
454 339 440 390 413 428 _c
385 466 348 485 301 485 _c
253 485 215 466 188 428 _c
161 390 148 339 148 273 _c
_cl}_e}_d
/e{{615 0 55 -13 562 560 _sc
562 296 _m
562 252 _l
149 252 _l
153 190 171 142 205 110 _c
238 78 284 62 344 62 _c
378 62 412 66 444 74 _c
476 82 509 95 541 113 _c
541 28 _l
509 14 476 3 442 -3 _c
408 -9 373 -13 339 -13 _c
251 -13 182 12 131 62 _c
80 112 55 181 55 268 _c
55 357 79 428 127 481 _c
175 533 241 560 323 560 _c
397 560 455 536 498 489 _c
}_e{540 441 562 377 562 296 _c
472 322 _m
471 371 457 410 431 440 _c
404 469 368 484 324 484 _c
274 484 234 469 204 441 _c
174 413 156 373 152 322 _c
472 322 _l
_cl}_e}_d
/f{352 0 23 0 371 760 _sc
371 760 _m
371 685 _l
285 685 _l
253 685 230 678 218 665 _c
205 652 199 629 199 595 _c
199 547 _l
347 547 _l
347 477 _l
199 477 _l
199 0 _l
109 0 _l
109 477 _l
23 477 _l
23 547 _l
109 547 _l
109 585 _l
109 645 123 690 151 718 _c
179 746 224 760 286 760 _c
371 760 _l
_cl}_d
/g{{635 0 55 -207 544 560 _sc
454 280 _m
454 344 440 395 414 431 _c
387 467 349 485 301 485 _c
253 485 215 467 188 431 _c
161 395 148 344 148 280 _c
148 215 161 165 188 129 _c
215 93 253 75 301 75 _c
349 75 387 93 414 129 _c
440 165 454 215 454 280 _c
544 68 _m
544 -24 523 -93 482 -139 _c
440 -184 377 -207 292 -207 _c
260 -207 231 -204 203 -200 _c
175 -195 147 -188 121 -178 _c
}_e{121 -91 _l
147 -105 173 -115 199 -122 _c
225 -129 251 -133 278 -133 _c
336 -133 380 -117 410 -87 _c
439 -56 454 -10 454 52 _c
454 96 _l
435 64 411 40 382 24 _c
353 8 319 0 279 0 _c
211 0 157 25 116 76 _c
75 127 55 195 55 280 _c
55 364 75 432 116 483 _c
157 534 211 560 279 560 _c
319 560 353 552 382 536 _c
411 520 435 496 454 464 _c
454 547 _l
544 547 _l
}_e{544 68 _l
_cl}_e}_d
/i{278 0 94 0 184 760 _sc
94 547 _m
184 547 _l
184 0 _l
94 0 _l
94 547 _l
94 760 _m
184 760 _l
184 646 _l
94 646 _l
94 760 _l
_cl}_d
/k{579 0 91 0 576 760 _sc
91 760 _m
181 760 _l
181 311 _l
449 547 _l
564 547 _l
274 291 _l
576 0 _l
459 0 _l
181 267 _l
181 0 _l
91 0 _l
91 760 _l
_cl}_d
/l{278 0 94 0 184 760 _sc
94 760 _m
184 760 _l
184 0 _l
94 0 _l
94 760 _l
_cl}_d
/m{{974 0 91 0 889 560 _sc
520 442 _m
542 482 569 511 600 531 _c
631 550 668 560 711 560 _c
767 560 811 540 842 500 _c
873 460 889 403 889 330 _c
889 0 _l
799 0 _l
799 327 _l
799 379 789 418 771 444 _c
752 469 724 482 686 482 _c
639 482 602 466 575 435 _c
548 404 535 362 535 309 _c
535 0 _l
445 0 _l
445 327 _l
445 379 435 418 417 444 _c
398 469 369 482 331 482 _c
}_e{285 482 248 466 221 435 _c
194 404 181 362 181 309 _c
181 0 _l
91 0 _l
91 547 _l
181 547 _l
181 462 _l
201 495 226 520 255 536 _c
283 552 317 560 357 560 _c
397 560 430 550 458 530 _c
486 510 506 480 520 442 _c
_cl}_e}_d
/n{634 0 91 0 549 560 _sc
549 330 _m
549 0 _l
459 0 _l
459 327 _l
459 379 448 417 428 443 _c
408 469 378 482 338 482 _c
289 482 251 466 223 435 _c
195 404 181 362 181 309 _c
181 0 _l
91 0 _l
91 547 _l
181 547 _l
181 462 _l
202 494 227 519 257 535 _c
286 551 320 560 358 560 _c
420 560 468 540 500 501 _c
532 462 549 405 549 330 _c
_cl}_d
/o{612 0 55 -13 557 560 _sc
306 484 _m
258 484 220 465 192 427 _c
164 389 150 338 150 273 _c
150 207 163 156 191 118 _c
219 80 257 62 306 62 _c
354 62 392 80 420 118 _c
448 156 462 207 462 273 _c
462 337 448 389 420 427 _c
392 465 354 484 306 484 _c
306 560 _m
384 560 445 534 490 484 _c
534 433 557 363 557 273 _c
557 183 534 113 490 63 _c
445 12 384 -13 306 -13 _c
227 -13 165 12 121 63 _c
77 113 55 183 55 273 _c
55 363 77 433 121 484 _c
165 534 227 560 306 560 _c
_cl}_d
/r{411 0 91 0 411 560 _sc
411 463 _m
401 469 390 473 378 476 _c
366 478 353 480 339 480 _c
288 480 249 463 222 430 _c
194 397 181 350 181 288 _c
181 0 _l
91 0 _l
91 547 _l
181 547 _l
181 462 _l
199 495 224 520 254 536 _c
284 552 321 560 365 560 _c
371 560 378 559 386 559 _c
393 558 401 557 411 555 _c
411 463 _l
_cl}_d
/s{{521 0 54 -13 472 560 _sc
443 531 _m
443 446 _l
417 458 391 468 364 475 _c
336 481 308 485 279 485 _c
234 485 200 478 178 464 _c
156 450 145 430 145 403 _c
145 382 153 366 169 354 _c
185 342 217 330 265 320 _c
296 313 _l
360 299 405 279 432 255 _c
458 230 472 195 472 151 _c
472 100 452 60 412 31 _c
372 1 316 -13 246 -13 _c
216 -13 186 -10 154 -5 _c
}_e{122 0 89 8 54 20 _c
54 113 _l
87 95 120 82 152 74 _c
184 65 216 61 248 61 _c
290 61 323 68 346 82 _c
368 96 380 117 380 144 _c
380 168 371 187 355 200 _c
339 213 303 226 247 238 _c
216 245 _l
160 257 119 275 95 299 _c
70 323 58 356 58 399 _c
58 450 76 490 112 518 _c
148 546 200 560 268 560 _c
301 560 332 557 362 552 _c
391 547 418 540 443 531 _c
}_e{_cl}_e}_d
/t{392 0 27 0 368 702 _sc
183 702 _m
183 547 _l
368 547 _l
368 477 _l
183 477 _l
183 180 _l
183 135 189 106 201 94 _c
213 81 238 75 276 75 _c
368 75 _l
368 0 _l
276 0 _l
206 0 158 13 132 39 _c
106 65 93 112 93 180 _c
93 477 _l
27 477 _l
27 547 _l
93 547 _l
93 702 _l
183 702 _l
_cl}_d
/u{634 0 85 -13 543 560 _sc
85 216 _m
85 547 _l
175 547 _l
175 219 _l
175 167 185 129 205 103 _c
225 77 255 64 296 64 _c
344 64 383 79 411 110 _c
439 141 453 183 453 237 _c
453 547 _l
543 547 _l
543 0 _l
453 0 _l
453 84 _l
431 50 405 26 377 10 _c
348 -5 315 -13 277 -13 _c
214 -13 166 6 134 45 _c
101 83 85 140 85 216 _c
311 560 _m
311 560 _l
_cl}_d
/y{592 0 30 -207 562 547 _sc
322 -50 _m
296 -114 271 -157 247 -177 _c
223 -197 191 -207 151 -207 _c
79 -207 _l
79 -132 _l
132 -132 _l
156 -132 175 -126 189 -114 _c
203 -102 218 -75 235 -31 _c
251 9 _l
30 547 _l
125 547 _l
296 119 _l
467 547 _l
562 547 _l
322 -50 _l
_cl}_d
end readonly def

/BuildGlyph
 {exch begin
 CharStrings exch
 2 copy known not{pop /.notdef}if
 true 3 1 roll get exec
 end}_d

/BuildChar {
 1 index /Encoding get exch get
 1 index /BuildGlyph get exec
}_d

FontName currentdict end definefont pop
end
%%EndProlog
mpldict begin
-4.32 128.16 translate
620.64 535.68 0 0 clipbox
gsave
0 0 m
620.64 0 l
620.64 535.68 l
0 535.68 l
cl
1.000 setgray
fill
grestore
gsave
205.402286 126.267429 m
558.576 126.267429 l
558.576 471.3984 l
205.402286 471.3984 l
cl
1.000 setgray
fill
grestore
0.800 setlinewidth
1 setlinejoin
0 setlinecap
[] 0 setdash
0.000 setgray
gsave
/o {
gsave
newpath
translate
0.8 setlinewidth
1 setlinejoin
0 setlinecap
0 0 m
0 -3.5 l

gsave
0.000 setgray
fill
grestore
stroke
grestore
} bind def
220.996 126.267 o
grestore
/DejaVuSans findfont
20.000 scalefont
setfont
gsave
214.636938 104.064304 translate
0.000000 rotate
0.000000 0.000000 m /zero glyphshow
grestore
gsave
/o {
gsave
newpath
translate
0.8 setlinewidth
1 setlinejoin
0 setlinecap
0 0 m
0 -3.5 l

gsave
0.000 setgray
fill
grestore
stroke
grestore
} bind def
312.861 126.267 o
grestore
gsave
306.501606 104.064304 translate
0.000000 rotate
0.000000 0.000000 m /two glyphshow
grestore
gsave
/o {
gsave
newpath
translate
0.8 setlinewidth
1 setlinejoin
0 setlinecap
0 0 m
0 -3.5 l

gsave
0.000 setgray
fill
grestore
stroke
grestore
} bind def
404.726 126.267 o
grestore
gsave
398.366273 104.064304 translate
0.000000 rotate
0.000000 0.000000 m /four glyphshow
grestore
gsave
/o {
gsave
newpath
translate
0.8 setlinewidth
1 setlinejoin
0 setlinecap
0 0 m
0 -3.5 l

gsave
0.000 setgray
fill
grestore
stroke
grestore
} bind def
496.59 126.267 o
grestore
gsave
490.230941 104.064304 translate
0.000000 rotate
0.000000 0.000000 m /six glyphshow
grestore
/DejaVuSans findfont
25.000 scalefont
setfont
gsave
187.950080 76.908054 translate
0.000000 rotate
0.000000 0.000000 m /N glyphshow
18.701172 0.000000 m /u glyphshow
34.545898 0.000000 m /m glyphshow
58.898926 0.000000 m /b glyphshow
74.768066 0.000000 m /e glyphshow
90.148926 0.000000 m /r glyphshow
100.427246 0.000000 m /space glyphshow
108.374023 0.000000 m /o glyphshow
123.669434 0.000000 m /f glyphshow
132.470703 0.000000 m /space glyphshow
140.417480 0.000000 m /l glyphshow
147.363281 0.000000 m /a glyphshow
162.683105 0.000000 m /n glyphshow
178.527832 0.000000 m /d glyphshow
194.396973 0.000000 m /m glyphshow
218.750000 0.000000 m /a glyphshow
234.069824 0.000000 m /r glyphshow
244.348145 0.000000 m /k glyphshow
258.825684 0.000000 m /s glyphshow
271.850586 0.000000 m /space glyphshow
279.797363 0.000000 m /parenleft glyphshow
289.550781 0.000000 m /X glyphshow
306.677246 0.000000 m /space glyphshow
314.624023 0.000000 m /one glyphshow
330.529785 0.000000 m /zero glyphshow
346.435547 0.000000 m /zero glyphshow
362.341309 0.000000 m /zero glyphshow
378.247070 0.000000 m /parenright glyphshow
grestore
gsave
/o {
gsave
newpath
translate
0.8 setlinewidth
1 setlinejoin
0 setlinecap
0 0 m
-3.5 0 l

gsave
0.000 setgray
fill
grestore
stroke
grestore
} bind def
205.402 126.267 o
grestore
/DejaVuSans findfont
20.000 scalefont
setfont
gsave
185.683536 118.665866 translate
0.000000 rotate
0.000000 0.000000 m /zero glyphshow
grestore
gsave
/o {
gsave
newpath
translate
0.8 setlinewidth
1 setlinejoin
0 setlinecap
0 0 m
-3.5 0 l

gsave
0.000 setgray
fill
grestore
stroke
grestore
} bind def
205.402 179.365 o
grestore
gsave
172.964786 171.762939 translate
0.000000 rotate
0.000000 0.000000 m /two glyphshow
12.724609 0.000000 m /zero glyphshow
grestore
gsave
/o {
gsave
newpath
translate
0.8 setlinewidth
1 setlinejoin
0 setlinecap
0 0 m
-3.5 0 l

gsave
0.000 setgray
fill
grestore
stroke
grestore
} bind def
205.402 232.462 o
grestore
gsave
172.964786 224.860011 translate
0.000000 rotate
0.000000 0.000000 m /four glyphshow
12.724609 0.000000 m /zero glyphshow
grestore
gsave
/o {
gsave
newpath
translate
0.8 setlinewidth
1 setlinejoin
0 setlinecap
0 0 m
-3.5 0 l

gsave
0.000 setgray
fill
grestore
stroke
grestore
} bind def
205.402 285.559 o
grestore
gsave
172.964786 277.957084 translate
0.000000 rotate
0.000000 0.000000 m /six glyphshow
12.724609 0.000000 m /zero glyphshow
grestore
gsave
/o {
gsave
newpath
translate
0.8 setlinewidth
1 setlinejoin
0 setlinecap
0 0 m
-3.5 0 l

gsave
0.000 setgray
fill
grestore
stroke
grestore
} bind def
205.402 338.656 o
grestore
gsave
172.964786 331.054156 translate
0.000000 rotate
0.000000 0.000000 m /eight glyphshow
12.724609 0.000000 m /zero glyphshow
grestore
gsave
/o {
gsave
newpath
translate
0.8 setlinewidth
1 setlinejoin
0 setlinecap
0 0 m
-3.5 0 l

gsave
0.000 setgray
fill
grestore
stroke
grestore
} bind def
205.402 391.753 o
grestore
gsave
160.246036 384.151229 translate
0.000000 rotate
0.000000 0.000000 m /one glyphshow
12.724609 0.000000 m /zero glyphshow
25.449219 0.000000 m /zero glyphshow
grestore
gsave
/o {
gsave
newpath
translate
0.8 setlinewidth
1 setlinejoin
0 setlinecap
0 0 m
-3.5 0 l

gsave
0.000 setgray
fill
grestore
stroke
grestore
} bind def
205.402 444.85 o
grestore
gsave
160.246036 437.248301 translate
0.000000 rotate
0.000000 0.000000 m /one glyphshow
12.724609 0.000000 m /two glyphshow
25.449219 0.000000 m /zero glyphshow
grestore
/DejaVuSans findfont
30.000 scalefont
setfont
gsave
150.011661 149.637602 translate
90.000000 rotate
0.000000 0.000000 m /Q glyphshow
23.613281 0.000000 m /u glyphshow
42.626953 0.000000 m /e glyphshow
61.083984 0.000000 m /r glyphshow
73.417969 0.000000 m /y glyphshow
91.171875 0.000000 m /i glyphshow
99.506836 0.000000 m /n glyphshow
118.520508 0.000000 m /g glyphshow
137.563477 0.000000 m /space glyphshow
147.099609 0.000000 m /t glyphshow
158.862305 0.000000 m /i glyphshow
167.197266 0.000000 m /m glyphshow
196.420898 0.000000 m /e glyphshow
214.877930 0.000000 m /space glyphshow
224.414062 0.000000 m /parenleft glyphshow
236.118164 0.000000 m /s glyphshow
251.748047 0.000000 m /e glyphshow
270.205078 0.000000 m /c glyphshow
286.699219 0.000000 m /parenright glyphshow
grestore
4.000 setlinewidth
2 setlinecap
0.122 0.467 0.706 setrgbcolor
gsave
353.2 345.1 205.4 126.3 clipbox
221.455636 444.849864 m
225.589546 365.204255 l
289.894814 285.558646 l
358.793314 264.319817 l
542.522649 277.594085 l
stroke
grestore
1.000 setlinewidth
0 setlinecap
gsave
353.2 345.1 205.4 126.3 clipbox
/o {
gsave
newpath
translate
1.0 setlinewidth
1 setlinejoin
0 setlinecap
0 -6 m
1.591219 -6 3.117479 -5.367802 4.242641 -4.242641 c
5.367802 -3.117479 6 -1.591219 6 0 c
6 1.591219 5.367802 3.117479 4.242641 4.242641 c
3.117479 5.367802 1.591219 6 0 6 c
-1.591219 6 -3.117479 5.367802 -4.242641 4.242641 c
-5.367802 3.117479 -6 1.591219 -6 0 c
-6 -1.591219 -5.367802 -3.117479 -4.242641 -4.242641 c
-3.117479 -5.367802 -1.591219 -6 0 -6 c
cl

gsave
0.122 0.467 0.706 setrgbcolor
fill
grestore
stroke
grestore
} bind def
221.456 444.85 o
225.59 365.204 o
289.895 285.559 o
358.793 264.32 o
542.523 277.594 o
grestore
4.000 setlinewidth
[11.2 4.8] 0 setdash
1.000 0.498 0.055 setrgbcolor
gsave
353.2 345.1 205.4 126.3 clipbox
221.455636 147.506258 m
225.589546 147.506258 l
289.894814 136.886843 l
358.793314 136.886843 l
542.522649 139.541697 l
stroke
grestore
1.000 setlinewidth
[] 0 setdash
gsave
353.2 345.1 205.4 126.3 clipbox
/o {
gsave
newpath
translate
1.0 setlinewidth
1 setlinejoin
0 setlinecap
0 -6 m
1.591219 -6 3.117479 -5.367802 4.242641 -4.242641 c
5.367802 -3.117479 6 -1.591219 6 0 c
6 1.591219 5.367802 3.117479 4.242641 4.242641 c
3.117479 5.367802 1.591219 6 0 6 c
-1.591219 6 -3.117479 5.367802 -4.242641 4.242641 c
-5.367802 3.117479 -6 1.591219 -6 0 c
-6 -1.591219 -5.367802 -3.117479 -4.242641 -4.242641 c
-3.117479 -5.367802 -1.591219 -6 0 -6 c
cl

gsave
1.000 0.498 0.055 setrgbcolor
fill
grestore
stroke
grestore
} bind def
221.456 147.506 o
225.59 147.506 o
289.895 136.887 o
358.793 136.887 o
542.523 139.542 o
grestore
4.000 setlinewidth
2 setlinecap
0.173 0.627 0.173 setrgbcolor
gsave
353.2 345.1 205.4 126.3 clipbox
221.455636 444.849864 m
225.589546 208.567891 l
289.894814 179.364501 l
358.793314 176.709647 l
542.522649 189.983916 l
stroke
grestore
1.000 setlinewidth
2 setlinejoin
0 setlinecap
gsave
353.2 345.1 205.4 126.3 clipbox
/o {
gsave
newpath
translate
1.0 setlinewidth
2 setlinejoin
0 setlinecap
0 6 m
-1.347084 1.854102 l
-5.706339 1.854102 l
-2.179628 -0.708204 l
-3.526712 -4.854102 l
-0 -2.291796 l
3.526712 -4.854102 l
2.179628 -0.708204 l
5.706339 1.854102 l
1.347084 1.854102 l
cl

gsave
0.173 0.627 0.173 setrgbcolor
fill
grestore
stroke
grestore
} bind def
221.456 444.85 o
225.59 208.568 o
289.895 179.365 o
358.793 176.71 o
542.523 189.984 o
grestore
4.000 setlinewidth
1 setlinejoin
[11.2 4.8] 0 setdash
0.839 0.153 0.157 setrgbcolor
gsave
353.2 345.1 205.4 126.3 clipbox
221.455636 142.19655 m
225.589546 142.19655 l
289.894814 139.541697 l
358.793314 147.506258 l
542.522649 150.161111 l
stroke
grestore
1.000 setlinewidth
2 setlinejoin
[] 0 setdash
gsave
353.2 345.1 205.4 126.3 clipbox
/o {
gsave
newpath
translate
1.0 setlinewidth
2 setlinejoin
0 setlinecap
0 6 m
-1.347084 1.854102 l
-5.706339 1.854102 l
-2.179628 -0.708204 l
-3.526712 -4.854102 l
-0 -2.291796 l
3.526712 -4.854102 l
2.179628 -0.708204 l
5.706339 1.854102 l
1.347084 1.854102 l
cl

gsave
0.839 0.153 0.157 setrgbcolor
fill
grestore
stroke
grestore
} bind def
221.456 142.197 o
225.59 142.197 o
289.895 139.542 o
358.793 147.506 o
542.523 150.161 o
grestore
0.800 setlinewidth
0 setlinejoin
2 setlinecap
[] 0 setdash
0.000 setgray
gsave
205.402286 126.267429 m
205.402286 471.3984 l
stroke
grestore
gsave
558.576 126.267429 m
558.576 471.3984 l
stroke
grestore
gsave
205.402286 126.267429 m
558.576 126.267429 l
stroke
grestore
gsave
205.402286 471.3984 m
558.576 471.3984 l
stroke
grestore
1.000 setlinewidth
0 setlinecap
0.800 setgray
gsave
276.076 302.99215 m
541.076 302.99215 l
544.409333 302.99215 546.076 304.658817 546.076 307.99215 c
546.076 453.8984 l
546.076 457.231733 544.409333 458.8984 541.076 458.8984 c
276.076 458.8984 l
272.742667 458.8984 271.076 457.231733 271.076 453.8984 c
271.076 307.99215 l
271.076 304.658817 272.742667 302.99215 276.076 302.99215 c
cl
gsave
1.000 setgray
fill
grestore
stroke
grestore
4.000 setlinewidth
1 setlinejoin
2 setlinecap
[] 0 setdash
0.122 0.467 0.706 setrgbcolor
gsave
281.076 438.6484 m
331.076 438.6484 l
stroke
grestore
1.000 setlinewidth
0 setlinecap
gsave
/o {
gsave
newpath
translate
1.0 setlinewidth
1 setlinejoin
0 setlinecap
0 -6 m
1.591219 -6 3.117479 -5.367802 4.242641 -4.242641 c
5.367802 -3.117479 6 -1.591219 6 0 c
6 1.591219 5.367802 3.117479 4.242641 4.242641 c
3.117479 5.367802 1.591219 6 0 6 c
-1.591219 6 -3.117479 5.367802 -4.242641 4.242641 c
-5.367802 3.117479 -6 1.591219 -6 0 c
-6 -1.591219 -5.367802 -3.117479 -4.242641 -4.242641 c
-3.117479 -5.367802 -1.591219 -6 0 -6 c
cl

gsave
0.122 0.467 0.706 setrgbcolor
fill
grestore
stroke
grestore
} bind def
306.076 438.648 o
grestore
0.000 setgray
gsave
351.076000 429.898400 translate
0.000000 rotate
/DejaVuSans findfont
25.0 scalefont
setfont
0.000000 0.000000 moveto
/S glyphshow

15.869141 0.000000 moveto
/y glyphshow

30.664062 0.000000 moveto
/d glyphshow

46.533203 0.000000 moveto
/n glyphshow

62.377930 0.000000 moveto
/e glyphshow

77.758789 0.000000 moveto
/y glyphshow

92.553711 0.000000 moveto
/space glyphshow

/DejaVuSans-Oblique findfont
25.0 scalefont
setfont
100.500488 0.000000 moveto
/epsilon glyphshow

/DejaVuSans findfont
25.0 scalefont
setfont
118.884277 0.000000 moveto
/equal glyphshow

144.702148 0.000000 moveto
/zero glyphshow

160.607910 0.000000 moveto
/period glyphshow

168.554688 0.000000 moveto
/zero glyphshow


grestore
4.000 setlinewidth
[11.2 4.8] 0 setdash
1.000 0.498 0.055 setrgbcolor
gsave
281.076 401.1484 m
331.076 401.1484 l
stroke
grestore
1.000 setlinewidth
[] 0 setdash
gsave
/o {
gsave
newpath
translate
1.0 setlinewidth
1 setlinejoin
0 setlinecap
0 -6 m
1.591219 -6 3.117479 -5.367802 4.242641 -4.242641 c
5.367802 -3.117479 6 -1.591219 6 0 c
6 1.591219 5.367802 3.117479 4.242641 4.242641 c
3.117479 5.367802 1.591219 6 0 6 c
-1.591219 6 -3.117479 5.367802 -4.242641 4.242641 c
-5.367802 3.117479 -6 1.591219 -6 0 c
-6 -1.591219 -5.367802 -3.117479 -4.242641 -4.242641 c
-3.117479 -5.367802 -1.591219 -6 0 -6 c
cl

gsave
1.000 0.498 0.055 setrgbcolor
fill
grestore
stroke
grestore
} bind def
306.076 401.148 o
grestore
0.000 setgray
gsave
351.076000 392.398400 translate
0.000000 rotate
/DejaVuSans findfont
25.0 scalefont
setfont
0.000000 0.000000 moveto
/S glyphshow

15.869141 0.000000 moveto
/y glyphshow

30.664062 0.000000 moveto
/d glyphshow

46.533203 0.000000 moveto
/n glyphshow

62.377930 0.000000 moveto
/e glyphshow

77.758789 0.000000 moveto
/y glyphshow

92.553711 0.000000 moveto
/space glyphshow

/DejaVuSans-Oblique findfont
25.0 scalefont
setfont
100.500488 0.000000 moveto
/epsilon glyphshow

/DejaVuSans findfont
25.0 scalefont
setfont
118.884277 0.000000 moveto
/equal glyphshow

144.702148 0.000000 moveto
/zero glyphshow

160.607910 0.000000 moveto
/period glyphshow

168.539062 0.000000 moveto
/two glyphshow


grestore
4.000 setlinewidth
2 setlinecap
0.173 0.627 0.173 setrgbcolor
gsave
281.076 363.6484 m
331.076 363.6484 l
stroke
grestore
1.000 setlinewidth
2 setlinejoin
0 setlinecap
gsave
/o {
gsave
newpath
translate
1.0 setlinewidth
2 setlinejoin
0 setlinecap
0 6 m
-1.347084 1.854102 l
-5.706339 1.854102 l
-2.179628 -0.708204 l
-3.526712 -4.854102 l
-0 -2.291796 l
3.526712 -4.854102 l
2.179628 -0.708204 l
5.706339 1.854102 l
1.347084 1.854102 l
cl

gsave
0.173 0.627 0.173 setrgbcolor
fill
grestore
stroke
grestore
} bind def
306.076 363.648 o
grestore
0.000 setgray
gsave
351.076000 354.898400 translate
0.000000 rotate
/DejaVuSans findfont
25.0 scalefont
setfont
0.000000 0.000000 moveto
/L glyphshow

13.928223 0.000000 moveto
/o glyphshow

29.223633 0.000000 moveto
/n glyphshow

45.068359 0.000000 moveto
/d glyphshow

60.937500 0.000000 moveto
/o glyphshow

76.232910 0.000000 moveto
/n glyphshow

92.077637 0.000000 moveto
/space glyphshow

/DejaVuSans-Oblique findfont
25.0 scalefont
setfont
100.024414 0.000000 moveto
/epsilon glyphshow

/DejaVuSans findfont
25.0 scalefont
setfont
118.408203 0.000000 moveto
/equal glyphshow

144.226074 0.000000 moveto
/zero glyphshow

160.131836 0.000000 moveto
/period glyphshow

168.078613 0.000000 moveto
/zero glyphshow


grestore
4.000 setlinewidth
1 setlinejoin
[11.2 4.8] 0 setdash
0.839 0.153 0.157 setrgbcolor
gsave
281.076 326.945275 m
331.076 326.945275 l
stroke
grestore
1.000 setlinewidth
2 setlinejoin
[] 0 setdash
gsave
/o {
gsave
newpath
translate
1.0 setlinewidth
2 setlinejoin
0 setlinecap
0 6 m
-1.347084 1.854102 l
-5.706339 1.854102 l
-2.179628 -0.708204 l
-3.526712 -4.854102 l
-0 -2.291796 l
3.526712 -4.854102 l
2.179628 -0.708204 l
5.706339 1.854102 l
1.347084 1.854102 l
cl

gsave
0.839 0.153 0.157 setrgbcolor
fill
grestore
stroke
grestore
} bind def
306.076 326.945 o
grestore
0.000 setgray
gsave
351.076000 318.195275 translate
0.000000 rotate
/DejaVuSans findfont
25.0 scalefont
setfont
0.000000 0.000000 moveto
/L glyphshow

13.928223 0.000000 moveto
/o glyphshow

29.223633 0.000000 moveto
/n glyphshow

45.068359 0.000000 moveto
/d glyphshow

60.937500 0.000000 moveto
/o glyphshow

76.232910 0.000000 moveto
/n glyphshow

92.077637 0.000000 moveto
/space glyphshow

/DejaVuSans-Oblique findfont
25.0 scalefont
setfont
100.024414 0.000000 moveto
/epsilon glyphshow

/DejaVuSans findfont
25.0 scalefont
setfont
118.408203 0.000000 moveto
/equal glyphshow

144.226074 0.000000 moveto
/zero glyphshow

160.131836 0.000000 moveto
/period glyphshow

168.062988 0.000000 moveto
/two glyphshow


grestore

end
showpage
