%!PS-Adobe-3.0 EPSF-3.0
%%BoundingBox: 140 227 491 528
%%HiResBoundingBox: 140.874 227.994 490.886 527.894
%%Title: /media/sf_OneDrive/Research/projects/squark/squark/latex/vldb19/eps/londonkdist.eps
%%Creator: matplotlib version 2.0.0, http://matplotlib.org/
%%CreationDate: Tue Apr 24 11:22:48 2018
%%Orientation: portrait
%%EndComments
%%BeginProlog
/mpldict 8 dict def
mpldict begin
/m { moveto } bind def
/l { lineto } bind def
/r { rlineto } bind def
/c { curveto } bind def
/cl { closepath } bind def
/box {
m
1 index 0 r
0 exch r
neg 0 r
cl
} bind def
/clipbox {
box
clip
newpath
} bind def
%!PS-Adobe-3.0 Resource-Font
%%Title: DejaVu Sans
%%Copyright: Copyright (c) 2003 by Bitstream, Inc. All Rights Reserved. Copyright (c) 2006 by Tavmjong Bah. All Rights Reserved. DejaVu changes are in public domain 
%%Creator: Converted from TrueType to type 3 by PPR
25 dict begin
/_d{bind def}bind def
/_m{moveto}_d
/_l{lineto}_d
/_cl{closepath eofill}_d
/_c{curveto}_d
/_sc{7 -1 roll{setcachedevice}{pop pop pop pop pop pop}ifelse}_d
/_e{exec}_d
/FontName /DejaVuSans def
/PaintType 0 def
/FontMatrix[.001 0 0 .001 0 0]def
/FontBBox[-1021 -463 1793 1232]def
/FontType 3 def
/Encoding [ /space /percent /parenleft /parenright /zero /one /two /C /D /L /P /a /b /c /d /e /f /g /i /k /l /n /o /r /s /t /u /w /y /minus ] def
/FontInfo 10 dict dup begin
/FamilyName (DejaVu Sans) def
/FullName (DejaVu Sans) def
/Notice (Copyright (c) 2003 by Bitstream, Inc. All Rights Reserved. Copyright (c) 2006 by Tavmjong Bah. All Rights Reserved. DejaVu changes are in public domain ) def
/Weight (Book) def
/Version (Version 2.35) def
/ItalicAngle 0.0 def
/isFixedPitch false def
/UnderlinePosition -130 def
/UnderlineThickness 90 def
end readonly def
/CharStrings 30 dict dup begin
/space{318 0 0 0 0 0 _sc
}_d
/percent{{950 0 55 -13 895 742 _sc
727 321 _m
699 321 676 309 660 285 _c
644 261 636 227 636 184 _c
636 142 644 108 660 84 _c
676 60 699 48 727 48 _c
755 48 777 60 793 84 _c
809 108 817 142 817 184 _c
817 226 809 260 793 284 _c
777 308 755 321 727 321 _c
727 383 _m
778 383 819 365 849 329 _c
879 293 895 244 895 184 _c
895 123 879 75 849 40 _c
819 4 778 -13 727 -13 _c
}_e{675 -13 633 4 603 40 _c
573 75 558 123 558 184 _c
558 245 573 293 603 329 _c
633 365 675 383 727 383 _c
223 680 _m
195 680 173 667 157 643 _c
141 619 133 586 133 544 _c
133 500 141 467 157 443 _c
173 419 195 407 223 407 _c
251 407 274 419 290 443 _c
306 467 314 500 314 544 _c
314 586 305 619 289 643 _c
273 667 251 680 223 680 _c
664 742 _m
742 742 _l
286 -13 _l
}_e{208 -13 _l
664 742 _l
223 742 _m
274 742 315 724 346 688 _c
376 652 392 604 392 544 _c
392 482 376 434 346 398 _c
316 362 275 345 223 345 _c
171 345 130 362 100 398 _c
70 434 55 482 55 544 _c
55 604 70 652 100 688 _c
130 724 171 742 223 742 _c
_cl}_e}_d
/parenleft{390 0 86 -131 310 759 _sc
310 759 _m
266 683 234 609 213 536 _c
191 463 181 389 181 314 _c
181 238 191 164 213 91 _c
234 17 266 -56 310 -131 _c
232 -131 _l
183 -54 146 20 122 94 _c
98 168 86 241 86 314 _c
86 386 98 459 122 533 _c
146 607 182 682 232 759 _c
310 759 _l
_cl}_d
/parenright{390 0 80 -131 304 759 _sc
80 759 _m
158 759 _l
206 682 243 607 267 533 _c
291 459 304 386 304 314 _c
304 241 291 168 267 94 _c
243 20 206 -54 158 -131 _c
80 -131 _l
123 -56 155 17 177 91 _c
198 164 209 238 209 314 _c
209 389 198 463 177 536 _c
155 609 123 683 80 759 _c
_cl}_d
/zero{636 0 66 -13 570 742 _sc
318 664 _m
267 664 229 639 203 589 _c
177 539 165 464 165 364 _c
165 264 177 189 203 139 _c
229 89 267 64 318 64 _c
369 64 407 89 433 139 _c
458 189 471 264 471 364 _c
471 464 458 539 433 589 _c
407 639 369 664 318 664 _c
318 742 _m
399 742 461 709 505 645 _c
548 580 570 486 570 364 _c
570 241 548 147 505 83 _c
461 19 399 -13 318 -13 _c
236 -13 173 19 130 83 _c
87 147 66 241 66 364 _c
66 486 87 580 130 645 _c
173 709 236 742 318 742 _c
_cl}_d
/one{636 0 110 0 544 729 _sc
124 83 _m
285 83 _l
285 639 _l
110 604 _l
110 694 _l
284 729 _l
383 729 _l
383 83 _l
544 83 _l
544 0 _l
124 0 _l
124 83 _l
_cl}_d
/two{{636 0 73 0 536 742 _sc
192 83 _m
536 83 _l
536 0 _l
73 0 _l
73 83 _l
110 121 161 173 226 239 _c
290 304 331 346 348 365 _c
380 400 402 430 414 455 _c
426 479 433 504 433 528 _c
433 566 419 598 392 622 _c
365 646 330 659 286 659 _c
255 659 222 653 188 643 _c
154 632 117 616 78 594 _c
78 694 _l
118 710 155 722 189 730 _c
223 738 255 742 284 742 _c
}_e{359 742 419 723 464 685 _c
509 647 532 597 532 534 _c
532 504 526 475 515 449 _c
504 422 484 390 454 354 _c
446 344 420 317 376 272 _c
332 227 271 164 192 83 _c
_cl}_e}_d
/C{{698 0 56 -13 644 742 _sc
644 673 _m
644 569 _l
610 599 575 622 537 638 _c
499 653 460 661 418 661 _c
334 661 270 635 226 584 _c
182 533 160 460 160 364 _c
160 268 182 194 226 143 _c
270 92 334 67 418 67 _c
460 67 499 74 537 90 _c
575 105 610 128 644 159 _c
644 56 _l
609 32 572 15 534 4 _c
496 -7 455 -13 412 -13 _c
302 -13 215 20 151 87 _c
}_e{87 154 56 246 56 364 _c
56 481 87 573 151 641 _c
215 708 302 742 412 742 _c
456 742 497 736 535 725 _c
573 713 610 696 644 673 _c
_cl}_e}_d
/D{770 0 98 0 711 729 _sc
197 648 _m
197 81 _l
316 81 _l
416 81 490 103 537 149 _c
583 195 607 267 607 365 _c
607 463 583 534 537 580 _c
490 625 416 648 316 648 _c
197 648 _l
98 729 _m
301 729 _l
442 729 546 699 612 641 _c
678 582 711 490 711 365 _c
711 239 677 147 611 88 _c
545 29 441 0 301 0 _c
98 0 _l
98 729 _l
_cl}_d
/L{557 0 98 0 552 729 _sc
98 729 _m
197 729 _l
197 83 _l
552 83 _l
552 0 _l
98 0 _l
98 729 _l
_cl}_d
/P{603 0 98 0 569 729 _sc
197 648 _m
197 374 _l
321 374 _l
367 374 402 385 427 409 _c
452 433 465 467 465 511 _c
465 555 452 588 427 612 _c
402 636 367 648 321 648 _c
197 648 _l
98 729 _m
321 729 _l
402 729 464 710 506 673 _c
548 636 569 582 569 511 _c
569 439 548 384 506 348 _c
464 311 402 293 321 293 _c
197 293 _l
197 0 _l
98 0 _l
98 729 _l
_cl}_d
/a{{613 0 60 -13 522 560 _sc
343 275 _m
270 275 220 266 192 250 _c
164 233 150 205 150 165 _c
150 133 160 107 181 89 _c
202 70 231 61 267 61 _c
317 61 357 78 387 114 _c
417 149 432 196 432 255 _c
432 275 _l
343 275 _l
522 312 _m
522 0 _l
432 0 _l
432 83 _l
411 49 385 25 355 10 _c
325 -5 287 -13 243 -13 _c
187 -13 142 2 109 33 _c
76 64 60 106 60 159 _c
}_e{60 220 80 266 122 298 _c
163 329 224 345 306 345 _c
432 345 _l
432 354 _l
432 395 418 427 391 450 _c
364 472 326 484 277 484 _c
245 484 215 480 185 472 _c
155 464 127 453 100 439 _c
100 522 _l
132 534 164 544 195 550 _c
226 556 256 560 286 560 _c
365 560 424 539 463 498 _c
502 457 522 395 522 312 _c
_cl}_e}_d
/b{{635 0 91 -13 580 760 _sc
487 273 _m
487 339 473 390 446 428 _c
418 466 381 485 334 485 _c
286 485 249 466 222 428 _c
194 390 181 339 181 273 _c
181 207 194 155 222 117 _c
249 79 286 61 334 61 _c
381 61 418 79 446 117 _c
473 155 487 207 487 273 _c
181 464 _m
199 496 223 520 252 536 _c
281 552 316 560 356 560 _c
422 560 476 533 518 481 _c
559 428 580 359 580 273 _c
}_e{580 187 559 117 518 65 _c
476 13 422 -13 356 -13 _c
316 -13 281 -5 252 10 _c
223 25 199 49 181 82 _c
181 0 _l
91 0 _l
91 760 _l
181 760 _l
181 464 _l
_cl}_e}_d
/c{{550 0 55 -13 488 560 _sc
488 526 _m
488 442 _l
462 456 437 466 411 473 _c
385 480 360 484 334 484 _c
276 484 230 465 198 428 _c
166 391 150 339 150 273 _c
150 206 166 154 198 117 _c
230 80 276 62 334 62 _c
360 62 385 65 411 72 _c
437 79 462 90 488 104 _c
488 21 _l
462 9 436 0 410 -5 _c
383 -10 354 -13 324 -13 _c
242 -13 176 12 128 64 _c
}_e{79 115 55 185 55 273 _c
55 362 79 432 128 483 _c
177 534 244 560 330 560 _c
358 560 385 557 411 551 _c
437 545 463 537 488 526 _c
_cl}_e}_d
/d{{635 0 55 -13 544 760 _sc
454 464 _m
454 760 _l
544 760 _l
544 0 _l
454 0 _l
454 82 _l
435 49 411 25 382 10 _c
353 -5 319 -13 279 -13 _c
213 -13 159 13 117 65 _c
75 117 55 187 55 273 _c
55 359 75 428 117 481 _c
159 533 213 560 279 560 _c
319 560 353 552 382 536 _c
411 520 435 496 454 464 _c
148 273 _m
148 207 161 155 188 117 _c
215 79 253 61 301 61 _c
}_e{348 61 385 79 413 117 _c
440 155 454 207 454 273 _c
454 339 440 390 413 428 _c
385 466 348 485 301 485 _c
253 485 215 466 188 428 _c
161 390 148 339 148 273 _c
_cl}_e}_d
/e{{615 0 55 -13 562 560 _sc
562 296 _m
562 252 _l
149 252 _l
153 190 171 142 205 110 _c
238 78 284 62 344 62 _c
378 62 412 66 444 74 _c
476 82 509 95 541 113 _c
541 28 _l
509 14 476 3 442 -3 _c
408 -9 373 -13 339 -13 _c
251 -13 182 12 131 62 _c
80 112 55 181 55 268 _c
55 357 79 428 127 481 _c
175 533 241 560 323 560 _c
397 560 455 536 498 489 _c
}_e{540 441 562 377 562 296 _c
472 322 _m
471 371 457 410 431 440 _c
404 469 368 484 324 484 _c
274 484 234 469 204 441 _c
174 413 156 373 152 322 _c
472 322 _l
_cl}_e}_d
/f{352 0 23 0 371 760 _sc
371 760 _m
371 685 _l
285 685 _l
253 685 230 678 218 665 _c
205 652 199 629 199 595 _c
199 547 _l
347 547 _l
347 477 _l
199 477 _l
199 0 _l
109 0 _l
109 477 _l
23 477 _l
23 547 _l
109 547 _l
109 585 _l
109 645 123 690 151 718 _c
179 746 224 760 286 760 _c
371 760 _l
_cl}_d
/g{{635 0 55 -207 544 560 _sc
454 280 _m
454 344 440 395 414 431 _c
387 467 349 485 301 485 _c
253 485 215 467 188 431 _c
161 395 148 344 148 280 _c
148 215 161 165 188 129 _c
215 93 253 75 301 75 _c
349 75 387 93 414 129 _c
440 165 454 215 454 280 _c
544 68 _m
544 -24 523 -93 482 -139 _c
440 -184 377 -207 292 -207 _c
260 -207 231 -204 203 -200 _c
175 -195 147 -188 121 -178 _c
}_e{121 -91 _l
147 -105 173 -115 199 -122 _c
225 -129 251 -133 278 -133 _c
336 -133 380 -117 410 -87 _c
439 -56 454 -10 454 52 _c
454 96 _l
435 64 411 40 382 24 _c
353 8 319 0 279 0 _c
211 0 157 25 116 76 _c
75 127 55 195 55 280 _c
55 364 75 432 116 483 _c
157 534 211 560 279 560 _c
319 560 353 552 382 536 _c
411 520 435 496 454 464 _c
454 547 _l
544 547 _l
}_e{544 68 _l
_cl}_e}_d
/i{278 0 94 0 184 760 _sc
94 547 _m
184 547 _l
184 0 _l
94 0 _l
94 547 _l
94 760 _m
184 760 _l
184 646 _l
94 646 _l
94 760 _l
_cl}_d
/k{579 0 91 0 576 760 _sc
91 760 _m
181 760 _l
181 311 _l
449 547 _l
564 547 _l
274 291 _l
576 0 _l
459 0 _l
181 267 _l
181 0 _l
91 0 _l
91 760 _l
_cl}_d
/l{278 0 94 0 184 760 _sc
94 760 _m
184 760 _l
184 0 _l
94 0 _l
94 760 _l
_cl}_d
/n{634 0 91 0 549 560 _sc
549 330 _m
549 0 _l
459 0 _l
459 327 _l
459 379 448 417 428 443 _c
408 469 378 482 338 482 _c
289 482 251 466 223 435 _c
195 404 181 362 181 309 _c
181 0 _l
91 0 _l
91 547 _l
181 547 _l
181 462 _l
202 494 227 519 257 535 _c
286 551 320 560 358 560 _c
420 560 468 540 500 501 _c
532 462 549 405 549 330 _c
_cl}_d
/o{612 0 55 -13 557 560 _sc
306 484 _m
258 484 220 465 192 427 _c
164 389 150 338 150 273 _c
150 207 163 156 191 118 _c
219 80 257 62 306 62 _c
354 62 392 80 420 118 _c
448 156 462 207 462 273 _c
462 337 448 389 420 427 _c
392 465 354 484 306 484 _c
306 560 _m
384 560 445 534 490 484 _c
534 433 557 363 557 273 _c
557 183 534 113 490 63 _c
445 12 384 -13 306 -13 _c
227 -13 165 12 121 63 _c
77 113 55 183 55 273 _c
55 363 77 433 121 484 _c
165 534 227 560 306 560 _c
_cl}_d
/r{411 0 91 0 411 560 _sc
411 463 _m
401 469 390 473 378 476 _c
366 478 353 480 339 480 _c
288 480 249 463 222 430 _c
194 397 181 350 181 288 _c
181 0 _l
91 0 _l
91 547 _l
181 547 _l
181 462 _l
199 495 224 520 254 536 _c
284 552 321 560 365 560 _c
371 560 378 559 386 559 _c
393 558 401 557 411 555 _c
411 463 _l
_cl}_d
/s{{521 0 54 -13 472 560 _sc
443 531 _m
443 446 _l
417 458 391 468 364 475 _c
336 481 308 485 279 485 _c
234 485 200 478 178 464 _c
156 450 145 430 145 403 _c
145 382 153 366 169 354 _c
185 342 217 330 265 320 _c
296 313 _l
360 299 405 279 432 255 _c
458 230 472 195 472 151 _c
472 100 452 60 412 31 _c
372 1 316 -13 246 -13 _c
216 -13 186 -10 154 -5 _c
}_e{122 0 89 8 54 20 _c
54 113 _l
87 95 120 82 152 74 _c
184 65 216 61 248 61 _c
290 61 323 68 346 82 _c
368 96 380 117 380 144 _c
380 168 371 187 355 200 _c
339 213 303 226 247 238 _c
216 245 _l
160 257 119 275 95 299 _c
70 323 58 356 58 399 _c
58 450 76 490 112 518 _c
148 546 200 560 268 560 _c
301 560 332 557 362 552 _c
391 547 418 540 443 531 _c
}_e{_cl}_e}_d
/t{392 0 27 0 368 702 _sc
183 702 _m
183 547 _l
368 547 _l
368 477 _l
183 477 _l
183 180 _l
183 135 189 106 201 94 _c
213 81 238 75 276 75 _c
368 75 _l
368 0 _l
276 0 _l
206 0 158 13 132 39 _c
106 65 93 112 93 180 _c
93 477 _l
27 477 _l
27 547 _l
93 547 _l
93 702 _l
183 702 _l
_cl}_d
/u{634 0 85 -13 543 560 _sc
85 216 _m
85 547 _l
175 547 _l
175 219 _l
175 167 185 129 205 103 _c
225 77 255 64 296 64 _c
344 64 383 79 411 110 _c
439 141 453 183 453 237 _c
453 547 _l
543 547 _l
543 0 _l
453 0 _l
453 84 _l
431 50 405 26 377 10 _c
348 -5 315 -13 277 -13 _c
214 -13 166 6 134 45 _c
101 83 85 140 85 216 _c
311 560 _m
311 560 _l
_cl}_d
/w{818 0 42 0 776 547 _sc
42 547 _m
132 547 _l
244 120 _l
356 547 _l
462 547 _l
574 120 _l
686 547 _l
776 547 _l
633 0 _l
527 0 _l
409 448 _l
291 0 _l
185 0 _l
42 547 _l
_cl}_d
/y{592 0 30 -207 562 547 _sc
322 -50 _m
296 -114 271 -157 247 -177 _c
223 -197 191 -207 151 -207 _c
79 -207 _l
79 -132 _l
132 -132 _l
156 -132 175 -126 189 -114 _c
203 -102 218 -75 235 -31 _c
251 9 _l
30 547 _l
125 547 _l
296 119 _l
467 547 _l
562 547 _l
322 -50 _l
_cl}_d
/minus{838 0 106 272 732 355 _sc
106 355 _m
732 355 _l
732 272 _l
106 272 _l
106 355 _l
_cl}_d
end readonly def

/BuildGlyph
 {exch begin
 CharStrings exch
 2 copy known not{pop /.notdef}if
 true 3 1 roll get exec
 end}_d

/BuildChar {
 1 index /Encoding get exch get
 1 index /BuildGlyph get exec
}_d

FontName currentdict end definefont pop
end
%%EndProlog
mpldict begin
75.6 223.2 translate
460.8 345.6 0 0 clipbox
gsave
0 0 m
460.8 0 l
460.8 345.6 l
0 345.6 l
cl
1.000 setgray
fill
grestore
gsave
131.657143 55.131429 m
414.72 55.131429 l
414.72 304.128 l
131.657143 304.128 l
cl
1.000 setgray
fill
grestore
0.800 setlinewidth
1 setlinejoin
0 setlinecap
[] 0 setdash
0.000 setgray
gsave
/o {
gsave
newpath
translate
0.8 setlinewidth
1 setlinejoin
0 setlinecap
0 0 m
0 -3.5 l

gsave
0.000 setgray
fill
grestore
stroke
grestore
} bind def
204.976 55.1314 o
grestore
gsave
181.475604 32.287679 translate
0.000000 rotate
/DejaVuSans findfont
20.0 scalefont
setfont
0.000000 0.953125 moveto
/one glyphshow

12.724609 0.953125 moveto
/zero glyphshow

/DejaVuSans findfont
14.0 scalefont
setfont
25.640625 8.609375 moveto
/minus glyphshow

37.371094 8.609375 moveto
/two glyphshow


grestore
gsave
/o {
gsave
newpath
translate
0.8 setlinewidth
1 setlinejoin
0 setlinecap
0 0 m
0 -3.5 l

gsave
0.000 setgray
fill
grestore
stroke
grestore
} bind def
325.88 55.1314 o
grestore
gsave
307.879539 32.287679 translate
0.000000 rotate
/DejaVuSans findfont
20.0 scalefont
setfont
0.000000 0.953125 moveto
/one glyphshow

12.724609 0.953125 moveto
/zero glyphshow

/DejaVuSans findfont
14.0 scalefont
setfont
25.640625 8.609375 moveto
/zero glyphshow


grestore
0.600 setlinewidth
gsave
/o {
gsave
newpath
translate
0.6 setlinewidth
1 setlinejoin
0 setlinecap
0 0 m
0 -2 l

gsave
0.000 setgray
fill
grestore
stroke
grestore
} bind def
135.16 55.1314 o
grestore
gsave
/o {
gsave
newpath
translate
0.6 setlinewidth
1 setlinejoin
0 setlinecap
0 0 m
0 -2 l

gsave
0.000 setgray
fill
grestore
stroke
grestore
} bind def
138.665 55.1314 o
grestore
gsave
/o {
gsave
newpath
translate
0.6 setlinewidth
1 setlinejoin
0 setlinecap
0 0 m
0 -2 l

gsave
0.000 setgray
fill
grestore
stroke
grestore
} bind def
141.758 55.1314 o
grestore
gsave
/o {
gsave
newpath
translate
0.6 setlinewidth
1 setlinejoin
0 setlinecap
0 0 m
0 -2 l

gsave
0.000 setgray
fill
grestore
stroke
grestore
} bind def
223.173 55.1314 o
grestore
gsave
/o {
gsave
newpath
translate
0.6 setlinewidth
1 setlinejoin
0 setlinecap
0 0 m
0 -2 l

gsave
0.000 setgray
fill
grestore
stroke
grestore
} bind def
233.819 55.1314 o
grestore
gsave
/o {
gsave
newpath
translate
0.6 setlinewidth
1 setlinejoin
0 setlinecap
0 0 m
0 -2 l

gsave
0.000 setgray
fill
grestore
stroke
grestore
} bind def
241.371 55.1314 o
grestore
gsave
/o {
gsave
newpath
translate
0.6 setlinewidth
1 setlinejoin
0 setlinecap
0 0 m
0 -2 l

gsave
0.000 setgray
fill
grestore
stroke
grestore
} bind def
247.23 55.1314 o
grestore
gsave
/o {
gsave
newpath
translate
0.6 setlinewidth
1 setlinejoin
0 setlinecap
0 0 m
0 -2 l

gsave
0.000 setgray
fill
grestore
stroke
grestore
} bind def
252.016 55.1314 o
grestore
gsave
/o {
gsave
newpath
translate
0.6 setlinewidth
1 setlinejoin
0 setlinecap
0 0 m
0 -2 l

gsave
0.000 setgray
fill
grestore
stroke
grestore
} bind def
256.063 55.1314 o
grestore
gsave
/o {
gsave
newpath
translate
0.6 setlinewidth
1 setlinejoin
0 setlinecap
0 0 m
0 -2 l

gsave
0.000 setgray
fill
grestore
stroke
grestore
} bind def
259.569 55.1314 o
grestore
gsave
/o {
gsave
newpath
translate
0.6 setlinewidth
1 setlinejoin
0 setlinecap
0 0 m
0 -2 l

gsave
0.000 setgray
fill
grestore
stroke
grestore
} bind def
262.661 55.1314 o
grestore
gsave
/o {
gsave
newpath
translate
0.6 setlinewidth
1 setlinejoin
0 setlinecap
0 0 m
0 -2 l

gsave
0.000 setgray
fill
grestore
stroke
grestore
} bind def
344.077 55.1314 o
grestore
gsave
/o {
gsave
newpath
translate
0.6 setlinewidth
1 setlinejoin
0 setlinecap
0 0 m
0 -2 l

gsave
0.000 setgray
fill
grestore
stroke
grestore
} bind def
354.722 55.1314 o
grestore
gsave
/o {
gsave
newpath
translate
0.6 setlinewidth
1 setlinejoin
0 setlinecap
0 0 m
0 -2 l

gsave
0.000 setgray
fill
grestore
stroke
grestore
} bind def
362.275 55.1314 o
grestore
gsave
/o {
gsave
newpath
translate
0.6 setlinewidth
1 setlinejoin
0 setlinecap
0 0 m
0 -2 l

gsave
0.000 setgray
fill
grestore
stroke
grestore
} bind def
368.134 55.1314 o
grestore
gsave
/o {
gsave
newpath
translate
0.6 setlinewidth
1 setlinejoin
0 setlinecap
0 0 m
0 -2 l

gsave
0.000 setgray
fill
grestore
stroke
grestore
} bind def
372.92 55.1314 o
grestore
gsave
/o {
gsave
newpath
translate
0.6 setlinewidth
1 setlinejoin
0 setlinecap
0 0 m
0 -2 l

gsave
0.000 setgray
fill
grestore
stroke
grestore
} bind def
376.967 55.1314 o
grestore
gsave
/o {
gsave
newpath
translate
0.6 setlinewidth
1 setlinejoin
0 setlinecap
0 0 m
0 -2 l

gsave
0.000 setgray
fill
grestore
stroke
grestore
} bind def
380.473 55.1314 o
grestore
gsave
/o {
gsave
newpath
translate
0.6 setlinewidth
1 setlinejoin
0 setlinecap
0 0 m
0 -2 l

gsave
0.000 setgray
fill
grestore
stroke
grestore
} bind def
383.565 55.1314 o
grestore
/DejaVuSans findfont
20.000 scalefont
setfont
gsave
132.032321 8.928304 translate
0.000000 rotate
0.000000 0.000000 m /P glyphshow
12.060547 0.000000 m /e glyphshow
24.365234 0.000000 m /r glyphshow
32.587891 0.000000 m /c glyphshow
43.583984 0.000000 m /e glyphshow
55.888672 0.000000 m /n glyphshow
68.564453 0.000000 m /t glyphshow
76.406250 0.000000 m /a glyphshow
88.662109 0.000000 m /g glyphshow
101.357422 0.000000 m /e glyphshow
113.662109 0.000000 m /space glyphshow
120.019531 0.000000 m /o glyphshow
132.255859 0.000000 m /f glyphshow
139.296875 0.000000 m /space glyphshow
145.654297 0.000000 m /k glyphshow
157.236328 0.000000 m /e glyphshow
169.541016 0.000000 m /y glyphshow
181.376953 0.000000 m /w glyphshow
197.734375 0.000000 m /o glyphshow
209.970703 0.000000 m /r glyphshow
218.193359 0.000000 m /d glyphshow
230.888672 0.000000 m /s glyphshow
241.308594 0.000000 m /space glyphshow
247.666016 0.000000 m /parenleft glyphshow
255.468750 0.000000 m /percent glyphshow
274.472656 0.000000 m /parenright glyphshow
grestore
0.800 setlinewidth
gsave
/o {
gsave
newpath
translate
0.8 setlinewidth
1 setlinejoin
0 setlinecap
0 0 m
-3.5 0 l

gsave
0.000 setgray
fill
grestore
stroke
grestore
} bind def
131.657 150.368 o
grestore
gsave
88.657143 142.446293 translate
0.000000 rotate
/DejaVuSans findfont
20.0 scalefont
setfont
0.000000 0.953125 moveto
/one glyphshow

12.724609 0.953125 moveto
/zero glyphshow

/DejaVuSans findfont
14.0 scalefont
setfont
25.640625 8.609375 moveto
/zero glyphshow


grestore
0.600 setlinewidth
gsave
/o {
gsave
newpath
translate
0.6 setlinewidth
1 setlinejoin
0 setlinecap
0 0 m
-2 0 l

gsave
0.000 setgray
fill
grestore
stroke
grestore
} bind def
131.657 65.3099 o
grestore
gsave
/o {
gsave
newpath
translate
0.6 setlinewidth
1 setlinejoin
0 setlinecap
0 0 m
-2 0 l

gsave
0.000 setgray
fill
grestore
stroke
grestore
} bind def
131.657 85.6341 o
grestore
gsave
/o {
gsave
newpath
translate
0.6 setlinewidth
1 setlinejoin
0 setlinecap
0 0 m
-2 0 l

gsave
0.000 setgray
fill
grestore
stroke
grestore
} bind def
131.657 101.399 o
grestore
gsave
/o {
gsave
newpath
translate
0.6 setlinewidth
1 setlinejoin
0 setlinecap
0 0 m
-2 0 l

gsave
0.000 setgray
fill
grestore
stroke
grestore
} bind def
131.657 114.279 o
grestore
gsave
/o {
gsave
newpath
translate
0.6 setlinewidth
1 setlinejoin
0 setlinecap
0 0 m
-2 0 l

gsave
0.000 setgray
fill
grestore
stroke
grestore
} bind def
131.657 125.17 o
grestore
gsave
/o {
gsave
newpath
translate
0.6 setlinewidth
1 setlinejoin
0 setlinecap
0 0 m
-2 0 l

gsave
0.000 setgray
fill
grestore
stroke
grestore
} bind def
131.657 134.604 o
grestore
gsave
/o {
gsave
newpath
translate
0.6 setlinewidth
1 setlinejoin
0 setlinecap
0 0 m
-2 0 l

gsave
0.000 setgray
fill
grestore
stroke
grestore
} bind def
131.657 142.925 o
grestore
gsave
/o {
gsave
newpath
translate
0.6 setlinewidth
1 setlinejoin
0 setlinecap
0 0 m
-2 0 l

gsave
0.000 setgray
fill
grestore
stroke
grestore
} bind def
131.657 199.338 o
grestore
gsave
/o {
gsave
newpath
translate
0.6 setlinewidth
1 setlinejoin
0 setlinecap
0 0 m
-2 0 l

gsave
0.000 setgray
fill
grestore
stroke
grestore
} bind def
131.657 227.983 o
grestore
gsave
/o {
gsave
newpath
translate
0.6 setlinewidth
1 setlinejoin
0 setlinecap
0 0 m
-2 0 l

gsave
0.000 setgray
fill
grestore
stroke
grestore
} bind def
131.657 248.307 o
grestore
gsave
/o {
gsave
newpath
translate
0.6 setlinewidth
1 setlinejoin
0 setlinecap
0 0 m
-2 0 l

gsave
0.000 setgray
fill
grestore
stroke
grestore
} bind def
131.657 264.072 o
grestore
gsave
/o {
gsave
newpath
translate
0.6 setlinewidth
1 setlinejoin
0 setlinecap
0 0 m
-2 0 l

gsave
0.000 setgray
fill
grestore
stroke
grestore
} bind def
131.657 276.952 o
grestore
gsave
/o {
gsave
newpath
translate
0.6 setlinewidth
1 setlinejoin
0 setlinecap
0 0 m
-2 0 l

gsave
0.000 setgray
fill
grestore
stroke
grestore
} bind def
131.657 287.843 o
grestore
gsave
/o {
gsave
newpath
translate
0.6 setlinewidth
1 setlinejoin
0 setlinecap
0 0 m
-2 0 l

gsave
0.000 setgray
fill
grestore
stroke
grestore
} bind def
131.657 297.276 o
grestore
gsave
80.500893 100.801589 translate
90.000000 rotate
0.000000 0.000000 m /D glyphshow
15.400391 0.000000 m /i glyphshow
20.957031 0.000000 m /s glyphshow
31.376953 0.000000 m /t glyphshow
39.218750 0.000000 m /r glyphshow
47.441406 0.000000 m /i glyphshow
52.998047 0.000000 m /b glyphshow
65.693359 0.000000 m /u glyphshow
78.369141 0.000000 m /t glyphshow
86.210938 0.000000 m /i glyphshow
91.767578 0.000000 m /o glyphshow
104.003906 0.000000 m /n glyphshow
116.679688 0.000000 m /space glyphshow
123.037109 0.000000 m /parenleft glyphshow
130.839844 0.000000 m /percent glyphshow
149.843750 0.000000 m /parenright glyphshow
grestore
gsave
283.1 249 131.7 55.13 clipbox
-1 292.314659 m
144.523636 292.809974 l
162.721492 247.464307 l
173.366555 133.760803 l
180.919347 198.494873 l
186.777748 222.26595 l
191.56441 182.730236 l
195.611476 162.406085 l
199.117203 133.760803 l
202.209474 222.26595 l
204.975604 133.760803 l
207.477873 162.406085 l
211.863704 198.494873 l
213.809331 133.760803 l
215.620667 162.406085 l
218.906695 84.791369 l
220.407329 84.791369 l
221.826808 162.406085 l
223.173459 84.791369 l
224.454394 84.791369 l
226.842763 133.760803 l
227.960122 162.406085 l
229.03186 84.791369 l
230.061559 84.791369 l
231.052392 162.406085 l
232.007187 162.406085 l
232.928473 84.791369 l
233.818522 84.791369 l
234.679385 182.730236 l
235.512914 133.760803 l
239.324516 84.791369 l
240.024663 84.791369 l
241.371315 182.730236 l
242.019594 84.791369 l
243.873584 133.760803 l
244.463586 133.760803 l
245.040619 84.791369 l
246.699315 84.791369 l
247.229716 133.760803 l
250.205042 133.760803 l
250.669726 162.406085 l
252.016378 162.406085 l
253.710769 133.760803 l
254.913451 162.406085 l
255.685682 84.791369 l
261.467874 84.791369 l
262.368098 133.760803 l
262.951543 84.791369 l
263.803097 133.760803 l
264.355833 84.791369 l
265.16371 84.791369 l
265.427571 133.760803 l
265.688807 84.791369 l
275.897022 84.791369 l
276.933497 133.760803 l
277.270091 84.791369 l
279.665729 84.791369 l
282.553688 133.760803 l
282.960734 84.791369 l
287.294731 84.791369 l
287.408631 133.760803 l
287.63496 84.791369 l
294.61823 84.791369 l
294.790387 133.760803 l
295.964881 84.791369 l
297.556518 133.760803 l
297.939794 84.791369 l
365.180159 84.791369 l
401.853506 133.760803 l
401.853506 133.760803 l
grestore
1.000 setlinewidth
2 setlinejoin
0.122 0.467 0.706 setrgbcolor
gsave
283.1 249 131.7 55.13 clipbox
/o {
gsave
newpath
translate
1.0 setlinewidth
2 setlinejoin
0 setlinecap
0 6 m
-1.347084 1.854102 l
-5.706339 1.854102 l
-2.179628 -0.708204 l
-3.526712 -4.854102 l
-0 -2.291796 l
3.526712 -4.854102 l
2.179628 -0.708204 l
5.706339 1.854102 l
1.347084 1.854102 l
cl

gsave
0.122 0.467 0.706 setrgbcolor
fill
grestore
stroke
grestore
} bind def
-1 292.315 o
144.524 292.81 o
162.721 247.464 o
173.367 133.761 o
180.919 198.495 o
186.778 222.266 o
191.564 182.73 o
195.611 162.406 o
199.117 133.761 o
202.209 222.266 o
204.976 133.761 o
207.478 162.406 o
211.864 198.495 o
213.809 133.761 o
215.621 162.406 o
218.907 84.7914 o
220.407 84.7914 o
221.827 162.406 o
223.173 84.7914 o
224.454 84.7914 o
226.843 133.761 o
227.96 162.406 o
229.032 84.7914 o
230.062 84.7914 o
231.052 162.406 o
232.007 162.406 o
232.928 84.7914 o
233.819 84.7914 o
234.679 182.73 o
235.513 133.761 o
239.325 84.7914 o
240.025 84.7914 o
240.707 133.761 o
241.371 182.73 o
242.02 84.7914 o
243.874 133.761 o
244.464 133.761 o
245.041 84.7914 o
245.605 84.7914 o
246.158 84.7914 o
246.699 84.7914 o
247.23 133.761 o
247.75 133.761 o
250.205 133.761 o
250.67 162.406 o
252.016 162.406 o
253.711 133.761 o
254.913 162.406 o
255.686 84.7914 o
256.063 84.7914 o
257.875 84.7914 o
258.904 84.7914 o
259.239 84.7914 o
259.895 84.7914 o
260.85 84.7914 o
261.161 84.7914 o
261.468 84.7914 o
262.368 133.761 o
262.952 84.7914 o
263.803 133.761 o
264.356 84.7914 o
264.628 84.7914 o
264.897 84.7914 o
265.164 84.7914 o
265.428 133.761 o
265.689 84.7914 o
266.457 84.7914 o
267.204 84.7914 o
267.448 84.7914 o
268.167 84.7914 o
268.868 84.7914 o
269.55 84.7914 o
269.773 84.7914 o
270.214 84.7914 o
271.495 84.7914 o
272.717 84.7914 o
273.307 84.7914 o
273.5 84.7914 o
275.897 84.7914 o
276.933 133.761 o
277.27 84.7914 o
278.255 84.7914 o
279.666 84.7914 o
282.554 133.761 o
282.961 84.7914 o
284.016 84.7914 o
284.401 84.7914 o
286.365 84.7914 o
286.95 84.7914 o
287.295 84.7914 o
287.409 133.761 o
287.635 84.7914 o
289.06 84.7914 o
289.484 84.7914 o
289.589 84.7914 o
290.715 84.7914 o
291.794 84.7914 o
293.016 84.7914 o
293.918 84.7914 o
294.618 84.7914 o
294.79 133.761 o
295.965 84.7914 o
297.557 133.761 o
297.94 84.7914 o
298.318 84.7914 o
299.563 84.7914 o
299.776 84.7914 o
300.199 84.7914 o
301.36 84.7914 o
301.889 84.7914 o
302.085 84.7914 o
304.74 84.7914 o
305.435 84.7914 o
305.833 84.7914 o
306.61 84.7914 o
307.044 84.7914 o
307.365 84.7914 o
308.559 84.7914 o
309.507 84.7914 o
310.136 84.7914 o
310.657 84.7914 o
310.844 84.7914 o
311.714 84.7914 o
312.686 84.7914 o
313.287 84.7914 o
315.248 84.7914 o
315.831 84.7914 o
316.1 84.7914 o
316.214 84.7914 o
317.145 84.7914 o
320.861 84.7914 o
322.042 84.7914 o
326.425 84.7914 o
327.035 84.7914 o
328.429 84.7914 o
328.477 84.7914 o
331.1 84.7914 o
332.01 84.7914 o
339.903 84.7914 o
340.026 84.7914 o
346.268 84.7914 o
347.929 84.7914 o
355.26 84.7914 o
363.743 84.7914 o
364.369 84.7914 o
364.586 84.7914 o
365.18 84.7914 o
401.854 133.761 o
grestore
gsave
283.1 249 131.7 55.13 clipbox
-1 247.612058 m
144.523636 247.657892 l
162.721492 257.767675 l
173.366555 242.003038 l
180.919347 193.033605 l
186.777748 193.033605 l
191.56441 180.152959 l
195.611476 193.033605 l
199.117203 144.064171 l
202.209474 164.388322 l
204.975604 180.152959 l
207.477873 66.449455 l
209.762266 66.449455 l
211.863704 180.152959 l
213.809331 115.418888 l
215.620667 164.388322 l
217.315058 144.064171 l
218.906695 144.064171 l
220.407329 115.418888 l
221.826808 115.418888 l
223.173459 164.388322 l
225.675729 180.152959 l
226.842763 66.449455 l
227.960122 66.449455 l
229.03186 115.418888 l
230.061559 66.449455 l
232.928473 66.449455 l
233.818522 144.064171 l
234.679385 115.418888 l
235.512914 115.418888 l
237.10455 164.388322 l
237.865588 66.449455 l
239.324516 115.418888 l
240.024663 66.449455 l
240.706622 66.449455 l
241.371315 115.418888 l
242.65225 144.064171 l
243.873584 115.418888 l
244.463586 115.418888 l
245.605242 66.449455 l
246.699315 115.418888 l
247.229716 66.449455 l
247.749613 66.449455 l
249.250248 144.064171 l
249.731985 115.418888 l
250.669726 115.418888 l
251.575125 66.449455 l
253.710769 66.449455 l
254.117816 115.418888 l
254.518647 115.418888 l
255.302406 180.152959 l
256.063443 66.449455 l
257.165169 66.449455 l
257.522372 115.418888 l
258.565712 66.449455 l
258.904478 115.418888 l
259.56917 164.388322 l
260.217449 144.064171 l
260.535683 66.449455 l
260.850105 144.064171 l
261.467874 66.449455 l
262.07144 115.418888 l
262.368098 66.449455 l
262.951543 66.449455 l
263.522304 115.418888 l
264.355833 66.449455 l
264.627897 66.449455 l
265.16371 115.418888 l
265.947469 66.449455 l
266.708506 144.064171 l
267.448103 66.449455 l
268.636268 66.449455 l
270.214233 164.388322 l
270.648193 66.449455 l
270.862512 115.418888 l
271.495168 115.418888 l
272.914647 66.449455 l
273.692599 66.449455 l
273.883537 115.418888 l
274.073097 66.449455 l
278.25473 66.449455 l
278.89122 115.418888 l
279.047961 66.449455 l
282.825752 66.449455 l
282.960734 115.418888 l
283.75637 66.449455 l
288.629965 66.449455 l
288.953427 115.418888 l
290.208835 66.449455 l
292.552751 66.449455 l
293.38044 115.418888 l
294.444936 66.449455 l
296.046797 66.449455 l
296.452585 115.418888 l
296.931394 66.449455 l
312.248646 66.449455 l
314.448331 115.418888 l
316.739486 66.449455 l
394.290053 66.449455 l
394.290053 66.449455 l
grestore
0 setlinejoin
1.000 0.498 0.055 setrgbcolor
gsave
283.1 249 131.7 55.13 clipbox
/o {
gsave
newpath
translate
1.0 setlinewidth
0 setlinejoin
0 setlinecap
-0 -6 m
6 6 l
-6 6 l
cl

gsave
1.000 0.498 0.055 setrgbcolor
fill
grestore
stroke
grestore
} bind def
-1 247.612 o
144.524 247.658 o
162.721 257.768 o
173.367 242.003 o
180.919 193.034 o
186.778 193.034 o
191.564 180.153 o
195.611 193.034 o
199.117 144.064 o
202.209 164.388 o
204.976 180.153 o
207.478 66.4495 o
209.762 66.4495 o
211.864 180.153 o
213.809 115.419 o
215.621 164.388 o
217.315 144.064 o
218.907 144.064 o
220.407 115.419 o
221.827 115.419 o
223.173 164.388 o
225.676 180.153 o
226.843 66.4495 o
227.96 66.4495 o
229.032 115.419 o
230.062 66.4495 o
231.052 66.4495 o
232.928 66.4495 o
233.819 144.064 o
234.679 115.419 o
235.513 115.419 o
237.105 164.388 o
237.866 66.4495 o
239.325 115.419 o
240.025 66.4495 o
240.707 66.4495 o
241.371 115.419 o
242.652 144.064 o
243.874 115.419 o
244.464 115.419 o
245.605 66.4495 o
246.699 115.419 o
247.23 66.4495 o
247.75 66.4495 o
249.25 144.064 o
249.732 115.419 o
250.67 115.419 o
251.575 66.4495 o
252.45 66.4495 o
253.711 66.4495 o
254.118 115.419 o
254.519 115.419 o
255.302 180.153 o
256.063 66.4495 o
256.436 66.4495 o
256.803 66.4495 o
257.165 66.4495 o
257.522 115.419 o
258.566 66.4495 o
258.904 115.419 o
259.569 164.388 o
260.217 144.064 o
260.536 66.4495 o
260.85 144.064 o
261.468 66.4495 o
262.071 115.419 o
262.368 66.4495 o
262.952 66.4495 o
263.522 115.419 o
264.356 66.4495 o
264.628 66.4495 o
265.164 115.419 o
265.947 66.4495 o
266.709 144.064 o
267.448 66.4495 o
267.69 66.4495 o
268.167 66.4495 o
268.403 66.4495 o
268.636 66.4495 o
270.214 164.388 o
270.432 115.419 o
270.648 66.4495 o
270.863 115.419 o
271.495 115.419 o
272.915 66.4495 o
273.693 66.4495 o
273.884 115.419 o
274.073 66.4495 o
274.261 66.4495 o
274.448 66.4495 o
274.818 66.4495 o
275.001 66.4495 o
275.363 66.4495 o
275.542 66.4495 o
277.102 66.4495 o
277.767 66.4495 o
278.093 66.4495 o
278.255 66.4495 o
278.891 115.419 o
279.048 66.4495 o
279.204 66.4495 o
281.149 66.4495 o
281.293 66.4495 o
282.001 66.4495 o
282.826 66.4495 o
282.961 115.419 o
283.756 66.4495 o
285.279 66.4495 o
285.524 66.4495 o
285.888 66.4495 o
286.128 66.4495 o
286.601 66.4495 o
286.718 66.4495 o
287.409 66.4495 o
288.63 66.4495 o
288.953 115.419 o
290.106 66.4495 o
290.209 66.4495 o
290.914 66.4495 o
291.113 66.4495 o
291.601 66.4495 o
291.986 66.4495 o
292.081 66.4495 o
292.553 66.4495 o
293.38 115.419 o
294.445 66.4495 o
295.3 66.4495 o
295.384 66.4495 o
295.8 66.4495 o
296.047 66.4495 o
296.453 115.419 o
296.931 66.4495 o
298.764 66.4495 o
299.705 66.4495 o
299.847 66.4495 o
300.477 66.4495 o
301.559 66.4495 o
303.538 66.4495 o
303.783 66.4495 o
303.965 66.4495 o
304.916 66.4495 o
305.55 66.4495 o
307.098 66.4495 o
308.15 66.4495 o
309.31 66.4495 o
311.122 66.4495 o
311.397 66.4495 o
312.249 66.4495 o
314.448 115.419 o
316.739 66.4495 o
317.145 66.4495 o
319.39 66.4495 o
319.424 66.4495 o
319.79 66.4495 o
321.051 66.4495 o
322.761 66.4495 o
323.776 66.4495 o
326.219 66.4495 o
329.48 66.4495 o
332.134 66.4495 o
332.565 66.4495 o
336.225 66.4495 o
337.027 66.4495 o
337.806 66.4495 o
338.235 66.4495 o
339.075 66.4495 o
343.972 66.4495 o
345.817 66.4495 o
348.166 66.4495 o
348.177 66.4495 o
350.517 66.4495 o
350.955 66.4495 o
352.448 66.4495 o
353.851 66.4495 o
356.053 66.4495 o
361.114 66.4495 o
363.768 66.4495 o
380.411 66.4495 o
394.29 66.4495 o
grestore
0.800 setlinewidth
2 setlinecap
[] 0 setdash
0.000 setgray
gsave
131.657143 55.131429 m
131.657143 304.128 l
stroke
grestore
gsave
414.72 55.131429 m
414.72 304.128 l
stroke
grestore
gsave
131.657143 55.131429 m
414.72 55.131429 l
stroke
grestore
gsave
131.657143 304.128 m
414.72 304.128 l
stroke
grestore
1.000 setlinewidth
0 setlinecap
0.800 setgray
gsave
241.391875 229.40925 m
400.72 229.40925 l
403.386667 229.40925 404.72 230.742583 404.72 233.40925 c
404.72 290.128 l
404.72 292.794667 403.386667 294.128 400.72 294.128 c
241.391875 294.128 l
238.725208 294.128 237.391875 292.794667 237.391875 290.128 c
237.391875 233.40925 l
237.391875 230.742583 238.725208 229.40925 241.391875 229.40925 c
cl
gsave
1.000 setgray
fill
grestore
stroke
grestore
gsave
245.391875 277.924875 m
285.391875 277.924875 l
grestore
2 setlinejoin
[] 0 setdash
0.122 0.467 0.706 setrgbcolor
gsave
/o {
gsave
newpath
translate
1.0 setlinewidth
2 setlinejoin
0 setlinecap
0 6 m
-1.347084 1.854102 l
-5.706339 1.854102 l
-2.179628 -0.708204 l
-3.526712 -4.854102 l
-0 -2.291796 l
3.526712 -4.854102 l
2.179628 -0.708204 l
5.706339 1.854102 l
1.347084 1.854102 l
cl

gsave
0.122 0.467 0.706 setrgbcolor
fill
grestore
stroke
grestore
} bind def
265.392 277.925 o
grestore
0.000 setgray
gsave
301.391875 270.924875 translate
0.000000 rotate
0.000000 0.000000 m /L glyphshow
11.142578 0.000000 m /o glyphshow
23.378906 0.000000 m /n glyphshow
36.054688 0.000000 m /d glyphshow
48.750000 0.000000 m /o glyphshow
60.986328 0.000000 m /n glyphshow
grestore
gsave
245.391875 248.5655 m
285.391875 248.5655 l
grestore
0 setlinejoin
1.000 0.498 0.055 setrgbcolor
gsave
/o {
gsave
newpath
translate
1.0 setlinewidth
0 setlinejoin
0 setlinecap
-0 -6 m
6 6 l
-6 6 l
cl

gsave
1.000 0.498 0.055 setrgbcolor
fill
grestore
stroke
grestore
} bind def
265.392 248.565 o
grestore
0.000 setgray
gsave
301.391875 241.565500 translate
0.000000 rotate
0.000000 0.000000 m /C glyphshow
13.964844 0.000000 m /a glyphshow
26.220703 0.000000 m /l glyphshow
31.777344 0.000000 m /i glyphshow
37.333984 0.000000 m /f glyphshow
44.375000 0.000000 m /o glyphshow
56.611328 0.000000 m /r glyphshow
64.833984 0.000000 m /n glyphshow
77.509766 0.000000 m /i glyphshow
83.066406 0.000000 m /a glyphshow
grestore

end
showpage
