%!PS-Adobe-3.0 EPSF-3.0
%%BoundingBox: 39 156 623 606
%%HiResBoundingBox: 39.930 156.426 622.214 605.870
%%Title: /media/sf_OneDrive/Research/projects/squark/squark/latex/vldb19/eps/pruning.eps
%%Creator: matplotlib version 2.0.0, http://matplotlib.org/
%%CreationDate: Fri Apr 13 12:52:31 2018
%%Orientation: portrait
%%EndComments
%%BeginProlog
/mpldict 8 dict def
mpldict begin
/m { moveto } bind def
/l { lineto } bind def
/r { rlineto } bind def
/c { curveto } bind def
/cl { closepath } bind def
/box {
m
1 index 0 r
0 exch r
neg 0 r
cl
} bind def
/clipbox {
box
clip
newpath
} bind def
%!PS-Adobe-3.0 Resource-Font
%%Title: DejaVu Sans
%%Copyright: Copyright (c) 2003 by Bitstream, Inc. All Rights Reserved. Copyright (c) 2006 by Tavmjong Bah. All Rights Reserved. DejaVu changes are in public domain 
%%Creator: Converted from TrueType to type 3 by PPR
25 dict begin
/_d{bind def}bind def
/_m{moveto}_d
/_l{lineto}_d
/_cl{closepath eofill}_d
/_c{curveto}_d
/_sc{7 -1 roll{setcachedevice}{pop pop pop pop pop pop}ifelse}_d
/_e{exec}_d
/FontName /DejaVuSans def
/PaintType 0 def
/FontMatrix[.001 0 0 .001 0 0]def
/FontBBox[-1021 -463 1793 1232]def
/FontType 3 def
/Encoding [ /space /parenleft /parenright /zero /one /two /five /B /D /G /L /N /Q /S /Y /c /d /e /g /i /m /n /o /r /s /t /u /y ] def
/FontInfo 10 dict dup begin
/FamilyName (DejaVu Sans) def
/FullName (DejaVu Sans) def
/Notice (Copyright (c) 2003 by Bitstream, Inc. All Rights Reserved. Copyright (c) 2006 by Tavmjong Bah. All Rights Reserved. DejaVu changes are in public domain ) def
/Weight (Book) def
/Version (Version 2.35) def
/ItalicAngle 0.0 def
/isFixedPitch false def
/UnderlinePosition -130 def
/UnderlineThickness 90 def
end readonly def
/CharStrings 28 dict dup begin
/space{318 0 0 0 0 0 _sc
}_d
/parenleft{390 0 86 -131 310 759 _sc
310 759 _m
266 683 234 609 213 536 _c
191 463 181 389 181 314 _c
181 238 191 164 213 91 _c
234 17 266 -56 310 -131 _c
232 -131 _l
183 -54 146 20 122 94 _c
98 168 86 241 86 314 _c
86 386 98 459 122 533 _c
146 607 182 682 232 759 _c
310 759 _l
_cl}_d
/parenright{390 0 80 -131 304 759 _sc
80 759 _m
158 759 _l
206 682 243 607 267 533 _c
291 459 304 386 304 314 _c
304 241 291 168 267 94 _c
243 20 206 -54 158 -131 _c
80 -131 _l
123 -56 155 17 177 91 _c
198 164 209 238 209 314 _c
209 389 198 463 177 536 _c
155 609 123 683 80 759 _c
_cl}_d
/zero{636 0 66 -13 570 742 _sc
318 664 _m
267 664 229 639 203 589 _c
177 539 165 464 165 364 _c
165 264 177 189 203 139 _c
229 89 267 64 318 64 _c
369 64 407 89 433 139 _c
458 189 471 264 471 364 _c
471 464 458 539 433 589 _c
407 639 369 664 318 664 _c
318 742 _m
399 742 461 709 505 645 _c
548 580 570 486 570 364 _c
570 241 548 147 505 83 _c
461 19 399 -13 318 -13 _c
236 -13 173 19 130 83 _c
87 147 66 241 66 364 _c
66 486 87 580 130 645 _c
173 709 236 742 318 742 _c
_cl}_d
/one{636 0 110 0 544 729 _sc
124 83 _m
285 83 _l
285 639 _l
110 604 _l
110 694 _l
284 729 _l
383 729 _l
383 83 _l
544 83 _l
544 0 _l
124 0 _l
124 83 _l
_cl}_d
/two{{636 0 73 0 536 742 _sc
192 83 _m
536 83 _l
536 0 _l
73 0 _l
73 83 _l
110 121 161 173 226 239 _c
290 304 331 346 348 365 _c
380 400 402 430 414 455 _c
426 479 433 504 433 528 _c
433 566 419 598 392 622 _c
365 646 330 659 286 659 _c
255 659 222 653 188 643 _c
154 632 117 616 78 594 _c
78 694 _l
118 710 155 722 189 730 _c
223 738 255 742 284 742 _c
}_e{359 742 419 723 464 685 _c
509 647 532 597 532 534 _c
532 504 526 475 515 449 _c
504 422 484 390 454 354 _c
446 344 420 317 376 272 _c
332 227 271 164 192 83 _c
_cl}_e}_d
/five{{636 0 77 -13 549 729 _sc
108 729 _m
495 729 _l
495 646 _l
198 646 _l
198 467 _l
212 472 227 476 241 478 _c
255 480 270 482 284 482 _c
365 482 429 459 477 415 _c
525 370 549 310 549 234 _c
549 155 524 94 475 51 _c
426 8 357 -13 269 -13 _c
238 -13 207 -10 175 -6 _c
143 -1 111 6 77 17 _c
77 116 _l
106 100 136 88 168 80 _c
199 72 232 69 267 69 _c
}_e{323 69 368 83 401 113 _c
433 143 450 183 450 234 _c
450 284 433 324 401 354 _c
368 384 323 399 267 399 _c
241 399 214 396 188 390 _c
162 384 135 375 108 363 _c
108 729 _l
_cl}_e}_d
/B{{686 0 98 0 615 729 _sc
197 348 _m
197 81 _l
355 81 _l
408 81 447 92 473 114 _c
498 136 511 169 511 215 _c
511 260 498 293 473 315 _c
447 337 408 348 355 348 _c
197 348 _l
197 648 _m
197 428 _l
343 428 _l
391 428 426 437 450 455 _c
474 473 486 500 486 538 _c
486 574 474 602 450 620 _c
426 638 391 648 343 648 _c
197 648 _l
98 729 _m
350 729 _l
}_e{425 729 483 713 524 682 _c
564 650 585 606 585 549 _c
585 504 574 468 553 442 _c
532 416 502 399 462 393 _c
510 382 548 360 575 327 _c
601 294 615 253 615 204 _c
615 138 592 88 548 53 _c
504 17 441 0 360 0 _c
98 0 _l
98 729 _l
_cl}_e}_d
/D{770 0 98 0 711 729 _sc
197 648 _m
197 81 _l
316 81 _l
416 81 490 103 537 149 _c
583 195 607 267 607 365 _c
607 463 583 534 537 580 _c
490 625 416 648 316 648 _c
197 648 _l
98 729 _m
301 729 _l
442 729 546 699 612 641 _c
678 582 711 490 711 365 _c
711 239 677 147 611 88 _c
545 29 441 0 301 0 _c
98 0 _l
98 729 _l
_cl}_d
/G{{775 0 56 -13 693 742 _sc
595 104 _m
595 300 _l
434 300 _l
434 381 _l
693 381 _l
693 68 _l
655 40 613 20 567 7 _c
521 -6 472 -13 420 -13 _c
306 -13 216 20 152 86 _c
88 152 56 245 56 364 _c
56 482 88 575 152 642 _c
216 708 306 742 420 742 _c
467 742 512 736 555 724 _c
598 712 638 695 674 673 _c
674 568 _l
637 598 598 621 557 637 _c
516 653 473 661 428 661 _c
}_e{338 661 271 636 227 586 _c
182 536 160 462 160 364 _c
160 265 182 191 227 141 _c
271 91 338 67 428 67 _c
462 67 493 70 521 76 _c
549 82 573 91 595 104 _c
_cl}_e}_d
/L{557 0 98 0 552 729 _sc
98 729 _m
197 729 _l
197 83 _l
552 83 _l
552 0 _l
98 0 _l
98 729 _l
_cl}_d
/N{748 0 98 0 650 729 _sc
98 729 _m
231 729 _l
554 119 _l
554 729 _l
650 729 _l
650 0 _l
517 0 _l
194 610 _l
194 0 _l
98 0 _l
98 729 _l
_cl}_d
/Q{{787 0 56 -128 731 742 _sc
394 662 _m
322 662 265 635 223 582 _c
181 528 160 456 160 364 _c
160 272 181 199 223 146 _c
265 92 322 66 394 66 _c
465 66 522 92 564 146 _c
606 199 627 272 627 364 _c
627 456 606 528 564 582 _c
522 635 465 662 394 662 _c
532 13 _m
662 -128 _l
543 -128 _l
435 -11 _l
424 -11 416 -12 410 -12 _c
404 -12 399 -13 394 -13 _c
291 -13 209 21 148 89 _c
}_e{86 157 56 248 56 364 _c
56 479 86 571 148 639 _c
209 707 291 742 394 742 _c
496 742 577 707 639 639 _c
700 571 731 479 731 364 _c
731 279 714 206 680 146 _c
646 86 596 41 532 13 _c
_cl}_e}_d
/S{{635 0 66 -13 579 742 _sc
535 705 _m
535 609 _l
497 627 462 640 429 649 _c
395 657 363 662 333 662 _c
279 662 237 651 208 631 _c
179 610 165 580 165 542 _c
165 510 174 485 194 469 _c
213 452 250 439 304 429 _c
364 417 _l
437 403 491 378 526 343 _c
561 307 579 260 579 201 _c
579 130 555 77 508 41 _c
460 5 391 -13 300 -13 _c
265 -13 228 -9 189 -2 _c
}_e{150 5 110 16 69 32 _c
69 134 _l
109 111 148 94 186 83 _c
224 71 262 66 300 66 _c
356 66 399 77 430 99 _c
460 121 476 152 476 194 _c
476 230 465 258 443 278 _c
421 298 385 313 335 323 _c
275 335 _l
201 349 148 372 115 404 _c
82 435 66 478 66 534 _c
66 598 88 649 134 686 _c
179 723 242 742 322 742 _c
356 742 390 739 426 733 _c
461 727 497 717 535 705 _c
}_e{_cl}_e}_d
/Y{611 0 -1 0 613 729 _sc
-1 729 _m
104 729 _l
306 429 _l
507 729 _l
613 729 _l
355 347 _l
355 0 _l
256 0 _l
256 347 _l
-1 729 _l
_cl}_d
/c{{550 0 55 -13 488 560 _sc
488 526 _m
488 442 _l
462 456 437 466 411 473 _c
385 480 360 484 334 484 _c
276 484 230 465 198 428 _c
166 391 150 339 150 273 _c
150 206 166 154 198 117 _c
230 80 276 62 334 62 _c
360 62 385 65 411 72 _c
437 79 462 90 488 104 _c
488 21 _l
462 9 436 0 410 -5 _c
383 -10 354 -13 324 -13 _c
242 -13 176 12 128 64 _c
}_e{79 115 55 185 55 273 _c
55 362 79 432 128 483 _c
177 534 244 560 330 560 _c
358 560 385 557 411 551 _c
437 545 463 537 488 526 _c
_cl}_e}_d
/d{{635 0 55 -13 544 760 _sc
454 464 _m
454 760 _l
544 760 _l
544 0 _l
454 0 _l
454 82 _l
435 49 411 25 382 10 _c
353 -5 319 -13 279 -13 _c
213 -13 159 13 117 65 _c
75 117 55 187 55 273 _c
55 359 75 428 117 481 _c
159 533 213 560 279 560 _c
319 560 353 552 382 536 _c
411 520 435 496 454 464 _c
148 273 _m
148 207 161 155 188 117 _c
215 79 253 61 301 61 _c
}_e{348 61 385 79 413 117 _c
440 155 454 207 454 273 _c
454 339 440 390 413 428 _c
385 466 348 485 301 485 _c
253 485 215 466 188 428 _c
161 390 148 339 148 273 _c
_cl}_e}_d
/e{{615 0 55 -13 562 560 _sc
562 296 _m
562 252 _l
149 252 _l
153 190 171 142 205 110 _c
238 78 284 62 344 62 _c
378 62 412 66 444 74 _c
476 82 509 95 541 113 _c
541 28 _l
509 14 476 3 442 -3 _c
408 -9 373 -13 339 -13 _c
251 -13 182 12 131 62 _c
80 112 55 181 55 268 _c
55 357 79 428 127 481 _c
175 533 241 560 323 560 _c
397 560 455 536 498 489 _c
}_e{540 441 562 377 562 296 _c
472 322 _m
471 371 457 410 431 440 _c
404 469 368 484 324 484 _c
274 484 234 469 204 441 _c
174 413 156 373 152 322 _c
472 322 _l
_cl}_e}_d
/g{{635 0 55 -207 544 560 _sc
454 280 _m
454 344 440 395 414 431 _c
387 467 349 485 301 485 _c
253 485 215 467 188 431 _c
161 395 148 344 148 280 _c
148 215 161 165 188 129 _c
215 93 253 75 301 75 _c
349 75 387 93 414 129 _c
440 165 454 215 454 280 _c
544 68 _m
544 -24 523 -93 482 -139 _c
440 -184 377 -207 292 -207 _c
260 -207 231 -204 203 -200 _c
175 -195 147 -188 121 -178 _c
}_e{121 -91 _l
147 -105 173 -115 199 -122 _c
225 -129 251 -133 278 -133 _c
336 -133 380 -117 410 -87 _c
439 -56 454 -10 454 52 _c
454 96 _l
435 64 411 40 382 24 _c
353 8 319 0 279 0 _c
211 0 157 25 116 76 _c
75 127 55 195 55 280 _c
55 364 75 432 116 483 _c
157 534 211 560 279 560 _c
319 560 353 552 382 536 _c
411 520 435 496 454 464 _c
454 547 _l
544 547 _l
}_e{544 68 _l
_cl}_e}_d
/i{278 0 94 0 184 760 _sc
94 547 _m
184 547 _l
184 0 _l
94 0 _l
94 547 _l
94 760 _m
184 760 _l
184 646 _l
94 646 _l
94 760 _l
_cl}_d
/m{{974 0 91 0 889 560 _sc
520 442 _m
542 482 569 511 600 531 _c
631 550 668 560 711 560 _c
767 560 811 540 842 500 _c
873 460 889 403 889 330 _c
889 0 _l
799 0 _l
799 327 _l
799 379 789 418 771 444 _c
752 469 724 482 686 482 _c
639 482 602 466 575 435 _c
548 404 535 362 535 309 _c
535 0 _l
445 0 _l
445 327 _l
445 379 435 418 417 444 _c
398 469 369 482 331 482 _c
}_e{285 482 248 466 221 435 _c
194 404 181 362 181 309 _c
181 0 _l
91 0 _l
91 547 _l
181 547 _l
181 462 _l
201 495 226 520 255 536 _c
283 552 317 560 357 560 _c
397 560 430 550 458 530 _c
486 510 506 480 520 442 _c
_cl}_e}_d
/n{634 0 91 0 549 560 _sc
549 330 _m
549 0 _l
459 0 _l
459 327 _l
459 379 448 417 428 443 _c
408 469 378 482 338 482 _c
289 482 251 466 223 435 _c
195 404 181 362 181 309 _c
181 0 _l
91 0 _l
91 547 _l
181 547 _l
181 462 _l
202 494 227 519 257 535 _c
286 551 320 560 358 560 _c
420 560 468 540 500 501 _c
532 462 549 405 549 330 _c
_cl}_d
/o{612 0 55 -13 557 560 _sc
306 484 _m
258 484 220 465 192 427 _c
164 389 150 338 150 273 _c
150 207 163 156 191 118 _c
219 80 257 62 306 62 _c
354 62 392 80 420 118 _c
448 156 462 207 462 273 _c
462 337 448 389 420 427 _c
392 465 354 484 306 484 _c
306 560 _m
384 560 445 534 490 484 _c
534 433 557 363 557 273 _c
557 183 534 113 490 63 _c
445 12 384 -13 306 -13 _c
227 -13 165 12 121 63 _c
77 113 55 183 55 273 _c
55 363 77 433 121 484 _c
165 534 227 560 306 560 _c
_cl}_d
/r{411 0 91 0 411 560 _sc
411 463 _m
401 469 390 473 378 476 _c
366 478 353 480 339 480 _c
288 480 249 463 222 430 _c
194 397 181 350 181 288 _c
181 0 _l
91 0 _l
91 547 _l
181 547 _l
181 462 _l
199 495 224 520 254 536 _c
284 552 321 560 365 560 _c
371 560 378 559 386 559 _c
393 558 401 557 411 555 _c
411 463 _l
_cl}_d
/s{{521 0 54 -13 472 560 _sc
443 531 _m
443 446 _l
417 458 391 468 364 475 _c
336 481 308 485 279 485 _c
234 485 200 478 178 464 _c
156 450 145 430 145 403 _c
145 382 153 366 169 354 _c
185 342 217 330 265 320 _c
296 313 _l
360 299 405 279 432 255 _c
458 230 472 195 472 151 _c
472 100 452 60 412 31 _c
372 1 316 -13 246 -13 _c
216 -13 186 -10 154 -5 _c
}_e{122 0 89 8 54 20 _c
54 113 _l
87 95 120 82 152 74 _c
184 65 216 61 248 61 _c
290 61 323 68 346 82 _c
368 96 380 117 380 144 _c
380 168 371 187 355 200 _c
339 213 303 226 247 238 _c
216 245 _l
160 257 119 275 95 299 _c
70 323 58 356 58 399 _c
58 450 76 490 112 518 _c
148 546 200 560 268 560 _c
301 560 332 557 362 552 _c
391 547 418 540 443 531 _c
}_e{_cl}_e}_d
/t{392 0 27 0 368 702 _sc
183 702 _m
183 547 _l
368 547 _l
368 477 _l
183 477 _l
183 180 _l
183 135 189 106 201 94 _c
213 81 238 75 276 75 _c
368 75 _l
368 0 _l
276 0 _l
206 0 158 13 132 39 _c
106 65 93 112 93 180 _c
93 477 _l
27 477 _l
27 547 _l
93 547 _l
93 702 _l
183 702 _l
_cl}_d
/u{634 0 85 -13 543 560 _sc
85 216 _m
85 547 _l
175 547 _l
175 219 _l
175 167 185 129 205 103 _c
225 77 255 64 296 64 _c
344 64 383 79 411 110 _c
439 141 453 183 453 237 _c
453 547 _l
543 547 _l
543 0 _l
453 0 _l
453 84 _l
431 50 405 26 377 10 _c
348 -5 315 -13 277 -13 _c
214 -13 166 6 134 45 _c
101 83 85 140 85 216 _c
311 560 _m
311 560 _l
_cl}_d
/y{592 0 30 -207 562 547 _sc
322 -50 _m
296 -114 271 -157 247 -177 _c
223 -197 191 -207 151 -207 _c
79 -207 _l
79 -132 _l
132 -132 _l
156 -132 175 -126 189 -114 _c
203 -102 218 -75 235 -31 _c
251 9 _l
30 547 _l
125 547 _l
296 119 _l
467 547 _l
562 547 _l
322 -50 _l
_cl}_d
end readonly def

/BuildGlyph
 {exch begin
 CharStrings exch
 2 copy known not{pop /.notdef}if
 true 3 1 roll get exec
 end}_d

/BuildChar {
 1 index /Encoding get exch get
 1 index /BuildGlyph get exec
}_d

FontName currentdict end definefont pop
end
%%EndProlog
mpldict begin
-88.56 120.6 translate
789.12 550.8 0 0 clipbox
gsave
0 0 m
789.12 0 l
789.12 550.8 l
0 550.8 l
cl
1.000 setgray
fill
grestore
gsave
227.341714 93.111429 m
710.208 93.111429 l
710.208 484.704 l
227.341714 484.704 l
cl
1.000 setgray
fill
grestore
gsave
482.9 391.6 227.3 93.11 clipbox
241.543664 93.111429 m
269.947563 93.111429 l
269.947563 100.125027 l
241.543664 100.125027 l
cl
0.933 0.196 0.141 setrgbcolor
fill
grestore
gsave
482.9 391.6 227.3 93.11 clipbox
355.159261 93.111429 m
383.56316 93.111429 l
383.56316 130.078936 l
355.159261 130.078936 l
cl
0.933 0.196 0.141 setrgbcolor
fill
grestore
gsave
482.9 391.6 227.3 93.11 clipbox
468.774857 93.111429 m
497.178756 93.111429 l
497.178756 208.105217 l
468.774857 208.105217 l
cl
0.933 0.196 0.141 setrgbcolor
fill
grestore
gsave
482.9 391.6 227.3 93.11 clipbox
582.390454 93.111429 m
610.794353 93.111429 l
610.794353 261.291671 l
582.390454 261.291671 l
cl
0.933 0.196 0.141 setrgbcolor
fill
grestore
gsave
482.9 391.6 227.3 93.11 clipbox
269.947563 93.111429 m
298.351462 93.111429 l
298.351462 110.937658 l
269.947563 110.937658 l
cl
1.000 0.761 0.133 setrgbcolor
fill
grestore
gsave
482.9 391.6 227.3 93.11 clipbox
383.56316 93.111429 m
411.967059 93.111429 l
411.967059 158.425563 l
383.56316 158.425563 l
cl
1.000 0.761 0.133 setrgbcolor
fill
grestore
gsave
482.9 391.6 227.3 93.11 clipbox
497.178756 93.111429 m
525.582655 93.111429 l
525.582655 183.119273 l
497.178756 183.119273 l
cl
1.000 0.761 0.133 setrgbcolor
fill
grestore
gsave
482.9 391.6 227.3 93.11 clipbox
610.794353 93.111429 m
639.198252 93.111429 l
639.198252 316.523758 l
610.794353 316.523758 l
cl
1.000 0.761 0.133 setrgbcolor
fill
grestore
0.800 setlinewidth
1 setlinejoin
2 setlinecap
[] 0 setdash
0.690 setgray
gsave
482.9 391.6 227.3 93.11 clipbox
298.351462 93.111429 m
298.351462 484.704 l
stroke
grestore
0 setlinecap
0.000 setgray
gsave
/o {
gsave
newpath
translate
0.8 setlinewidth
1 setlinejoin
0 setlinecap
0 0 m
0 -3.5 l

gsave
0.000 setgray
fill
grestore
stroke
grestore
} bind def
298.351 93.1114 o
grestore
/DejaVuSans findfont
25.000 scalefont
setfont
gsave
243.296775 67.111429 translate
0.000000 rotate
0.000000 0.000000 m /L glyphshow
13.928223 0.000000 m /B glyphshow
31.079102 0.000000 m /space glyphshow
39.025879 0.000000 m /parenleft glyphshow
48.779297 0.000000 m /Y glyphshow
64.003418 0.000000 m /e glyphshow
79.384277 0.000000 m /s glyphshow
92.409180 0.000000 m /parenright glyphshow
102.162598 0.000000 m /space glyphshow
grestore
gsave
243.499900 39.108304 translate
0.000000 rotate
0.000000 0.000000 m /G glyphshow
19.372559 0.000000 m /D glyphshow
38.623047 0.000000 m /space glyphshow
46.569824 0.000000 m /parenleft glyphshow
56.323242 0.000000 m /Y glyphshow
71.547363 0.000000 m /e glyphshow
86.928223 0.000000 m /s glyphshow
99.953125 0.000000 m /parenright glyphshow
grestore
2 setlinecap
0.690 setgray
gsave
482.9 391.6 227.3 93.11 clipbox
411.967059 93.111429 m
411.967059 484.704 l
stroke
grestore
0 setlinecap
0.000 setgray
gsave
/o {
gsave
newpath
translate
0.8 setlinewidth
1 setlinejoin
0 setlinecap
0 0 m
0 -3.5 l

gsave
0.000 setgray
fill
grestore
stroke
grestore
} bind def
411.967 93.1114 o
grestore
gsave
356.912371 67.111429 translate
0.000000 rotate
0.000000 0.000000 m /L glyphshow
13.928223 0.000000 m /B glyphshow
31.079102 0.000000 m /space glyphshow
39.025879 0.000000 m /parenleft glyphshow
48.779297 0.000000 m /Y glyphshow
64.003418 0.000000 m /e glyphshow
79.384277 0.000000 m /s glyphshow
92.409180 0.000000 m /parenright glyphshow
102.162598 0.000000 m /space glyphshow
grestore
gsave
361.927996 39.108304 translate
0.000000 rotate
0.000000 0.000000 m /G glyphshow
19.372559 0.000000 m /D glyphshow
38.623047 0.000000 m /space glyphshow
46.569824 0.000000 m /parenleft glyphshow
56.323242 0.000000 m /N glyphshow
75.024414 0.000000 m /o glyphshow
90.319824 0.000000 m /parenright glyphshow
grestore
2 setlinecap
0.690 setgray
gsave
482.9 391.6 227.3 93.11 clipbox
525.582655 93.111429 m
525.582655 484.704 l
stroke
grestore
0 setlinecap
0.000 setgray
gsave
/o {
gsave
newpath
translate
0.8 setlinewidth
1 setlinejoin
0 setlinecap
0 0 m
0 -3.5 l

gsave
0.000 setgray
fill
grestore
stroke
grestore
} bind def
525.583 93.1114 o
grestore
gsave
475.340468 67.111429 translate
0.000000 rotate
0.000000 0.000000 m /L glyphshow
13.928223 0.000000 m /B glyphshow
31.079102 0.000000 m /space glyphshow
39.025879 0.000000 m /parenleft glyphshow
48.779297 0.000000 m /N glyphshow
67.480469 0.000000 m /o glyphshow
82.775879 0.000000 m /parenright glyphshow
92.529297 0.000000 m /space glyphshow
grestore
gsave
470.731093 39.108304 translate
0.000000 rotate
0.000000 0.000000 m /G glyphshow
19.372559 0.000000 m /D glyphshow
38.623047 0.000000 m /space glyphshow
46.569824 0.000000 m /parenleft glyphshow
56.323242 0.000000 m /Y glyphshow
71.547363 0.000000 m /e glyphshow
86.928223 0.000000 m /s glyphshow
99.953125 0.000000 m /parenright glyphshow
grestore
2 setlinecap
0.690 setgray
gsave
482.9 391.6 227.3 93.11 clipbox
639.198252 93.111429 m
639.198252 484.704 l
stroke
grestore
0 setlinecap
0.000 setgray
gsave
/o {
gsave
newpath
translate
0.8 setlinewidth
1 setlinejoin
0 setlinecap
0 0 m
0 -3.5 l

gsave
0.000 setgray
fill
grestore
stroke
grestore
} bind def
639.198 93.1114 o
grestore
gsave
588.956065 67.111429 translate
0.000000 rotate
0.000000 0.000000 m /L glyphshow
13.928223 0.000000 m /B glyphshow
31.079102 0.000000 m /space glyphshow
39.025879 0.000000 m /parenleft glyphshow
48.779297 0.000000 m /N glyphshow
67.480469 0.000000 m /o glyphshow
82.775879 0.000000 m /parenright glyphshow
92.529297 0.000000 m /space glyphshow
grestore
gsave
589.159190 39.108304 translate
0.000000 rotate
0.000000 0.000000 m /G glyphshow
19.372559 0.000000 m /D glyphshow
38.623047 0.000000 m /space glyphshow
46.569824 0.000000 m /parenleft glyphshow
56.323242 0.000000 m /N glyphshow
75.024414 0.000000 m /o glyphshow
90.319824 0.000000 m /parenright glyphshow
grestore
2 setlinecap
0.690 setgray
gsave
482.9 391.6 227.3 93.11 clipbox
227.341714 93.111429 m
710.208 93.111429 l
stroke
grestore
0 setlinecap
0.000 setgray
gsave
/o {
gsave
newpath
translate
0.8 setlinewidth
1 setlinejoin
0 setlinecap
0 0 m
-3.5 0 l

gsave
0.000 setgray
fill
grestore
stroke
grestore
} bind def
227.342 93.1114 o
grestore
gsave
204.435464 83.611429 translate
0.000000 rotate
0.000000 0.000000 m /zero glyphshow
grestore
2 setlinecap
0.690 setgray
gsave
482.9 391.6 227.3 93.11 clipbox
227.341714 166.169744 m
710.208 166.169744 l
stroke
grestore
0 setlinecap
0.000 setgray
gsave
/o {
gsave
newpath
translate
0.8 setlinewidth
1 setlinejoin
0 setlinecap
0 0 m
-3.5 0 l

gsave
0.000 setgray
fill
grestore
stroke
grestore
} bind def
227.342 166.17 o
grestore
gsave
172.622964 156.669744 translate
0.000000 rotate
0.000000 0.000000 m /five glyphshow
15.905762 0.000000 m /zero glyphshow
31.811523 0.000000 m /zero glyphshow
grestore
2 setlinecap
0.690 setgray
gsave
482.9 391.6 227.3 93.11 clipbox
227.341714 239.22806 m
710.208 239.22806 l
stroke
grestore
0 setlinecap
0.000 setgray
gsave
/o {
gsave
newpath
translate
0.8 setlinewidth
1 setlinejoin
0 setlinecap
0 0 m
-3.5 0 l

gsave
0.000 setgray
fill
grestore
stroke
grestore
} bind def
227.342 239.228 o
grestore
gsave
156.716714 229.728060 translate
0.000000 rotate
0.000000 0.000000 m /one glyphshow
15.905762 0.000000 m /zero glyphshow
31.811523 0.000000 m /zero glyphshow
47.717285 0.000000 m /zero glyphshow
grestore
2 setlinecap
0.690 setgray
gsave
482.9 391.6 227.3 93.11 clipbox
227.341714 312.286375 m
710.208 312.286375 l
stroke
grestore
0 setlinecap
0.000 setgray
gsave
/o {
gsave
newpath
translate
0.8 setlinewidth
1 setlinejoin
0 setlinecap
0 0 m
-3.5 0 l

gsave
0.000 setgray
fill
grestore
stroke
grestore
} bind def
227.342 312.286 o
grestore
gsave
156.716714 302.786375 translate
0.000000 rotate
0.000000 0.000000 m /one glyphshow
15.905762 0.000000 m /five glyphshow
31.811523 0.000000 m /zero glyphshow
47.717285 0.000000 m /zero glyphshow
grestore
2 setlinecap
0.690 setgray
gsave
482.9 391.6 227.3 93.11 clipbox
227.341714 385.344691 m
710.208 385.344691 l
stroke
grestore
0 setlinecap
0.000 setgray
gsave
/o {
gsave
newpath
translate
0.8 setlinewidth
1 setlinejoin
0 setlinecap
0 0 m
-3.5 0 l

gsave
0.000 setgray
fill
grestore
stroke
grestore
} bind def
227.342 385.345 o
grestore
gsave
156.716714 375.844691 translate
0.000000 rotate
0.000000 0.000000 m /two glyphshow
15.905762 0.000000 m /zero glyphshow
31.811523 0.000000 m /zero glyphshow
47.717285 0.000000 m /zero glyphshow
grestore
2 setlinecap
0.690 setgray
gsave
482.9 391.6 227.3 93.11 clipbox
227.341714 458.403006 m
710.208 458.403006 l
stroke
grestore
0 setlinecap
0.000 setgray
gsave
/o {
gsave
newpath
translate
0.8 setlinewidth
1 setlinejoin
0 setlinecap
0 0 m
-3.5 0 l

gsave
0.000 setgray
fill
grestore
stroke
grestore
} bind def
227.342 458.403 o
grestore
gsave
156.716714 448.903006 translate
0.000000 rotate
0.000000 0.000000 m /two glyphshow
15.905762 0.000000 m /five glyphshow
31.811523 0.000000 m /zero glyphshow
47.717285 0.000000 m /zero glyphshow
grestore
gsave
147.513589 142.673339 translate
90.000000 rotate
0.000000 0.000000 m /Q glyphshow
19.677734 0.000000 m /u glyphshow
35.522461 0.000000 m /e glyphshow
50.903320 0.000000 m /r glyphshow
61.181641 0.000000 m /y glyphshow
75.976562 0.000000 m /i glyphshow
82.922363 0.000000 m /n glyphshow
98.767090 0.000000 m /g glyphshow
114.636230 0.000000 m /space glyphshow
122.583008 0.000000 m /t glyphshow
132.385254 0.000000 m /i glyphshow
139.331055 0.000000 m /m glyphshow
163.684082 0.000000 m /e glyphshow
179.064941 0.000000 m /space glyphshow
187.011719 0.000000 m /parenleft glyphshow
196.765137 0.000000 m /i glyphshow
203.710938 0.000000 m /n glyphshow
219.555664 0.000000 m /space glyphshow
227.502441 0.000000 m /s glyphshow
240.527344 0.000000 m /e glyphshow
255.908203 0.000000 m /c glyphshow
269.653320 0.000000 m /s glyphshow
282.678223 0.000000 m /parenright glyphshow
grestore
0 setlinejoin
2 setlinecap
[] 0 setdash
gsave
227.341714 93.111429 m
227.341714 484.704 l
stroke
grestore
gsave
710.208 93.111429 m
710.208 484.704 l
stroke
grestore
gsave
227.341714 93.111429 m
710.208 93.111429 l
stroke
grestore
gsave
227.341714 484.704 m
710.208 484.704 l
stroke
grestore
1.000 setlinewidth
0 setlinecap
0.800 setgray
gsave
244.841714 391.29775 m
417.404214 391.29775 l
420.737548 391.29775 422.404214 392.964417 422.404214 396.29775 c
422.404214 467.204 l
422.404214 470.537333 420.737548 472.204 417.404214 472.204 c
244.841714 472.204 l
241.508381 472.204 239.841714 470.537333 239.841714 467.204 c
239.841714 396.29775 l
239.841714 392.964417 241.508381 391.29775 244.841714 391.29775 c
cl
gsave
1.000 setgray
fill
grestore
stroke
grestore
gsave
249.841714 443.204 m
299.841714 443.204 l
299.841714 460.704 l
249.841714 460.704 l
cl
0.933 0.196 0.141 setrgbcolor
fill
grestore
0.000 setgray
gsave
319.841714 443.204000 translate
0.000000 rotate
0.000000 0.000000 m /L glyphshow
13.928223 0.000000 m /o glyphshow
29.223633 0.000000 m /n glyphshow
45.068359 0.000000 m /d glyphshow
60.937500 0.000000 m /o glyphshow
76.232910 0.000000 m /n glyphshow
grestore
gsave
249.841714 406.500875 m
299.841714 406.500875 l
299.841714 424.000875 l
249.841714 424.000875 l
cl
1.000 0.761 0.133 setrgbcolor
fill
grestore
gsave
319.841714 406.500875 translate
0.000000 rotate
0.000000 0.000000 m /S glyphshow
15.869141 0.000000 m /y glyphshow
30.664062 0.000000 m /d glyphshow
46.533203 0.000000 m /n glyphshow
62.377930 0.000000 m /e glyphshow
77.758789 0.000000 m /y glyphshow
grestore

end
showpage
