%!PS-Adobe-3.0 EPSF-3.0
%%BoundingBox: 57 142 606 591
%%HiResBoundingBox: 57.192 142.656 605.688 590.275
%%Title: /media/sf_OneDrive/Research/projects/squark/squark/latex/vldb19/eps/ratiovsdistance.eps
%%Creator: matplotlib version 2.0.0, http://matplotlib.org/
%%CreationDate: Tue Apr 17 12:21:28 2018
%%Orientation: portrait
%%EndComments
%%BeginProlog
/mpldict 8 dict def
mpldict begin
/m { moveto } bind def
/l { lineto } bind def
/r { rlineto } bind def
/c { curveto } bind def
/cl { closepath } bind def
/box {
m
1 index 0 r
0 exch r
neg 0 r
cl
} bind def
/clipbox {
box
clip
newpath
} bind def
%!PS-Adobe-3.0 Resource-Font
%%Title: DejaVu Sans
%%Copyright: Copyright (c) 2003 by Bitstream, Inc. All Rights Reserved. Copyright (c) 2006 by Tavmjong Bah. All Rights Reserved. DejaVu changes are in public domain 
%%Creator: Converted from TrueType to type 3 by PPR
25 dict begin
/_d{bind def}bind def
/_m{moveto}_d
/_l{lineto}_d
/_cl{closepath eofill}_d
/_c{curveto}_d
/_sc{7 -1 roll{setcachedevice}{pop pop pop pop pop pop}ifelse}_d
/_e{exec}_d
/FontName /DejaVuSans def
/PaintType 0 def
/FontMatrix[.001 0 0 .001 0 0]def
/FontBBox[-1021 -463 1793 1232]def
/FontType 3 def
/Encoding [ /space /hyphen /zero /one /two /four /five /six /eight /greater /D /L /R /S /a /b /c /d /e /i /n /o /r /s /t /u /w /y ] def
/FontInfo 10 dict dup begin
/FamilyName (DejaVu Sans) def
/FullName (DejaVu Sans) def
/Notice (Copyright (c) 2003 by Bitstream, Inc. All Rights Reserved. Copyright (c) 2006 by Tavmjong Bah. All Rights Reserved. DejaVu changes are in public domain ) def
/Weight (Book) def
/Version (Version 2.35) def
/ItalicAngle 0.0 def
/isFixedPitch false def
/UnderlinePosition -130 def
/UnderlineThickness 90 def
end readonly def
/CharStrings 28 dict dup begin
/space{318 0 0 0 0 0 _sc
}_d
/hyphen{361 0 49 234 312 314 _sc
49 314 _m
312 314 _l
312 234 _l
49 234 _l
49 314 _l
_cl}_d
/zero{636 0 66 -13 570 742 _sc
318 664 _m
267 664 229 639 203 589 _c
177 539 165 464 165 364 _c
165 264 177 189 203 139 _c
229 89 267 64 318 64 _c
369 64 407 89 433 139 _c
458 189 471 264 471 364 _c
471 464 458 539 433 589 _c
407 639 369 664 318 664 _c
318 742 _m
399 742 461 709 505 645 _c
548 580 570 486 570 364 _c
570 241 548 147 505 83 _c
461 19 399 -13 318 -13 _c
236 -13 173 19 130 83 _c
87 147 66 241 66 364 _c
66 486 87 580 130 645 _c
173 709 236 742 318 742 _c
_cl}_d
/one{636 0 110 0 544 729 _sc
124 83 _m
285 83 _l
285 639 _l
110 604 _l
110 694 _l
284 729 _l
383 729 _l
383 83 _l
544 83 _l
544 0 _l
124 0 _l
124 83 _l
_cl}_d
/two{{636 0 73 0 536 742 _sc
192 83 _m
536 83 _l
536 0 _l
73 0 _l
73 83 _l
110 121 161 173 226 239 _c
290 304 331 346 348 365 _c
380 400 402 430 414 455 _c
426 479 433 504 433 528 _c
433 566 419 598 392 622 _c
365 646 330 659 286 659 _c
255 659 222 653 188 643 _c
154 632 117 616 78 594 _c
78 694 _l
118 710 155 722 189 730 _c
223 738 255 742 284 742 _c
}_e{359 742 419 723 464 685 _c
509 647 532 597 532 534 _c
532 504 526 475 515 449 _c
504 422 484 390 454 354 _c
446 344 420 317 376 272 _c
332 227 271 164 192 83 _c
_cl}_e}_d
/four{636 0 49 0 580 729 _sc
378 643 _m
129 254 _l
378 254 _l
378 643 _l
352 729 _m
476 729 _l
476 254 _l
580 254 _l
580 172 _l
476 172 _l
476 0 _l
378 0 _l
378 172 _l
49 172 _l
49 267 _l
352 729 _l
_cl}_d
/five{{636 0 77 -13 549 729 _sc
108 729 _m
495 729 _l
495 646 _l
198 646 _l
198 467 _l
212 472 227 476 241 478 _c
255 480 270 482 284 482 _c
365 482 429 459 477 415 _c
525 370 549 310 549 234 _c
549 155 524 94 475 51 _c
426 8 357 -13 269 -13 _c
238 -13 207 -10 175 -6 _c
143 -1 111 6 77 17 _c
77 116 _l
106 100 136 88 168 80 _c
199 72 232 69 267 69 _c
}_e{323 69 368 83 401 113 _c
433 143 450 183 450 234 _c
450 284 433 324 401 354 _c
368 384 323 399 267 399 _c
241 399 214 396 188 390 _c
162 384 135 375 108 363 _c
108 729 _l
_cl}_e}_d
/six{{636 0 70 -13 573 742 _sc
330 404 _m
286 404 251 388 225 358 _c
199 328 186 286 186 234 _c
186 181 199 139 225 109 _c
251 79 286 64 330 64 _c
374 64 409 79 435 109 _c
461 139 474 181 474 234 _c
474 286 461 328 435 358 _c
409 388 374 404 330 404 _c
526 713 _m
526 623 _l
501 635 476 644 451 650 _c
425 656 400 659 376 659 _c
310 659 260 637 226 593 _c
}_e{192 549 172 482 168 394 _c
187 422 211 444 240 459 _c
269 474 301 482 336 482 _c
409 482 467 459 509 415 _c
551 371 573 310 573 234 _c
573 159 550 99 506 54 _c
462 9 403 -13 330 -13 _c
246 -13 181 19 137 83 _c
92 147 70 241 70 364 _c
70 479 97 571 152 639 _c
206 707 280 742 372 742 _c
396 742 421 739 447 735 _c
472 730 498 723 526 713 _c
_cl}_e}_d
/eight{{636 0 68 -13 568 742 _sc
318 346 _m
271 346 234 333 207 308 _c
180 283 167 249 167 205 _c
167 161 180 126 207 101 _c
234 76 271 64 318 64 _c
364 64 401 76 428 102 _c
455 127 469 161 469 205 _c
469 249 455 283 429 308 _c
402 333 365 346 318 346 _c
219 388 _m
177 398 144 418 120 447 _c
96 476 85 511 85 553 _c
85 611 105 657 147 691 _c
188 725 245 742 318 742 _c
}_e{390 742 447 725 489 691 _c
530 657 551 611 551 553 _c
551 511 539 476 515 447 _c
491 418 459 398 417 388 _c
464 377 501 355 528 323 _c
554 291 568 251 568 205 _c
568 134 546 80 503 43 _c
459 5 398 -13 318 -13 _c
237 -13 175 5 132 43 _c
89 80 68 134 68 205 _c
68 251 81 291 108 323 _c
134 355 171 377 219 388 _c
183 544 _m
183 506 194 476 218 455 _c
}_e{242 434 275 424 318 424 _c
360 424 393 434 417 455 _c
441 476 453 506 453 544 _c
453 582 441 611 417 632 _c
393 653 360 664 318 664 _c
275 664 242 653 218 632 _c
194 611 183 582 183 544 _c
_cl}_e}_d
/greater{838 0 106 46 732 581 _sc
106 492 _m
106 581 _l
732 354 _l
732 273 _l
106 46 _l
106 135 _l
609 313 _l
106 492 _l
_cl}_d
/D{770 0 98 0 711 729 _sc
197 648 _m
197 81 _l
316 81 _l
416 81 490 103 537 149 _c
583 195 607 267 607 365 _c
607 463 583 534 537 580 _c
490 625 416 648 316 648 _c
197 648 _l
98 729 _m
301 729 _l
442 729 546 699 612 641 _c
678 582 711 490 711 365 _c
711 239 677 147 611 88 _c
545 29 441 0 301 0 _c
98 0 _l
98 729 _l
_cl}_d
/L{557 0 98 0 552 729 _sc
98 729 _m
197 729 _l
197 83 _l
552 83 _l
552 0 _l
98 0 _l
98 729 _l
_cl}_d
/R{{695 0 98 0 666 729 _sc
444 342 _m
465 334 486 319 506 296 _c
526 272 546 240 566 199 _c
666 0 _l
560 0 _l
467 187 _l
443 235 419 268 397 284 _c
374 300 343 308 304 308 _c
197 308 _l
197 0 _l
98 0 _l
98 729 _l
321 729 _l
404 729 466 711 507 677 _c
548 642 569 589 569 519 _c
569 473 558 434 537 404 _c
515 374 484 353 444 342 _c
197 648 _m
197 389 _l
321 389 _l
}_e{368 389 404 400 428 422 _c
452 444 465 476 465 519 _c
465 561 452 593 428 615 _c
404 637 368 648 321 648 _c
197 648 _l
_cl}_e}_d
/S{{635 0 66 -13 579 742 _sc
535 705 _m
535 609 _l
497 627 462 640 429 649 _c
395 657 363 662 333 662 _c
279 662 237 651 208 631 _c
179 610 165 580 165 542 _c
165 510 174 485 194 469 _c
213 452 250 439 304 429 _c
364 417 _l
437 403 491 378 526 343 _c
561 307 579 260 579 201 _c
579 130 555 77 508 41 _c
460 5 391 -13 300 -13 _c
265 -13 228 -9 189 -2 _c
}_e{150 5 110 16 69 32 _c
69 134 _l
109 111 148 94 186 83 _c
224 71 262 66 300 66 _c
356 66 399 77 430 99 _c
460 121 476 152 476 194 _c
476 230 465 258 443 278 _c
421 298 385 313 335 323 _c
275 335 _l
201 349 148 372 115 404 _c
82 435 66 478 66 534 _c
66 598 88 649 134 686 _c
179 723 242 742 322 742 _c
356 742 390 739 426 733 _c
461 727 497 717 535 705 _c
}_e{_cl}_e}_d
/a{{613 0 60 -13 522 560 _sc
343 275 _m
270 275 220 266 192 250 _c
164 233 150 205 150 165 _c
150 133 160 107 181 89 _c
202 70 231 61 267 61 _c
317 61 357 78 387 114 _c
417 149 432 196 432 255 _c
432 275 _l
343 275 _l
522 312 _m
522 0 _l
432 0 _l
432 83 _l
411 49 385 25 355 10 _c
325 -5 287 -13 243 -13 _c
187 -13 142 2 109 33 _c
76 64 60 106 60 159 _c
}_e{60 220 80 266 122 298 _c
163 329 224 345 306 345 _c
432 345 _l
432 354 _l
432 395 418 427 391 450 _c
364 472 326 484 277 484 _c
245 484 215 480 185 472 _c
155 464 127 453 100 439 _c
100 522 _l
132 534 164 544 195 550 _c
226 556 256 560 286 560 _c
365 560 424 539 463 498 _c
502 457 522 395 522 312 _c
_cl}_e}_d
/b{{635 0 91 -13 580 760 _sc
487 273 _m
487 339 473 390 446 428 _c
418 466 381 485 334 485 _c
286 485 249 466 222 428 _c
194 390 181 339 181 273 _c
181 207 194 155 222 117 _c
249 79 286 61 334 61 _c
381 61 418 79 446 117 _c
473 155 487 207 487 273 _c
181 464 _m
199 496 223 520 252 536 _c
281 552 316 560 356 560 _c
422 560 476 533 518 481 _c
559 428 580 359 580 273 _c
}_e{580 187 559 117 518 65 _c
476 13 422 -13 356 -13 _c
316 -13 281 -5 252 10 _c
223 25 199 49 181 82 _c
181 0 _l
91 0 _l
91 760 _l
181 760 _l
181 464 _l
_cl}_e}_d
/c{{550 0 55 -13 488 560 _sc
488 526 _m
488 442 _l
462 456 437 466 411 473 _c
385 480 360 484 334 484 _c
276 484 230 465 198 428 _c
166 391 150 339 150 273 _c
150 206 166 154 198 117 _c
230 80 276 62 334 62 _c
360 62 385 65 411 72 _c
437 79 462 90 488 104 _c
488 21 _l
462 9 436 0 410 -5 _c
383 -10 354 -13 324 -13 _c
242 -13 176 12 128 64 _c
}_e{79 115 55 185 55 273 _c
55 362 79 432 128 483 _c
177 534 244 560 330 560 _c
358 560 385 557 411 551 _c
437 545 463 537 488 526 _c
_cl}_e}_d
/d{{635 0 55 -13 544 760 _sc
454 464 _m
454 760 _l
544 760 _l
544 0 _l
454 0 _l
454 82 _l
435 49 411 25 382 10 _c
353 -5 319 -13 279 -13 _c
213 -13 159 13 117 65 _c
75 117 55 187 55 273 _c
55 359 75 428 117 481 _c
159 533 213 560 279 560 _c
319 560 353 552 382 536 _c
411 520 435 496 454 464 _c
148 273 _m
148 207 161 155 188 117 _c
215 79 253 61 301 61 _c
}_e{348 61 385 79 413 117 _c
440 155 454 207 454 273 _c
454 339 440 390 413 428 _c
385 466 348 485 301 485 _c
253 485 215 466 188 428 _c
161 390 148 339 148 273 _c
_cl}_e}_d
/e{{615 0 55 -13 562 560 _sc
562 296 _m
562 252 _l
149 252 _l
153 190 171 142 205 110 _c
238 78 284 62 344 62 _c
378 62 412 66 444 74 _c
476 82 509 95 541 113 _c
541 28 _l
509 14 476 3 442 -3 _c
408 -9 373 -13 339 -13 _c
251 -13 182 12 131 62 _c
80 112 55 181 55 268 _c
55 357 79 428 127 481 _c
175 533 241 560 323 560 _c
397 560 455 536 498 489 _c
}_e{540 441 562 377 562 296 _c
472 322 _m
471 371 457 410 431 440 _c
404 469 368 484 324 484 _c
274 484 234 469 204 441 _c
174 413 156 373 152 322 _c
472 322 _l
_cl}_e}_d
/i{278 0 94 0 184 760 _sc
94 547 _m
184 547 _l
184 0 _l
94 0 _l
94 547 _l
94 760 _m
184 760 _l
184 646 _l
94 646 _l
94 760 _l
_cl}_d
/n{634 0 91 0 549 560 _sc
549 330 _m
549 0 _l
459 0 _l
459 327 _l
459 379 448 417 428 443 _c
408 469 378 482 338 482 _c
289 482 251 466 223 435 _c
195 404 181 362 181 309 _c
181 0 _l
91 0 _l
91 547 _l
181 547 _l
181 462 _l
202 494 227 519 257 535 _c
286 551 320 560 358 560 _c
420 560 468 540 500 501 _c
532 462 549 405 549 330 _c
_cl}_d
/o{612 0 55 -13 557 560 _sc
306 484 _m
258 484 220 465 192 427 _c
164 389 150 338 150 273 _c
150 207 163 156 191 118 _c
219 80 257 62 306 62 _c
354 62 392 80 420 118 _c
448 156 462 207 462 273 _c
462 337 448 389 420 427 _c
392 465 354 484 306 484 _c
306 560 _m
384 560 445 534 490 484 _c
534 433 557 363 557 273 _c
557 183 534 113 490 63 _c
445 12 384 -13 306 -13 _c
227 -13 165 12 121 63 _c
77 113 55 183 55 273 _c
55 363 77 433 121 484 _c
165 534 227 560 306 560 _c
_cl}_d
/r{411 0 91 0 411 560 _sc
411 463 _m
401 469 390 473 378 476 _c
366 478 353 480 339 480 _c
288 480 249 463 222 430 _c
194 397 181 350 181 288 _c
181 0 _l
91 0 _l
91 547 _l
181 547 _l
181 462 _l
199 495 224 520 254 536 _c
284 552 321 560 365 560 _c
371 560 378 559 386 559 _c
393 558 401 557 411 555 _c
411 463 _l
_cl}_d
/s{{521 0 54 -13 472 560 _sc
443 531 _m
443 446 _l
417 458 391 468 364 475 _c
336 481 308 485 279 485 _c
234 485 200 478 178 464 _c
156 450 145 430 145 403 _c
145 382 153 366 169 354 _c
185 342 217 330 265 320 _c
296 313 _l
360 299 405 279 432 255 _c
458 230 472 195 472 151 _c
472 100 452 60 412 31 _c
372 1 316 -13 246 -13 _c
216 -13 186 -10 154 -5 _c
}_e{122 0 89 8 54 20 _c
54 113 _l
87 95 120 82 152 74 _c
184 65 216 61 248 61 _c
290 61 323 68 346 82 _c
368 96 380 117 380 144 _c
380 168 371 187 355 200 _c
339 213 303 226 247 238 _c
216 245 _l
160 257 119 275 95 299 _c
70 323 58 356 58 399 _c
58 450 76 490 112 518 _c
148 546 200 560 268 560 _c
301 560 332 557 362 552 _c
391 547 418 540 443 531 _c
}_e{_cl}_e}_d
/t{392 0 27 0 368 702 _sc
183 702 _m
183 547 _l
368 547 _l
368 477 _l
183 477 _l
183 180 _l
183 135 189 106 201 94 _c
213 81 238 75 276 75 _c
368 75 _l
368 0 _l
276 0 _l
206 0 158 13 132 39 _c
106 65 93 112 93 180 _c
93 477 _l
27 477 _l
27 547 _l
93 547 _l
93 702 _l
183 702 _l
_cl}_d
/u{634 0 85 -13 543 560 _sc
85 216 _m
85 547 _l
175 547 _l
175 219 _l
175 167 185 129 205 103 _c
225 77 255 64 296 64 _c
344 64 383 79 411 110 _c
439 141 453 183 453 237 _c
453 547 _l
543 547 _l
543 0 _l
453 0 _l
453 84 _l
431 50 405 26 377 10 _c
348 -5 315 -13 277 -13 _c
214 -13 166 6 134 45 _c
101 83 85 140 85 216 _c
311 560 _m
311 560 _l
_cl}_d
/w{818 0 42 0 776 547 _sc
42 547 _m
132 547 _l
244 120 _l
356 547 _l
462 547 _l
574 120 _l
686 547 _l
776 547 _l
633 0 _l
527 0 _l
409 448 _l
291 0 _l
185 0 _l
42 547 _l
_cl}_d
/y{592 0 30 -207 562 547 _sc
322 -50 _m
296 -114 271 -157 247 -177 _c
223 -197 191 -207 151 -207 _c
79 -207 _l
79 -132 _l
132 -132 _l
156 -132 175 -126 189 -114 _c
203 -102 218 -75 235 -31 _c
251 9 _l
30 547 _l
125 547 _l
296 119 _l
467 547 _l
562 547 _l
322 -50 _l
_cl}_d
end readonly def

/BuildGlyph
 {exch begin
 CharStrings exch
 2 copy known not{pop /.notdef}if
 true 3 1 roll get exec
 end}_d

/BuildChar {
 1 index /Encoding get exch get
 1 index /BuildGlyph get exec
}_d

FontName currentdict end definefont pop
end
%%EndProlog
mpldict begin
-25.92 141.12 translate
663.84 509.76 0 0 clipbox
gsave
0 0 m
663.84 0 l
663.84 509.76 l
0 509.76 l
cl
1.000 setgray
fill
grestore
gsave
150.154286 56.0736 m
597.456 56.0736 l
597.456 448.5888 l
150.154286 448.5888 l
cl
1.000 setgray
fill
grestore
gsave
447.3 392.5 150.2 56.07 clipbox
163.310218 56.0736 m
189.622084 56.0736 l
189.622084 129.9888 l
163.310218 129.9888 l
cl
0.933 0.196 0.141 setrgbcolor
fill
grestore
gsave
447.3 392.5 150.2 56.07 clipbox
268.557681 56.0736 m
294.869546 56.0736 l
294.869546 93.0312 l
268.557681 93.0312 l
cl
0.933 0.196 0.141 setrgbcolor
fill
grestore
gsave
447.3 392.5 150.2 56.07 clipbox
373.805143 56.0736 m
400.117008 56.0736 l
400.117008 91.1196 l
373.805143 91.1196 l
cl
0.933 0.196 0.141 setrgbcolor
fill
grestore
gsave
447.3 392.5 150.2 56.07 clipbox
479.052605 56.0736 m
505.364471 56.0736 l
505.364471 88.06104 l
479.052605 88.06104 l
cl
0.933 0.196 0.141 setrgbcolor
fill
grestore
gsave
447.3 392.5 150.2 56.07 clipbox
189.622084 56.0736 m
215.93395 56.0736 l
215.93395 374.6736 l
189.622084 374.6736 l
cl
1.000 0.761 0.133 setrgbcolor
fill
grestore
gsave
447.3 392.5 150.2 56.07 clipbox
294.869546 56.0736 m
321.181412 56.0736 l
321.181412 151.6536 l
294.869546 151.6536 l
cl
1.000 0.761 0.133 setrgbcolor
fill
grestore
gsave
447.3 392.5 150.2 56.07 clipbox
400.117008 56.0736 m
426.428874 56.0736 l
426.428874 105.4566 l
400.117008 105.4566 l
cl
1.000 0.761 0.133 setrgbcolor
fill
grestore
gsave
447.3 392.5 150.2 56.07 clipbox
505.364471 56.0736 m
531.676336 56.0736 l
531.676336 91.1196 l
505.364471 91.1196 l
cl
1.000 0.761 0.133 setrgbcolor
fill
grestore
0.800 setlinewidth
1 setlinejoin
2 setlinecap
[] 0 setdash
0.690 setgray
gsave
447.3 392.5 150.2 56.07 clipbox
215.93395 56.0736 m
215.93395 448.5888 l
stroke
grestore
0 setlinecap
0.000 setgray
gsave
/o {
gsave
newpath
translate
0.8 setlinewidth
1 setlinejoin
0 setlinecap
0 0 m
0 -3.5 l

gsave
0.000 setgray
fill
grestore
stroke
grestore
} bind def
215.934 56.0736 o
grestore
/DejaVuSans findfont
25.000 scalefont
setfont
gsave
195.519887 30.073600 translate
0.000000 rotate
0.000000 0.000000 m /zero glyphshow
15.905762 0.000000 m /hyphen glyphshow
24.926758 0.000000 m /five glyphshow
grestore
2 setlinecap
0.690 setgray
gsave
447.3 392.5 150.2 56.07 clipbox
321.181412 56.0736 m
321.181412 448.5888 l
stroke
grestore
0 setlinecap
0.000 setgray
gsave
/o {
gsave
newpath
translate
0.8 setlinewidth
1 setlinejoin
0 setlinecap
0 0 m
0 -3.5 l

gsave
0.000 setgray
fill
grestore
stroke
grestore
} bind def
321.181 56.0736 o
grestore
gsave
292.814224 30.073600 translate
0.000000 rotate
0.000000 0.000000 m /five glyphshow
15.905762 0.000000 m /hyphen glyphshow
24.926758 0.000000 m /one glyphshow
40.832520 0.000000 m /zero glyphshow
grestore
2 setlinecap
0.690 setgray
gsave
447.3 392.5 150.2 56.07 clipbox
426.428874 56.0736 m
426.428874 448.5888 l
stroke
grestore
0 setlinecap
0.000 setgray
gsave
/o {
gsave
newpath
translate
0.8 setlinewidth
1 setlinejoin
0 setlinecap
0 0 m
0 -3.5 l

gsave
0.000 setgray
fill
grestore
stroke
grestore
} bind def
426.429 56.0736 o
grestore
gsave
390.108561 30.073600 translate
0.000000 rotate
0.000000 0.000000 m /one glyphshow
15.905762 0.000000 m /zero glyphshow
31.811523 0.000000 m /hyphen glyphshow
40.832520 0.000000 m /two glyphshow
56.738281 0.000000 m /five glyphshow
grestore
2 setlinecap
0.690 setgray
gsave
447.3 392.5 150.2 56.07 clipbox
531.676336 56.0736 m
531.676336 448.5888 l
stroke
grestore
0 setlinecap
0.000 setgray
gsave
/o {
gsave
newpath
translate
0.8 setlinewidth
1 setlinejoin
0 setlinecap
0 0 m
0 -3.5 l

gsave
0.000 setgray
fill
grestore
stroke
grestore
} bind def
531.676 56.0736 o
grestore
gsave
505.293524 30.073600 translate
0.000000 rotate
0.000000 0.000000 m /greater glyphshow
20.947266 0.000000 m /two glyphshow
36.853027 0.000000 m /five glyphshow
grestore
gsave
113.828580 1.870475 translate
0.000000 rotate
0.000000 0.000000 m /D glyphshow
19.250488 0.000000 m /i glyphshow
26.196289 0.000000 m /s glyphshow
39.221191 0.000000 m /t glyphshow
49.023438 0.000000 m /a glyphshow
64.343262 0.000000 m /n glyphshow
80.187988 0.000000 m /c glyphshow
93.933105 0.000000 m /e glyphshow
109.313965 0.000000 m /space glyphshow
117.260742 0.000000 m /b glyphshow
133.129883 0.000000 m /e glyphshow
148.510742 0.000000 m /t glyphshow
158.312988 0.000000 m /w glyphshow
178.759766 0.000000 m /e glyphshow
194.140625 0.000000 m /e glyphshow
209.521484 0.000000 m /n glyphshow
225.366211 0.000000 m /space glyphshow
233.312988 0.000000 m /s glyphshow
246.337891 0.000000 m /o glyphshow
261.633301 0.000000 m /u glyphshow
277.478027 0.000000 m /r glyphshow
287.756348 0.000000 m /c glyphshow
301.501465 0.000000 m /e glyphshow
316.882324 0.000000 m /space glyphshow
324.829102 0.000000 m /a glyphshow
340.148926 0.000000 m /n glyphshow
355.993652 0.000000 m /d glyphshow
371.862793 0.000000 m /space glyphshow
379.809570 0.000000 m /d glyphshow
395.678711 0.000000 m /e glyphshow
411.059570 0.000000 m /s glyphshow
424.084473 0.000000 m /t glyphshow
433.886719 0.000000 m /i glyphshow
440.832520 0.000000 m /n glyphshow
456.677246 0.000000 m /a glyphshow
471.997070 0.000000 m /t glyphshow
481.799316 0.000000 m /i glyphshow
488.745117 0.000000 m /o glyphshow
504.040527 0.000000 m /n glyphshow
grestore
2 setlinecap
0.690 setgray
gsave
447.3 392.5 150.2 56.07 clipbox
150.154286 56.0736 m
597.456 56.0736 l
stroke
grestore
0 setlinecap
0.000 setgray
gsave
/o {
gsave
newpath
translate
0.8 setlinewidth
1 setlinejoin
0 setlinecap
0 0 m
-3.5 0 l

gsave
0.000 setgray
fill
grestore
stroke
grestore
} bind def
150.154 56.0736 o
grestore
gsave
127.248036 46.573600 translate
0.000000 rotate
0.000000 0.000000 m /zero glyphshow
grestore
2 setlinecap
0.690 setgray
gsave
447.3 392.5 150.2 56.07 clipbox
150.154286 119.7936 m
597.456 119.7936 l
stroke
grestore
0 setlinecap
0.000 setgray
gsave
/o {
gsave
newpath
translate
0.8 setlinewidth
1 setlinejoin
0 setlinecap
0 0 m
-3.5 0 l

gsave
0.000 setgray
fill
grestore
stroke
grestore
} bind def
150.154 119.794 o
grestore
gsave
127.248036 110.293600 translate
0.000000 rotate
0.000000 0.000000 m /two glyphshow
grestore
2 setlinecap
0.690 setgray
gsave
447.3 392.5 150.2 56.07 clipbox
150.154286 183.5136 m
597.456 183.5136 l
stroke
grestore
0 setlinecap
0.000 setgray
gsave
/o {
gsave
newpath
translate
0.8 setlinewidth
1 setlinejoin
0 setlinecap
0 0 m
-3.5 0 l

gsave
0.000 setgray
fill
grestore
stroke
grestore
} bind def
150.154 183.514 o
grestore
gsave
127.248036 174.013600 translate
0.000000 rotate
0.000000 0.000000 m /four glyphshow
grestore
2 setlinecap
0.690 setgray
gsave
447.3 392.5 150.2 56.07 clipbox
150.154286 247.2336 m
597.456 247.2336 l
stroke
grestore
0 setlinecap
0.000 setgray
gsave
/o {
gsave
newpath
translate
0.8 setlinewidth
1 setlinejoin
0 setlinecap
0 0 m
-3.5 0 l

gsave
0.000 setgray
fill
grestore
stroke
grestore
} bind def
150.154 247.234 o
grestore
gsave
127.248036 237.733600 translate
0.000000 rotate
0.000000 0.000000 m /six glyphshow
grestore
2 setlinecap
0.690 setgray
gsave
447.3 392.5 150.2 56.07 clipbox
150.154286 310.9536 m
597.456 310.9536 l
stroke
grestore
0 setlinecap
0.000 setgray
gsave
/o {
gsave
newpath
translate
0.8 setlinewidth
1 setlinejoin
0 setlinecap
0 0 m
-3.5 0 l

gsave
0.000 setgray
fill
grestore
stroke
grestore
} bind def
150.154 310.954 o
grestore
gsave
127.248036 301.453600 translate
0.000000 rotate
0.000000 0.000000 m /eight glyphshow
grestore
2 setlinecap
0.690 setgray
gsave
447.3 392.5 150.2 56.07 clipbox
150.154286 374.6736 m
597.456 374.6736 l
stroke
grestore
0 setlinecap
0.000 setgray
gsave
/o {
gsave
newpath
translate
0.8 setlinewidth
1 setlinejoin
0 setlinecap
0 0 m
-3.5 0 l

gsave
0.000 setgray
fill
grestore
stroke
grestore
} bind def
150.154 374.674 o
grestore
gsave
111.341786 365.173600 translate
0.000000 rotate
0.000000 0.000000 m /one glyphshow
15.905762 0.000000 m /zero glyphshow
grestore
2 setlinecap
0.690 setgray
gsave
447.3 392.5 150.2 56.07 clipbox
150.154286 438.3936 m
597.456 438.3936 l
stroke
grestore
0 setlinecap
0.000 setgray
gsave
/o {
gsave
newpath
translate
0.8 setlinewidth
1 setlinejoin
0 setlinecap
0 0 m
-3.5 0 l

gsave
0.000 setgray
fill
grestore
stroke
grestore
} bind def
150.154 438.394 o
grestore
gsave
111.341786 428.893600 translate
0.000000 rotate
0.000000 0.000000 m /one glyphshow
15.905762 0.000000 m /two glyphshow
grestore
gsave
102.138661 219.956200 translate
90.000000 rotate
0.000000 0.000000 m /R glyphshow
17.370605 0.000000 m /a glyphshow
32.690430 0.000000 m /t glyphshow
42.492676 0.000000 m /i glyphshow
49.438477 0.000000 m /o glyphshow
grestore
0 setlinejoin
2 setlinecap
[] 0 setdash
gsave
150.154286 56.0736 m
150.154286 448.5888 l
stroke
grestore
gsave
597.456 56.0736 m
597.456 448.5888 l
stroke
grestore
gsave
150.154286 56.0736 m
597.456 56.0736 l
stroke
grestore
gsave
150.154286 448.5888 m
597.456 448.5888 l
stroke
grestore
1.000 setlinewidth
0 setlinecap
0.800 setgray
gsave
407.3935 355.18255 m
579.956 355.18255 l
583.289333 355.18255 584.956 356.849217 584.956 360.18255 c
584.956 431.0888 l
584.956 434.422133 583.289333 436.0888 579.956 436.0888 c
407.3935 436.0888 l
404.060167 436.0888 402.3935 434.422133 402.3935 431.0888 c
402.3935 360.18255 l
402.3935 356.849217 404.060167 355.18255 407.3935 355.18255 c
cl
gsave
1.000 setgray
fill
grestore
stroke
grestore
gsave
412.3935 407.0888 m
462.3935 407.0888 l
462.3935 424.5888 l
412.3935 424.5888 l
cl
0.933 0.196 0.141 setrgbcolor
fill
grestore
0.000 setgray
gsave
482.393500 407.088800 translate
0.000000 rotate
0.000000 0.000000 m /L glyphshow
13.928223 0.000000 m /o glyphshow
29.223633 0.000000 m /n glyphshow
45.068359 0.000000 m /d glyphshow
60.937500 0.000000 m /o glyphshow
76.232910 0.000000 m /n glyphshow
grestore
gsave
412.3935 370.385675 m
462.3935 370.385675 l
462.3935 387.885675 l
412.3935 387.885675 l
cl
1.000 0.761 0.133 setrgbcolor
fill
grestore
gsave
482.393500 370.385675 translate
0.000000 rotate
0.000000 0.000000 m /S glyphshow
15.869141 0.000000 m /y glyphshow
30.664062 0.000000 m /d glyphshow
46.533203 0.000000 m /n glyphshow
62.377930 0.000000 m /e glyphshow
77.758789 0.000000 m /y glyphshow
grestore

end
showpage
